1,117,118,119,120,121,122,123,124,125,126
2,117,118,119,120,121,122,123,124,125,126
3,117,118,119,120,121,122,123,124,125,126
4,117,118,119,120,121,122,123,124,125,126
5,117,118,119,120,121,122,123,124,125,126
6,117,118,119,120,121,122,123,124,125,126
7,117,118,119,120,121,122,123,124,125,126
8,117,118,119,120,121,122,123,124,125,126
9,119,120,121,122,123,124,125,126,127,128
10,122,123,124,125,126,127,128,148,149,150
11,122,123,124,125,126,127,128,148,149,150
12,122,123,124,125,126,127,128,148,149,150
13,122,123,124,125,126,127,128,148,149,150
14,127,128,148,149,150,151,152,153,154,155
15,153,154,155,156,157,158,159,160,161,162
16,159,160,161,162,163,164,165,166,167,168
17,165,166,167,168,169,170,171,172,173,174
18,170,171,172,173,174,175,176,177,178,179
19,170,171,172,173,174,175,176,177,178,179
20,170,171,172,173,174,175,176,177,178,179
21,170,171,172,173,174,175,176,177,178,179
22,170,171,172,173,174,175,176,177,178,179
23,170,171,172,173,174,175,176,177,178,179
24,170,171,172,173,174,175,176,177,178,179
25,170,171,172,173,174,175,176,177,178,179
26,170,171,172,173,174,175,176,177,178,179
27,170,171,172,173,174,175,176,177,178,179
28,170,171,172,173,174,175,176,177,178,179
29,174,175,176,177,178,179,180,181,182,183
30,183,184,185,186,187,188,189,190,191,192
31,193,194,195,196,197,198,199,200,201,202
32,202,203,204,205,206,207,208,209,210,211
33,207,208,209,210,211,212,213,214,215,216
34,207,208,209,210,211,212,213,214,215,216
35,207,208,209,210,211,212,213,214,215,216
36,207,208,209,210,211,212,213,214,215,216
37,207,208,209,210,211,212,213,214,215,216
38,207,208,209,210,211,212,213,214,215,216
39,207,208,209,210,211,212,213,214,215,216
40,207,208,209,210,211,212,213,214,215,216
41,207,208,209,210,211,212,213,214,215,216
42,209,210,211,212,213,214,215,216,217,218
43,212,213,214,215,216,217,218,219,220,221
44,216,217,218,219,220,221,222,223,224,225
45,220,221,222,223,224,225,226,227,228,229
46,224,225,226,227,228,229,230,231,232,233
47,229,230,231,232,233,234,235,236,237,238
48,230,231,232,233,234,235,236,237,238,258
49,237,238,258,259,260,261,262,263,264,265
50,260,261,262,263,264,265,266,267,268,269
51,263,264,265,266,267,268,269,270,271,272
52,265,266,267,268,269,270,271,272,273,274
53,265,266,267,268,269,270,271,272,273,274
54,267,268,269,270,271,272,273,274,275,276
55,273,274,275,276,277,278,279,280,281,282
56,277,278,279,280,281,282,283,284,285,286
57,304,305,306,307,308,309,310,311,312,313
58,314,315,316,317,318,319,320,321,322,323
59,323,324,325,326,327,328,329,330,331,332
60,330,331,332,333,334,335,336,337,338,339
61,335,336,337,338,339,340,341,342,343,344
62,335,336,337,338,339,340,341,342,343,344
63,339,340,341,342,343,344,402,403,404,405
64,402,403,404,405,406,407,408,409,410,411
65,404,405,406,407,408,409,410,411,412,413
66,404,405,406,407,408,409,410,411,412,413
67,404,405,406,407,408,409,410,411,412,413
68,404,405,406,407,408,409,410,411,412,413
69,404,405,406,407,408,409,410,411,412,413
70,404,405,406,407,408,409,410,411,412,413
71,404,405,406,407,408,409,410,411,412,413
72,404,405,406,407,408,409,410,411,412,413
73,404,405,406,407,408,409,410,411,412,413
74,404,405,406,407,408,409,410,411,412,413
75,404,405,406,407,408,409,410,411,412,413
76,411,412,413,414,415,416,417,418,419,420
77,415,416,417,418,419,420,421,422,423,424
78,421,422,423,424,444,445,446,447,448,449
79,448,449,450,451,452,453,454,455,456,457
80,456,457,458,459,460,461,462,463,464,465
81,463,464,465,466,467,468,469,470,471,472
82,471,472,473,474,475,476,477,478,479,480
83,479,480,481,482,483,484,485,486,487,488
84,488,489,490,491,492,493,494,495,496,497
85,496,497,498,499,500,501,502,503,504,505
86,505,506,507,508,509,510,511,512,513,514
87,509,510,511,512,513,514,515,516,517,546
88,512,513,514,515,516,517,546,547,548,549
89,549,550,551,552,553,554,555,556,557,558
90,554,555,556,557,558,559,560,561,562,563
91,554,555,556,557,558,559,560,561,562,563
92,554,555,556,557,558,559,560,561,562,563
93,554,555,556,557,558,559,560,561,562,563
94,558,559,560,561,562,563,564,565,566,567
95,560,561,562,563,564,565,566,567,568,569
96,560,561,562,563,564,565,566,567,568,569
97,560,561,562,563,564,565,566,567,568,569
98,560,561,562,563,564,565,566,567,568,569
99,560,561,562,563,564,565,566,567,568,569
100,560,561,562,563,564,565,566,567,568,569
101,560,561,562,563,564,565,566,567,568,569
102,560,561,562,563,564,565,566,567,568,569
103,560,561,562,563,564,565,566,567,568,569
104,560,561,562,563,564,565,566,567,568,569
105,560,561,562,563,564,565,566,567,568,569
106,562,563,564,565,566,567,568,569,570,571
107,564,565,566,567,568,569,570,571,572,573
108,570,571,572,573,574,575,576,577,578,579
109,574,575,576,577,578,579,580,581,582,583
110,578,579,580,581,582,583,584,585,586,587
111,581,582,583,584,585,586,587,588,589,590
112,582,583,584,585,586,587,588,589,590,610
113,588,589,590,610,611,612,613,614,615,616
114,612,613,614,615,616,617,618,619,620,621
115,619,620,621,622,623,624,625,626,627,628
116,625,626,627,628,629,630,631,632,633,634
117,634,635,636,637,638,639,640,641,642,643
118,640,641,642,643,644,645,646,647,648,649
119,645,646,647,648,649,650,651,652,653,654
120,650,651,652,653,654,655,656,657,658,659
121,656,657,658,659,660,661,662,663,664,665
122,662,663,664,665,666,667,668,669,670,671
123,663,664,665,666,667,668,669,670,671,672
124,669,670,671,672,1,2,3,4,5,6
125,4,5,6,7,8,9,10,11,12,13
126,11,12,13,14,15,16,17,18,19,20
127,18,19,20,21,22,23,24,25,26,27
128,26,27,28,29,30,31,32,33,34,35
129,36,37,38,39,40,41,42,43,44,45
130,39,40,41,42,43,44,45,46,47,90
131,46,47,90,91,92,93,94,95,96,97
132,95,96,97,98,99,100,101,102,103,104
133,102,103,104,105,106,107,108,109,110,111
134,108,109,110,111,112,113,114,115,116,117
135,113,114,115,116,117,118,119,120,121,122
136,117,118,119,120,121,122,123,124,125,126
137,119,120,121,122,123,124,125,126,127,128
138,119,120,121,122,123,124,125,126,127,128
139,125,126,127,128,148,149,150,151,152,153
140,152,153,154,155,156,157,158,159,160,161
141,158,159,160,161,162,163,164,165,166,167
142,163,164,165,166,167,168,169,170,171,172
143,170,171,172,173,174,175,176,177,178,179
144,180,181,182,183,184,185,186,187,188,189
145,190,191,192,193,194,195,196,197,198,199
146,199,200,201,202,203,204,205,206,207,208
147,206,207,208,209,210,211,212,213,214,215
148,210,211,212,213,214,215,216,217,218,219
149,214,215,216,217,218,219,220,221,222,223
150,219,220,221,222,223,224,225,226,227,228
151,224,225,226,227,228,229,230,231,232,233
152,229,230,231,232,233,234,235,236,237,238
153,230,231,232,233,234,235,236,237,238,258
154,237,238,258,259,260,261,262,263,264,265
155,260,261,262,263,264,265,266,267,268,269
156,264,265,266,267,268,269,270,271,272,273
157,265,266,267,268,269,270,271,272,273,274
158,266,267,268,269,270,271,272,273,274,275
159,274,275,276,277,278,279,280,281,282,283
160,278,279,280,281,282,283,284,285,286,287
161,283,284,285,286,287,288,289,290,291,292
162,285,286,287,288,289,290,291,292,293,294
163,288,289,290,291,292,293,294,295,296,297
164,292,293,294,295,296,297,298,299,300,301
165,298,299,300,301,302,303,673,674,675,676
166,303,673,674,675,676,677,678,679,680,681
167,679,680,681,682,683,684,685,686,687,688
168,687,688,689,690,691,692,693,694,695,696
169,696,697,698,699,700,701,702,703,704,705
170,700,701,702,703,704,705,362,363,364,365
171,362,363,364,365,366,367,368,369,370,371
172,363,364,365,366,367,368,369,370,371,372
173,363,364,365,366,367,368,369,370,371,372
174,363,364,365,366,367,368,369,370,371,372
175,363,364,365,366,367,368,369,370,371,372
176,363,364,365,366,367,368,369,370,371,372
177,363,364,365,366,367,368,369,370,371,372
178,363,364,365,366,367,368,369,370,371,372
179,363,364,365,366,367,368,369,370,371,372
180,363,364,365,366,367,368,369,370,371,372
181,363,364,365,366,367,368,369,370,371,372
182,364,365,366,367,368,369,370,371,372,373
183,369,370,371,372,373,374,375,376,377,378
184,371,372,373,374,375,376,377,378,379,380
185,374,375,376,377,378,379,380,425,426,427
186,377,378,379,380,425,426,427,428,429,430
187,380,425,426,427,428,429,430,431,432,433
188,426,427,428,429,430,431,432,433,434,435
189,429,430,431,432,433,434,435,436,437,438
190,432,433,434,435,436,437,438,439,440,441
191,434,435,436,437,438,439,440,441,442,443
192,434,435,436,437,438,439,440,441,442,443
193,434,435,436,437,438,439,440,441,442,443
194,436,437,438,439,440,441,442,443,518,519
195,439,440,441,442,443,518,519,520,521,522
196,519,520,521,522,523,524,525,526,527,528
197,526,527,528,529,530,531,532,533,534,535
198,534,535,536,537,538,539,540,541,542,543
199,536,537,538,539,540,541,542,543,544,545
200,538,539,540,541,542,543,544,545,546,547
201,544,545,546,547,548,549,550,551,552,553
202,554,555,556,557,558,559,560,561,562,563
203,561,562,563,564,565,566,567,568,569,570
204,564,565,566,567,568,569,570,571,572,573
205,569,570,571,572,573,574,575,576,577,578
206,574,575,576,577,578,579,580,581,582,583
207,578,579,580,581,582,583,584,585,586,587
208,581,582,583,584,585,586,587,588,589,590
209,582,583,584,585,586,587,588,589,590,610
210,588,589,590,610,611,612,613,614,615,616
211,613,614,615,616,617,618,619,620,621,622
212,620,621,622,623,624,625,626,627,628,629
213,627,628,629,630,631,632,633,634,635,636
214,635,636,637,638,639,640,641,642,643,644
215,640,641,642,643,644,645,646,647,648,649
216,646,647,648,649,650,651,652,653,654,655
217,651,652,653,654,655,656,657,658,659,660
218,656,657,658,659,660,661,662,663,664,665
219,663,664,665,666,667,668,669,670,671,672
220,664,665,666,667,668,669,670,671,672,1
221,669,670,671,672,1,2,3,4,5,6
222,5,6,7,8,9,10,11,12,13,14
223,11,12,13,14,15,16,17,18,19,20
224,18,19,20,21,22,23,24,25,26,27
225,26,27,28,29,30,31,32,33,34,35
226,36,37,38,39,40,41,42,43,44,45
227,40,41,42,43,44,45,46,47,90,91
228,90,91,92,93,94,95,96,97,98,99
229,100,101,102,103,104,105,106,107,108,109
230,104,105,106,107,108,109,110,111,112,113
231,111,112,113,114,115,116,117,118,119,120
232,116,117,118,119,120,121,122,123,124,125
233,119,120,121,122,123,124,125,126,127,128
234,120,121,122,123,124,125,126,127,128,148
235,127,128,148,149,150,151,152,153,154,155
236,154,155,156,157,158,159,160,161,162,163
237,159,160,161,162,163,164,165,166,167,168
238,165,166,167,168,169,170,171,172,173,174
239,173,174,175,176,177,178,179,180,181,182
240,183,184,185,186,187,188,189,190,191,192
241,193,194,195,196,197,198,199,200,201,202
242,202,203,204,205,206,207,208,209,210,211
243,207,208,209,210,211,212,213,214,215,216
244,211,212,213,214,215,216,217,218,219,220
245,216,217,218,219,220,221,222,223,224,225
246,220,221,222,223,224,225,226,227,228,229
247,225,226,227,228,229,230,231,232,233,234
248,229,230,231,232,233,234,235,236,237,238
249,232,233,234,235,236,237,238,239,240,241
250,240,241,242,243,244,245,246,247,248,249
251,241,242,243,244,245,246,247,248,249,250
252,241,242,243,244,245,246,247,248,249,250
253,241,242,243,244,245,246,247,248,249,250
254,241,242,243,244,245,246,247,248,249,250
255,241,242,243,244,245,246,247,248,249,250
256,241,242,243,244,245,246,247,248,249,250
257,241,242,243,244,245,246,247,248,249,250
258,241,242,243,244,245,246,247,248,249,250
259,241,242,243,244,245,246,247,248,249,250
260,241,242,243,244,245,246,247,248,249,250
261,241,242,243,244,245,246,247,248,249,250
262,241,242,243,244,245,246,247,248,249,250
263,241,242,243,244,245,246,247,248,249,250
264,241,242,243,244,245,246,247,248,249,250
265,241,242,243,244,245,246,247,248,249,250
266,241,242,243,244,245,246,247,248,249,250
267,247,248,249,250,251,252,253,254,255,256
268,248,249,250,251,252,253,254,255,256,257
269,252,253,254,255,256,257,275,276,277,278
270,276,277,278,279,280,281,282,283,284,285
271,279,280,281,282,283,284,285,286,287,288
272,283,284,285,286,287,288,289,290,291,292
273,287,288,289,290,291,292,293,294,295,296
274,290,291,292,293,294,295,296,297,298,299
275,291,292,293,294,295,296,297,298,299,300
276,292,293,294,295,296,297,298,299,300,301
277,299,300,301,302,303,673,674,675,676,677
278,677,678,679,680,681,682,683,684,685,686
279,684,685,686,687,688,689,690,691,692,693
280,689,690,691,692,693,694,695,696,697,698
281,689,690,691,692,693,694,695,696,697,698
282,689,690,691,692,693,694,695,696,697,698
283,689,690,691,692,693,694,695,696,697,698
284,689,690,691,692,693,694,695,696,697,698
285,689,690,691,692,693,694,695,696,697,698
286,689,690,691,692,693,694,695,696,697,698
287,689,690,691,692,693,694,695,696,697,698
288,689,690,691,692,693,694,695,696,697,698
289,689,690,691,692,693,694,695,696,697,698
290,689,690,691,692,693,694,695,696,697,698
291,693,694,695,696,697,698,699,700,701,702
292,696,697,698,699,700,701,702,703,704,705
293,704,705,362,363,364,365,366,367,368,369
294,363,364,365,366,367,368,369,370,371,372
295,363,364,365,366,367,368,369,370,371,372
296,363,364,365,366,367,368,369,370,371,372
297,363,364,365,366,367,368,369,370,371,372
298,363,364,365,366,367,368,369,370,371,372
299,363,364,365,366,367,368,369,370,371,372
300,363,364,365,366,367,368,369,370,371,372
301,363,364,365,366,367,368,369,370,371,372
302,363,364,365,366,367,368,369,370,371,372
303,363,364,365,366,367,368,369,370,371,372
304,363,364,365,366,367,368,369,370,371,372
305,366,367,368,369,370,371,372,373,374,375
306,371,372,373,374,375,376,377,378,379,380
307,372,373,374,375,376,377,378,379,380,425
308,373,374,375,376,377,378,379,380,425,426
309,373,374,375,376,377,378,379,380,425,426
310,373,374,375,376,377,378,379,380,425,426
311,377,378,379,380,425,426,427,428,429,430
312,426,427,428,429,430,431,432,433,434,435
313,430,431,432,433,434,435,436,437,438,439
314,433,434,435,436,437,438,439,440,441,442
315,434,435,436,437,438,439,440,441,442,443
316,434,435,436,437,438,439,440,441,442,443
317,438,439,440,441,442,443,518,519,520,521
318,518,519,520,521,522,523,524,525,526,527
319,524,525,526,527,528,529,530,531,532,533
320,532,533,534,535,536,537,538,539,540,541
321,532,533,534,535,536,537,538,539,540,541
322,532,533,534,535,536,537,538,539,540,541
323,532,533,534,535,536,537,538,539,540,541
324,534,535,536,537,538,539,540,541,542,543
325,534,535,536,537,538,539,540,541,542,543
326,534,535,536,537,538,539,540,541,542,543
327,534,535,536,537,538,539,540,541,542,543
328,534,535,536,537,538,539,540,541,542,543
329,534,535,536,537,538,539,540,541,542,543
330,534,535,536,537,538,539,540,541,542,543
331,534,535,536,537,538,539,540,541,542,543
332,534,535,536,537,538,539,540,541,542,543
333,534,535,536,537,538,539,540,541,542,543
334,534,535,536,537,538,539,540,541,542,543
335,536,537,538,539,540,541,542,543,544,545
336,536,537,538,539,540,541,542,543,544,545
337,541,542,543,544,545,546,547,548,549,550
338,551,552,553,554,555,556,557,558,559,560
339,559,560,561,562,563,564,565,566,567,568
340,564,565,566,567,568,569,570,571,572,573
341,568,569,570,571,572,573,574,575,576,577
342,571,572,573,574,575,576,577,578,579,580
343,571,572,573,574,575,576,577,578,579,580
344,571,572,573,574,575,576,577,578,579,580
345,571,572,573,574,575,576,577,578,579,580
346,571,572,573,574,575,576,577,578,579,580
347,571,572,573,574,575,576,577,578,579,580
348,571,572,573,574,575,576,577,578,579,580
349,571,572,573,574,575,576,577,578,579,580
350,571,572,573,574,575,576,577,578,579,580
351,571,572,573,574,575,576,577,578,579,580
352,571,572,573,574,575,576,577,578,579,580
353,577,578,579,580,581,582,583,584,585,586
354,583,584,585,586,587,588,589,590,610,611
355,610,611,612,613,614,615,616,617,618,619
356,616,617,618,619,620,621,622,623,624,625
357,622,623,624,625,626,627,628,629,630,631
358,630,631,632,633,634,635,636,637,638,639
359,637,638,639,640,641,642,643,644,645,646
360,642,643,644,645,646,647,648,649,650,651
361,647,648,649,650,651,652,653,654,655,656
362,652,653,654,655,656,657,658,659,660,661
363,658,659,660,661,662,663,664,665,666,667
364,663,664,665,666,667,668,669,670,671,672
365,665,666,667,668,669,670,671,672,1,2
366,672,1,2,3,4,5,6,7,8,9
367,7,8,9,10,11,12,13,14,15,16
368,13,14,15,16,17,18,19,20,21,22
369,20,21,22,23,24,25,26,27,28,29
370,29,30,31,32,33,34,35,36,37,38
371,38,39,40,41,42,43,44,45,46,47
372,42,43,44,45,46,47,90,91,92,93
373,93,94,95,96,97,98,99,100,101,102
374,102,103,104,105,106,107,108,109,110,111
375,107,108,109,110,111,112,113,114,115,116
376,116,117,118,119,120,121,122,123,124,125
377,119,120,121,122,123,124,125,126,127,128
378,120,121,122,123,124,125,126,127,128,148
379,127,128,148,149,150,151,152,153,154,155
380,154,155,156,157,158,159,160,161,162,163
381,159,160,161,162,163,164,165,166,167,168
382,165,166,167,168,169,170,171,172,173,174
383,173,174,175,176,177,178,179,180,181,182
384,183,184,185,186,187,188,189,190,191,192
385,192,193,194,195,196,197,198,199,200,201
386,201,202,203,204,205,206,207,208,209,210
387,206,207,208,209,210,211,212,213,214,215
388,211,212,213,214,215,216,217,218,219,220
389,215,216,217,218,219,220,221,222,223,224
390,219,220,221,222,223,224,225,226,227,228
391,224,225,226,227,228,229,230,231,232,233
392,229,230,231,232,233,234,235,236,237,238
393,233,234,235,236,237,238,239,240,241,242
394,240,241,242,243,244,245,246,247,248,249
395,241,242,243,244,245,246,247,248,249,250
396,241,242,243,244,245,246,247,248,249,250
397,241,242,243,244,245,246,247,248,249,250
398,241,242,243,244,245,246,247,248,249,250
399,241,242,243,244,245,246,247,248,249,250
400,241,242,243,244,245,246,247,248,249,250
401,241,242,243,244,245,246,247,248,249,250
402,241,242,243,244,245,246,247,248,249,250
403,241,242,243,244,245,246,247,248,249,250
404,241,242,243,244,245,246,247,248,249,250
405,241,242,243,244,245,246,247,248,249,250
406,247,248,249,250,251,252,253,254,255,256
407,248,249,250,251,252,253,254,255,256,257
408,250,251,252,253,254,255,256,257,275,276
409,255,256,257,275,276,277,278,279,280,281
410,277,278,279,280,281,282,283,284,285,286
411,284,285,286,287,288,289,290,291,292,293
412,290,291,292,293,294,295,296,297,298,299
413,293,294,295,296,297,298,299,300,301,302
414,300,301,302,303,673,674,675,676,677,678
415,677,678,679,680,681,682,683,684,685,686
416,682,683,684,685,686,687,688,689,690,691
417,690,691,692,693,694,695,696,697,698,699
418,696,697,698,699,700,701,702,703,704,705
419,702,703,704,705,362,363,364,365,366,367
420,363,364,365,366,367,368,369,370,371,372
421,363,364,365,366,367,368,369,370,371,372
422,363,364,365,366,367,368,369,370,371,372
423,363,364,365,366,367,368,369,370,371,372
424,363,364,365,366,367,368,369,370,371,372
425,363,364,365,366,367,368,369,370,371,372
426,363,364,365,366,367,368,369,370,371,372
427,363,364,365,366,367,368,369,370,371,372
428,363,364,365,366,367,368,369,370,371,372
429,363,364,365,366,367,368,369,370,371,372
430,363,364,365,366,367,368,369,370,371,372
431,364,365,366,367,368,369,370,371,372,373
432,370,371,372,373,374,375,376,377,378,379
433,371,372,373,374,375,376,377,378,379,380
434,373,374,375,376,377,378,379,380,425,426
435,373,374,375,376,377,378,379,380,425,426
436,378,379,380,425,426,427,428,429,430,431
437,426,427,428,429,430,431,432,433,434,435
438,430,431,432,433,434,435,436,437,438,439
439,432,433,434,435,436,437,438,439,440,441
440,434,435,436,437,438,439,440,441,442,443
441,434,435,436,437,438,439,440,441,442,443
442,437,438,439,440,441,442,443,518,519,520
443,443,518,519,520,521,522,523,524,525,526
444,524,525,526,527,528,529,530,531,532,533
445,532,533,534,535,536,537,538,539,540,541
446,536,537,538,539,540,541,542,543,544,545
447,537,538,539,540,541,542,543,544,545,546
448,542,543,544,545,546,547,548,549,550,551
449,552,553,554,555,556,557,558,559,560,561
450,560,561,562,563,564,565,566,567,568,569
451,564,565,566,567,568,569,570,571,572,573
452,570,571,572,573,574,575,576,577,578,579
453,575,576,577,578,579,580,581,582,583,584
454,580,581,582,583,584,585,586,587,588,589
455,581,582,583,584,585,586,587,588,589,590
456,584,585,586,587,588,589,590,610,611,612
457,610,611,612,613,614,615,616,617,618,619
458,616,617,618,619,620,621,622,623,624,625
459,622,623,624,625,626,627,628,629,630,631
460,630,631,632,633,634,635,636,637,638,639
461,637,638,639,640,641,642,643,644,645,646
462,642,643,644,645,646,647,648,649,650,651
463,647,648,649,650,651,652,653,654,655,656
464,652,653,654,655,656,657,658,659,660,661
465,657,658,659,660,661,662,663,664,665,666
466,663,664,665,666,667,668,669,670,671,672
467,664,665,666,667,668,669,670,671,672,1
468,670,671,672,1,2,3,4,5,6,7
469,6,7,8,9,10,11,12,13,14,15
470,12,13,14,15,16,17,18,19,20,21
471,20,21,22,23,24,25,26,27,28,29
472,28,29,30,31,32,33,34,35,36,37
473,38,39,40,41,42,43,44,45,46,47
474,41,42,43,44,45,46,47,90,91,92
475,47,90,91,92,93,94,95,96,97,98
476,98,99,100,101,102,103,104,105,106,107
477,103,104,105,106,107,108,109,110,111,129
478,111,129,130,131,132,133,134,135,136,137
479,132,133,134,135,136,137,138,139,140,141
480,132,133,134,135,136,137,138,139,140,141
481,132,133,134,135,136,137,138,139,140,141
482,132,133,134,135,136,137,138,139,140,141
483,132,133,134,135,136,137,138,139,140,141
484,132,133,134,135,136,137,138,139,140,141
485,132,133,134,135,136,137,138,139,140,141
486,132,133,134,135,136,137,138,139,140,141
487,132,133,134,135,136,137,138,139,140,141
488,132,133,134,135,136,137,138,139,140,141
489,132,133,134,135,136,137,138,139,140,141
490,132,133,134,135,136,137,138,139,140,141
491,132,133,134,135,136,137,138,139,140,141
492,134,135,136,137,138,139,140,141,142,143
493,138,139,140,141,142,143,144,145,146,147
494,142,143,144,145,146,147,148,149,150,151
495,149,150,151,152,153,154,155,156,157,158
496,156,157,158,159,160,161,162,163,164,165
497,161,162,163,164,165,166,167,168,169,170
498,168,169,170,171,172,173,174,175,176,177
499,177,178,179,180,181,182,183,184,185,186
500,187,188,189,190,191,192,193,194,195,196
501,196,197,198,199,200,201,202,203,204,205
502,204,205,206,207,208,209,210,211,212,213
503,209,210,211,212,213,214,215,216,217,218
504,213,214,215,216,217,218,219,220,221,222
505,217,218,219,220,221,222,223,224,225,226
506,222,223,224,225,226,227,228,229,230,231
507,228,229,230,231,232,233,234,235,236,237
508,229,230,231,232,233,234,235,236,237,238
509,236,237,238,239,240,241,242,243,244,245
510,241,242,243,244,245,246,247,248,249,250
511,241,242,243,244,245,246,247,248,249,250
512,241,242,243,244,245,246,247,248,249,250
513,241,242,243,244,245,246,247,248,249,250
514,241,242,243,244,245,246,247,248,249,250
515,241,242,243,244,245,246,247,248,249,250
516,241,242,243,244,245,246,247,248,249,250
517,241,242,243,244,245,246,247,248,249,250
518,241,242,243,244,245,246,247,248,249,250
519,241,242,243,244,245,246,247,248,249,250
520,241,242,243,244,245,246,247,248,249,250
521,245,246,247,248,249,250,251,252,253,254
522,248,249,250,251,252,253,254,255,256,257
523,250,251,252,253,254,255,256,257,275,276
524,257,275,276,277,278,279,280,281,282,283
525,278,279,280,281,282,283,284,285,286,287
526,283,284,285,286,287,288,289,290,291,292
527,288,289,290,291,292,293,294,295,296,297
528,293,294,295,296,297,298,299,300,301,302
529,300,301,302,303,673,674,675,676,677,678
530,677,678,679,680,681,682,683,684,685,686
531,682,683,684,685,686,687,688,689,690,691
532,692,693,694,695,696,697,698,699,700,701
533,696,697,698,699,700,701,702,703,704,705
534,703,704,705,362,363,364,365,366,367,368
535,363,364,365,366,367,368,369,370,371,372
536,363,364,365,366,367,368,369,370,371,372
537,363,364,365,366,367,368,369,370,371,372
538,363,364,365,366,367,368,369,370,371,372
539,363,364,365,366,367,368,369,370,371,372
540,363,364,365,366,367,368,369,370,371,372
541,363,364,365,366,367,368,369,370,371,372
542,363,364,365,366,367,368,369,370,371,372
543,363,364,365,366,367,368,369,370,371,372
544,363,364,365,366,367,368,369,370,371,372
545,363,364,365,366,367,368,369,370,371,372
546,366,367,368,369,370,371,372,373,374,375
547,371,372,373,374,375,376,377,378,379,380
548,373,374,375,376,377,378,379,380,425,426
549,373,374,375,376,377,378,379,380,425,426
550,373,374,375,376,377,378,379,380,425,426
551,373,374,375,376,377,378,379,380,425,426
552,374,375,376,377,378,379,380,425,426,427
553,379,380,425,426,427,428,429,430,431,432
554,425,426,427,428,429,430,431,432,433,434
555,428,429,430,431,432,433,434,435,436,437
556,432,433,434,435,436,437,438,439,440,441
557,434,435,436,437,438,439,440,441,442,443
558,434,435,436,437,438,439,440,441,442,443
559,438,439,440,441,442,443,518,519,520,521
560,518,519,520,521,522,523,524,525,526,527
561,526,527,528,529,530,531,532,533,534,535
562,534,535,536,537,538,539,540,541,542,543
563,536,537,538,539,540,541,542,543,544,545
564,539,540,541,542,543,544,545,546,547,548
565,545,546,547,548,549,550,551,552,553,554
566,555,556,557,558,559,560,561,562,563,564
567,563,564,565,566,567,568,569,570,571,572
568,564,565,566,567,568,569,570,571,572,573
569,570,571,572,573,574,575,576,577,578,579
570,574,575,576,577,578,579,580,581,582,583
571,578,579,580,581,582,583,584,585,586,587
572,581,582,583,584,585,586,587,588,589,590
573,582,583,584,585,586,587,588,589,590,610
574,585,586,587,588,589,590,610,611,612,613
575,587,588,589,590,610,611,612,613,614,615
576,611,612,613,614,615,616,617,618,619,620
577,617,618,619,620,621,622,623,624,625,626
578,623,624,625,626,627,628,629,630,631,632
579,632,633,634,635,636,637,638,639,640,641
580,638,639,640,641,642,643,644,645,646,647
581,643,644,645,646,647,648,649,650,651,652
582,648,649,650,651,652,653,654,655,656,657
583,653,654,655,656,657,658,659,660,661,662
584,658,659,660,661,662,663,664,665,666,667
585,663,664,665,666,667,668,669,670,671,672
586,665,666,667,668,669,670,671,672,1,2
587,671,672,1,2,3,4,5,6,7,8
588,6,7,8,9,10,11,12,13,14,15
589,12,13,14,15,16,17,18,19,20,21
590,18,19,20,21,22,23,24,25,26,27
591,18,19,20,21,22,23,24,25,26,27
592,18,19,20,21,22,23,24,25,26,27
593,18,19,20,21,22,23,24,25,26,27
594,23,24,25,26,27,28,29,30,31,32
595,33,34,35,36,37,38,39,40,41,42
596,38,39,40,41,42,43,44,45,46,47
597,44,45,46,47,90,91,92,93,94,95
598,95,96,97,98,99,100,101,102,103,104
599,102,103,104,105,106,107,108,109,110,111
600,108,109,110,111,112,113,114,115,116,117
601,114,115,116,117,118,119,120,121,122,123
602,118,119,120,121,122,123,124,125,126,127
603,119,120,121,122,123,124,125,126,127,128
604,124,125,126,127,128,148,149,150,151,152
605,151,152,153,154,155,156,157,158,159,160
606,157,158,159,160,161,162,163,164,165,166
607,163,164,165,166,167,168,169,170,171,172
608,170,171,172,173,174,175,176,177,178,179
609,180,181,182,183,184,185,186,187,188,189
610,190,191,192,193,194,195,196,197,198,199
611,200,201,202,203,204,205,206,207,208,209
612,206,207,208,209,210,211,212,213,214,215
613,211,212,213,214,215,216,217,218,219,220
614,215,216,217,218,219,220,221,222,223,224
615,219,220,221,222,223,224,225,226,227,228
616,224,225,226,227,228,229,230,231,232,233
617,229,230,231,232,233,234,235,236,237,238
618,229,230,231,232,233,234,235,236,237,238
619,229,230,231,232,233,234,235,236,237,238
620,230,231,232,233,234,235,236,237,238,239
621,231,232,233,234,235,236,237,238,239,240
622,233,234,235,236,237,238,239,240,241,242
623,233,234,235,236,237,238,239,240,241,242
624,233,234,235,236,237,238,239,240,241,242
625,233,234,235,236,237,238,239,240,241,242
626,233,234,235,236,237,238,239,240,241,242
627,233,234,235,236,237,238,239,240,241,242
628,233,234,235,236,237,238,239,240,241,242
629,233,234,235,236,237,238,239,240,241,242
630,233,234,235,236,237,238,239,240,241,242
631,233,234,235,236,237,238,239,240,241,242
632,233,234,235,236,237,238,239,240,241,242
633,233,234,235,236,237,238,239,240,241,242
634,233,234,235,236,237,238,239,240,241,242
635,233,234,235,236,237,238,239,240,241,242
636,233,234,235,236,237,238,239,240,241,242
637,233,234,235,236,237,238,239,240,241,242
638,234,235,236,237,238,239,240,241,242,243
639,241,242,243,244,245,246,247,248,249,250
640,241,242,243,244,245,246,247,248,249,250
641,241,242,243,244,245,246,247,248,249,250
642,241,242,243,244,245,246,247,248,249,250
643,241,242,243,244,245,246,247,248,249,250
644,241,242,243,244,245,246,247,248,249,250
645,241,242,243,244,245,246,247,248,249,250
646,241,242,243,244,245,246,247,248,249,250
647,241,242,243,244,245,246,247,248,249,250
648,241,242,243,244,245,246,247,248,249,250
649,241,242,243,244,245,246,247,248,249,250
650,241,242,243,244,245,246,247,248,249,250
651,241,242,243,244,245,246,247,248,249,250
652,241,242,243,244,245,246,247,248,249,250
653,241,242,243,244,245,246,247,248,249,250
654,241,242,243,244,245,246,247,248,249,250
655,241,242,243,244,245,246,247,248,249,250
656,245,246,247,248,249,250,251,252,253,254
657,250,251,252,253,254,255,256,257,275,276
658,254,255,256,257,275,276,277,278,279,280
659,277,278,279,280,281,282,283,284,285,286
660,282,283,284,285,286,287,288,289,290,291
661,287,288,289,290,291,292,293,294,295,296
662,293,294,295,296,297,298,299,300,301,302
663,300,301,302,303,673,674,675,676,677,678
664,677,678,679,680,681,682,683,684,685,686
665,682,683,684,685,686,687,688,689,690,691
666,692,693,694,695,696,697,698,699,700,701
667,696,697,698,699,700,701,702,703,704,705
668,704,705,362,363,364,365,366,367,368,369
669,363,364,365,366,367,368,369,370,371,372
670,363,364,365,366,367,368,369,370,371,372
671,363,364,365,366,367,368,369,370,371,372
672,363,364,365,366,367,368,369,370,371,372
673,363,364,365,366,367,368,369,370,371,372
674,363,364,365,366,367,368,369,370,371,372
675,363,364,365,366,367,368,369,370,371,372
676,363,364,365,366,367,368,369,370,371,372
677,363,364,365,366,367,368,369,370,371,372
678,363,364,365,366,367,368,369,370,371,372
679,363,364,365,366,367,368,369,370,371,372
680,365,366,367,368,369,370,371,372,373,374
681,371,372,373,374,375,376,377,378,379,380
682,372,373,374,375,376,377,378,379,380,425
683,373,374,375,376,377,378,379,380,425,426
684,373,374,375,376,377,378,379,380,425,426
685,373,374,375,376,377,378,379,380,425,426
686,373,374,375,376,377,378,379,380,425,426
687,373,374,375,376,377,378,379,380,425,426
688,373,374,375,376,377,378,379,380,425,426
689,373,374,375,376,377,378,379,380,425,426
690,373,374,375,376,377,378,379,380,425,426
691,373,374,375,376,377,378,379,380,425,426
692,375,376,377,378,379,380,425,426,427,428
693,425,426,427,428,429,430,431,432,433,434
694,429,430,431,432,433,434,435,436,437,438
695,432,433,434,435,436,437,438,439,440,441
696,434,435,436,437,438,439,440,441,442,443
697,434,435,436,437,438,439,440,441,442,443
698,440,441,442,443,518,519,520,521,522,523
699,520,521,522,523,524,525,526,527,528,529
700,528,529,530,531,532,533,534,535,536,537
701,536,537,538,539,540,541,542,543,544,545
702,536,537,538,539,540,541,542,543,544,545
703,541,542,543,544,545,546,547,548,549,550
704,550,551,552,553,554,555,556,557,558,559
705,558,559,560,561,562,563,564,565,566,567
706,564,565,566,567,568,569,570,571,572,573
707,567,568,569,570,571,572,573,591,592,593
708,591,592,593,594,595,596,597,598,599,600
709,593,594,595,596,597,598,599,600,601,602
710,593,594,595,596,597,598,599,600,601,602
711,593,594,595,596,597,598,599,600,601,602
712,593,594,595,596,597,598,599,600,601,602
713,593,594,595,596,597,598,599,600,601,602
714,593,594,595,596,597,598,599,600,601,602
715,593,594,595,596,597,598,599,600,601,602
716,593,594,595,596,597,598,599,600,601,602
717,593,594,595,596,597,598,599,600,601,602
718,593,594,595,596,597,598,599,600,601,602
719,593,594,595,596,597,598,599,600,601,602
720,599,600,601,602,603,604,605,606,607,608
721,601,602,603,604,605,606,607,608,609,610
722,606,607,608,609,610,611,612,613,614,615
723,612,613,614,615,616,617,618,619,620,621
724,618,619,620,621,622,623,624,625,626,627
725,624,625,626,627,628,629,630,631,632,633
726,633,634,635,636,637,638,639,640,641,642
727,638,639,640,641,642,643,644,645,646,647
728,643,644,645,646,647,648,649,650,651,652
729,648,649,650,651,652,653,654,655,656,657
730,653,654,655,656,657,658,659,660,661,662
731,658,659,660,661,662,663,664,665,666,667
732,663,664,665,666,667,668,669,670,671,672
733,665,666,667,668,669,670,671,672,1,2
734,672,1,2,3,4,5,6,7,8,9
735,7,8,9,10,11,12,13,14,15,16
736,13,14,15,16,17,18,19,20,21,22
737,20,21,22,23,24,25,26,27,28,29
738,29,30,31,32,33,34,35,36,37,38
739,38,39,40,41,42,43,44,45,46,47
740,42,43,44,45,46,47,90,91,92,93
741,93,94,95,96,97,98,99,100,101,102
742,102,103,104,105,106,107,108,109,110,111
743,107,108,109,110,111,112,113,114,115,116
744,112,113,114,115,116,117,118,119,120,121
745,117,118,119,120,121,122,123,124,125,126
746,119,120,121,122,123,124,125,126,127,128
747,122,123,124,125,126,127,128,148,149,150
748,150,151,152,153,154,155,156,157,158,159
749,157,158,159,160,161,162,163,164,165,166
750,162,163,164,165,166,167,168,169,170,171
751,170,171,172,173,174,175,176,177,178,179
752,179,180,181,182,183,184,185,186,187,188
753,189,190,191,192,193,194,195,196,197,198
754,199,200,201,202,203,204,205,206,207,208
755,205,206,207,208,209,210,211,212,213,214
756,210,211,212,213,214,215,216,217,218,219
757,214,215,216,217,218,219,220,221,222,223
758,219,220,221,222,223,224,225,226,227,228
759,223,224,225,226,227,228,229,230,231,232
760,229,230,231,232,233,234,235,236,237,238
761,229,230,231,232,233,234,235,236,237,238
762,236,237,238,258,259,260,261,262,263,264
763,236,237,238,258,259,260,261,262,263,264
764,236,237,238,258,259,260,261,262,263,264
765,236,237,238,258,259,260,261,262,263,264
766,236,237,238,258,259,260,261,262,263,264
767,236,237,238,258,259,260,261,262,263,264
768,236,237,238,258,259,260,261,262,263,264
769,236,237,238,258,259,260,261,262,263,264
770,236,237,238,258,259,260,261,262,263,264
771,236,237,238,258,259,260,261,262,263,264
772,236,237,238,258,259,260,261,262,263,264
773,238,258,259,260,261,262,263,264,265,266
774,265,266,267,268,269,270,271,272,273,274
775,270,271,272,273,274,275,276,277,278,279
776,275,276,277,278,279,280,281,282,283,284
777,279,280,281,282,283,284,285,286,287,288
778,285,286,287,288,289,290,291,292,293,294
779,292,293,294,295,296,297,298,299,300,301
780,301,302,303,673,674,675,676,677,678,679
781,678,679,680,681,682,683,684,685,686,687
782,684,685,686,687,688,689,690,691,692,693
783,694,695,696,697,698,699,700,701,702,703
784,697,698,699,700,701,702,703,704,705,362
785,704,705,362,363,364,365,366,367,368,369
786,363,364,365,366,367,368,369,370,371,372
787,363,364,365,366,367,368,369,370,371,372
788,363,364,365,366,367,368,369,370,371,372
789,363,364,365,366,367,368,369,370,371,372
790,363,364,365,366,367,368,369,370,371,372
791,363,364,365,366,367,368,369,370,371,372
792,363,364,365,366,367,368,369,370,371,372
793,363,364,365,366,367,368,369,370,371,372
794,363,364,365,366,367,368,369,370,371,372
795,363,364,365,366,367,368,369,370,371,372
796,363,364,365,366,367,368,369,370,371,372
797,368,369,370,371,372,373,374,375,376,377
798,371,372,373,374,375,376,377,378,379,380
799,374,375,376,377,378,379,380,425,426,427
800,378,379,380,425,426,427,428,429,430,431
801,425,426,427,428,429,430,431,432,433,434
802,427,428,429,430,431,432,433,434,435,436
803,431,432,433,434,435,436,437,438,439,440
804,434,435,436,437,438,439,440,441,442,443
805,434,435,436,437,438,439,440,441,442,443
806,437,438,439,440,441,442,443,518,519,520
807,443,518,519,520,521,522,523,524,525,526
808,524,525,526,527,528,529,530,531,532,533
809,532,533,534,535,536,537,538,539,540,541
810,536,537,538,539,540,541,542,543,544,545
811,538,539,540,541,542,543,544,545,546,547
812,544,545,546,547,548,549,550,551,552,553
813,554,555,556,557,558,559,560,561,562,563
814,562,563,564,565,566,567,568,569,570,571
815,564,565,566,567,568,569,570,571,572,573
816,570,571,572,573,591,592,593,594,595,596
817,593,594,595,596,597,598,599,600,601,602
818,593,594,595,596,597,598,599,600,601,602
819,593,594,595,596,597,598,599,600,601,602
820,593,594,595,596,597,598,599,600,601,602
821,593,594,595,596,597,598,599,600,601,602
822,593,594,595,596,597,598,599,600,601,602
823,593,594,595,596,597,598,599,600,601,602
824,593,594,595,596,597,598,599,600,601,602
825,593,594,595,596,597,598,599,600,601,602
826,593,594,595,596,597,598,599,600,601,602
827,593,594,595,596,597,598,599,600,601,602
828,595,596,597,598,599,600,601,602,603,604
829,600,601,602,603,604,605,606,607,608,609
830,604,605,606,607,608,609,610,611,612,613
831,610,611,612,613,614,615,616,617,618,619
832,616,617,618,619,620,621,622,623,624,625
833,622,623,624,625,626,627,628,629,630,631
834,631,632,633,634,635,636,637,638,639,640
835,638,639,640,641,642,643,644,645,646,647
836,643,644,645,646,647,648,649,650,651,652
837,648,649,650,651,652,653,654,655,656,657
838,653,654,655,656,657,658,659,660,661,662
839,659,660,661,662,663,664,665,666,667,668
840,663,664,665,666,667,668,669,670,671,672
841,666,667,668,669,670,671,672,1,2,3
842,1,2,3,4,5,6,7,8,9,10
843,7,8,9,10,11,12,13,14,15,16
844,14,15,16,17,18,19,20,21,22,23
845,21,22,23,24,25,26,27,28,29,30
846,30,31,32,33,34,35,36,37,38,39
847,38,39,40,41,42,43,44,45,46,47
848,42,43,44,45,46,47,90,91,92,93
849,94,95,96,97,98,99,100,101,102,103
850,102,103,104,105,106,107,108,109,110,111
851,107,108,109,110,111,112,113,114,115,116
852,113,114,115,116,117,118,119,120,121,122
853,118,119,120,121,122,123,124,125,126,127
854,119,120,121,122,123,124,125,126,127,128
855,122,123,124,125,126,127,128,148,149,150
856,149,150,151,152,153,154,155,156,157,158
857,156,157,158,159,160,161,162,163,164,165
858,161,162,163,164,165,166,167,168,169,170
859,168,169,170,171,172,173,174,175,176,177
860,177,178,179,180,181,182,183,184,185,186
861,187,188,189,190,191,192,193,194,195,196
862,197,198,199,200,201,202,203,204,205,206
863,204,205,206,207,208,209,210,211,212,213
864,209,210,211,212,213,214,215,216,217,218
865,213,214,215,216,217,218,219,220,221,222
866,218,219,220,221,222,223,224,225,226,227
867,222,223,224,225,226,227,228,229,230,231
868,227,228,229,230,231,232,233,234,235,236
869,229,230,231,232,233,234,235,236,237,238
870,234,235,236,237,238,258,259,260,261,262
871,258,259,260,261,262,263,264,265,266,267
872,262,263,264,265,266,267,268,269,270,271
873,265,266,267,268,269,270,271,272,273,274
874,265,266,267,268,269,270,271,272,273,274
875,270,271,272,273,274,275,276,277,278,279
876,277,278,279,280,281,282,283,284,285,286
877,285,286,304,305,306,307,308,309,310,311
878,312,313,314,315,316,317,318,319,320,321
879,322,323,324,325,326,327,328,329,330,331
880,328,329,330,331,332,333,334,335,336,337
881,328,329,330,331,332,333,334,335,336,337
882,328,329,330,331,332,333,334,335,336,337
883,328,329,330,331,332,333,334,335,336,337
884,328,329,330,331,332,333,334,335,336,337
885,328,329,330,331,332,333,334,335,336,337
886,328,329,330,331,332,333,334,335,336,337
887,328,329,330,331,332,333,334,335,336,337
888,328,329,330,331,332,333,334,335,336,337
889,328,329,330,331,332,333,334,335,336,337
890,328,329,330,331,332,333,334,335,336,337
891,330,331,332,333,334,335,336,337,338,339
892,335,336,337,338,339,340,341,342,343,344
893,335,336,337,338,339,340,341,342,343,344
894,341,342,343,344,402,403,404,405,406,407
895,403,404,405,406,407,408,409,410,411,412
896,403,404,405,406,407,408,409,410,411,412
897,403,404,405,406,407,408,409,410,411,412
898,403,404,405,406,407,408,409,410,411,412
899,403,404,405,406,407,408,409,410,411,412
900,403,404,405,406,407,408,409,410,411,412
901,403,404,405,406,407,408,409,410,411,412
902,403,404,405,406,407,408,409,410,411,412
903,403,404,405,406,407,408,409,410,411,412
904,403,404,405,406,407,408,409,410,411,412
905,403,404,405,406,407,408,409,410,411,412
906,406,407,408,409,410,411,412,413,414,415
907,415,416,417,418,419,420,421,422,423,424
908,419,420,421,422,423,424,444,445,446,447
909,446,447,448,449,450,451,452,453,454,455
910,454,455,456,457,458,459,460,461,462,463
911,462,463,464,465,466,467,468,469,470,471
912,470,471,472,473,474,475,476,477,478,479
913,479,480,481,482,483,484,485,486,487,488
914,489,490,491,492,493,494,495,496,497,498
915,498,499,500,501,502,503,504,505,506,507
916,507,508,509,510,511,512,513,514,515,516
917,510,511,512,513,514,515,516,517,546,547
918,547,548,549,550,551,552,553,554,555,556
919,557,558,559,560,561,562,563,564,565,566
920,564,565,566,567,568,569,570,571,572,573
921,566,567,568,569,570,571,572,573,574,575
922,572,573,574,575,576,577,578,579,580,581
923,576,577,578,579,580,581,582,583,584,585
924,580,581,582,583,584,585,586,587,588,589
925,581,582,583,584,585,586,587,588,589,590
926,585,586,587,588,589,590,610,611,612,613
927,610,611,612,613,614,615,616,617,618,619
928,616,617,618,619,620,621,622,623,624,625
929,623,624,625,626,627,628,629,630,631,632
930,631,632,633,634,635,636,637,638,639,640
931,638,639,640,641,642,643,644,645,646,647
932,642,643,644,645,646,647,648,649,650,651
933,647,648,649,650,651,652,653,654,655,656
934,653,654,655,656,657,658,659,660,661,662
935,658,659,660,661,662,663,664,665,666,667
936,663,664,665,666,667,668,669,670,671,672
937,665,666,667,668,669,670,671,672,1,2
938,672,1,2,3,4,5,6,7,8,9
939,7,8,9,10,11,12,13,14,15,16
940,13,14,15,16,17,18,19,20,21,22
941,21,22,23,24,25,26,27,28,29,30
942,30,31,32,33,34,35,36,37,38,39
943,38,39,40,41,42,43,44,45,46,47
944,43,44,45,46,47,90,91,92,93,94
945,94,95,96,97,98,99,100,101,102,103
946,102,103,104,105,106,107,108,109,110,111
947,107,108,109,110,111,112,113,114,115,116
948,113,114,115,116,117,118,119,120,121,122
949,118,119,120,121,122,123,124,125,126,127
950,119,120,121,122,123,124,125,126,127,128
951,123,124,125,126,127,128,148,149,150,151
952,150,151,152,153,154,155,156,157,158,159
953,157,158,159,160,161,162,163,164,165,166
954,162,163,164,165,166,167,168,169,170,171
955,169,170,171,172,173,174,175,176,177,178
956,178,179,180,181,182,183,184,185,186,187
957,188,189,190,191,192,193,194,195,196,197
958,198,199,200,201,202,203,204,205,206,207
959,204,205,206,207,208,209,210,211,212,213
960,209,210,211,212,213,214,215,216,217,218
961,213,214,215,216,217,218,219,220,221,222
962,217,218,219,220,221,222,223,224,225,226
963,222,223,224,225,226,227,228,229,230,231
964,228,229,230,231,232,233,234,235,236,237
965,229,230,231,232,233,234,235,236,237,238
966,237,238,239,240,241,242,243,244,245,246
967,241,242,243,244,245,246,247,248,249,250
968,241,242,243,244,245,246,247,248,249,250
969,241,242,243,244,245,246,247,248,249,250
970,241,242,243,244,245,246,247,248,249,250
971,241,242,243,244,245,246,247,248,249,250
972,241,242,243,244,245,246,247,248,249,250
973,241,242,243,244,245,246,247,248,249,250
974,241,242,243,244,245,246,247,248,249,250
975,241,242,243,244,245,246,247,248,249,250
976,241,242,243,244,245,246,247,248,249,250
977,241,242,243,244,245,246,247,248,249,250
978,246,247,248,249,250,251,252,253,254,255
979,248,249,250,251,252,253,254,255,256,257
980,250,251,252,253,254,255,256,257,275,276
981,255,256,257,275,276,277,278,279,280,281
982,277,278,279,280,281,282,283,284,285,286
983,304,305,306,307,308,309,310,311,312,313
984,314,315,316,317,318,319,320,321,322,323
985,324,325,326,327,328,329,330,331,332,333
986,331,332,333,334,335,336,337,338,339,340
987,335,336,337,338,339,340,341,342,343,344
988,336,337,338,339,340,341,342,343,344,381
989,343,344,381,382,383,384,385,386,387,388
990,384,385,386,387,388,389,390,391,392,393
991,389,390,391,392,393,394,395,396,397,398
992,392,393,394,395,396,397,398,399,400,401
993,394,395,396,397,398,399,400,401,444,445
994,445,446,447,448,449,450,451,452,453,454
995,453,454,455,456,457,458,459,460,461,462
996,461,462,463,464,465,466,467,468,469,470
997,469,470,471,472,473,474,475,476,477,478
998,477,478,479,480,481,482,483,484,485,486
999,486,487,488,489,490,491,492,493,494,495
1000,495,496,497,498,499,500,501,502,503,504
1001,504,505,506,507,508,509,510,511,512,513
1002,508,509,510,511,512,513,514,515,516,517
1003,515,516,517,546,547,548,549,550,551,552
1004,553,554,555,556,557,558,559,560,561,562
1005,561,562,563,564,565,566,567,568,569,570
1006,564,565,566,567,568,569,570,571,572,573
1007,570,571,572,573,591,592,593,594,595,596
1008,593,594,595,596,597,598,599,600,601,602
1009,593,594,595,596,597,598,599,600,601,602
1010,593,594,595,596,597,598,599,600,601,602
1011,593,594,595,596,597,598,599,600,601,602
1012,593,594,595,596,597,598,599,600,601,602
1013,593,594,595,596,597,598,599,600,601,602
1014,593,594,595,596,597,598,599,600,601,602
1015,593,594,595,596,597,598,599,600,601,602
1016,593,594,595,596,597,598,599,600,601,602
1017,593,594,595,596,597,598,599,600,601,602
1018,593,594,595,596,597,598,599,600,601,602
1019,595,596,597,598,599,600,601,602,603,604
1020,600,601,602,603,604,605,606,607,608,609
1021,604,605,606,607,608,609,610,611,612,613
1022,604,605,606,607,608,609,610,611,612,613
1023,604,605,606,607,608,609,610,611,612,613
1024,604,605,606,607,608,609,610,611,612,613
1025,606,607,608,609,610,611,612,613,614,615
1026,611,612,613,614,615,616,617,618,619,620
1027,617,618,619,620,621,622,623,624,625,626
1028,623,624,625,626,627,628,629,630,631,632
1029,631,632,633,634,635,636,637,638,639,640
1030,638,639,640,641,642,643,644,645,646,647
1031,642,643,644,645,646,647,648,649,650,651
1032,647,648,649,650,651,652,653,654,655,656
1033,652,653,654,655,656,657,658,659,660,661
1034,658,659,660,661,662,663,664,665,666,667
1035,663,664,665,666,667,668,669,670,671,672
1036,665,666,667,668,669,670,671,672,1,2
1037,672,1,2,3,4,5,6,7,8,9
1038,7,8,9,10,11,12,13,14,15,16
1039,13,14,15,16,17,18,19,20,21,22
1040,20,21,22,23,24,25,26,27,28,29
1041,29,30,31,32,33,34,35,36,37,38
1042,38,39,40,41,42,43,44,45,46,47
1043,42,43,44,45,46,47,90,91,92,93
1044,90,91,92,93,94,95,96,97,98,99
1045,98,99,100,101,102,103,104,105,106,107
1046,102,103,104,105,106,107,108,109,110,111
1047,110,111,112,113,114,115,116,117,118,119
1048,115,116,117,118,119,120,121,122,123,124
1049,119,120,121,122,123,124,125,126,127,128
1050,119,120,121,122,123,124,125,126,127,128
1051,125,126,127,128,148,149,150,151,152,153
1052,152,153,154,155,156,157,158,159,160,161
1053,158,159,160,161,162,163,164,165,166,167
1054,163,164,165,166,167,168,169,170,171,172
1055,170,171,172,173,174,175,176,177,178,179
1056,180,181,182,183,184,185,186,187,188,189
1057,190,191,192,193,194,195,196,197,198,199
1058,198,199,200,201,202,203,204,205,206,207
1059,204,205,206,207,208,209,210,211,212,213
1060,209,210,211,212,213,214,215,216,217,218
1061,213,214,215,216,217,218,219,220,221,222
1062,217,218,219,220,221,222,223,224,225,226
1063,221,222,223,224,225,226,227,228,229,230
1064,227,228,229,230,231,232,233,234,235,236
1065,229,230,231,232,233,234,235,236,237,238
1066,234,235,236,237,238,258,259,260,261,262
1067,258,259,260,261,262,263,264,265,266,267
1068,262,263,264,265,266,267,268,269,270,271
1069,265,266,267,268,269,270,271,272,273,274
1070,265,266,267,268,269,270,271,272,273,274
1071,269,270,271,272,273,274,275,276,277,278
1072,277,278,279,280,281,282,283,284,285,286
1073,280,281,282,283,284,285,286,287,288,289
1074,283,284,285,286,287,288,289,290,291,292
1075,286,287,288,289,290,291,292,293,294,295
1076,289,290,291,292,293,294,295,296,297,298
1077,290,291,292,293,294,295,296,297,298,299
1078,294,295,296,297,298,299,300,301,302,303
1079,294,295,296,297,298,299,300,301,302,303
1080,294,295,296,297,298,299,300,301,302,303
1081,294,295,296,297,298,299,300,301,302,303
1082,298,299,300,301,302,303,673,674,675,676
1083,676,677,678,679,680,681,682,683,684,685
1084,682,683,684,685,686,687,688,689,690,691
1085,689,690,691,692,693,694,695,696,697,698
1086,689,690,691,692,693,694,695,696,697,698
1087,689,690,691,692,693,694,695,696,697,698
1088,689,690,691,692,693,694,695,696,697,698
1089,689,690,691,692,693,694,695,696,697,698
1090,689,690,691,692,693,694,695,696,697,698
1091,689,690,691,692,693,694,695,696,697,698
1092,689,690,691,692,693,694,695,696,697,698
1093,689,690,691,692,693,694,695,696,697,698
1094,689,690,691,692,693,694,695,696,697,698
1095,689,690,691,692,693,694,695,696,697,698
1096,691,692,693,694,695,696,697,698,699,700
1097,696,697,698,699,700,701,702,703,704,705
1098,702,703,704,705,362,363,364,365,366,367
1099,362,363,364,365,366,367,368,369,370,371
1100,362,363,364,365,366,367,368,369,370,371
1101,362,363,364,365,366,367,368,369,370,371
1102,362,363,364,365,366,367,368,369,370,371
1103,362,363,364,365,366,367,368,369,370,371
1104,362,363,364,365,366,367,368,369,370,371
1105,362,363,364,365,366,367,368,369,370,371
1106,362,363,364,365,366,367,368,369,370,371
1107,362,363,364,365,366,367,368,369,370,371
1108,362,363,364,365,366,367,368,369,370,371
1109,362,363,364,365,366,367,368,369,370,371
1110,364,365,366,367,368,369,370,371,372,373
1111,370,371,372,373,374,375,376,377,378,379
1112,371,372,373,374,375,376,377,378,379,380
1113,373,374,375,376,377,378,379,380,425,426
1114,373,374,375,376,377,378,379,380,425,426
1115,376,377,378,379,380,425,426,427,428,429
1116,425,426,427,428,429,430,431,432,433,434
1117,431,432,433,434,435,436,437,438,439,440
1118,434,435,436,437,438,439,440,441,442,443
1119,434,435,436,437,438,439,440,441,442,443
1120,437,438,439,440,441,442,443,518,519,520
1121,443,518,519,520,521,522,523,524,525,526
1122,524,525,526,527,528,529,530,531,532,533
1123,532,533,534,535,536,537,538,539,540,541
1124,536,537,538,539,540,541,542,543,544,545
1125,537,538,539,540,541,542,543,544,545,546
1126,542,543,544,545,546,547,548,549,550,551
1127,552,553,554,555,556,557,558,559,560,561
1128,560,561,562,563,564,565,566,567,568,569
1129,564,565,566,567,568,569,570,571,572,573
1130,568,569,570,571,572,573,574,575,576,577
1131,573,574,575,576,577,578,579,580,581,582
1132,573,574,575,576,577,578,579,580,581,582
1133,573,574,575,576,577,578,579,580,581,582
1134,573,574,575,576,577,578,579,580,581,582
1135,573,574,575,576,577,578,579,580,581,582
1136,573,574,575,576,577,578,579,580,581,582
1137,573,574,575,576,577,578,579,580,581,582
1138,573,574,575,576,577,578,579,580,581,582
1139,573,574,575,576,577,578,579,580,581,582
1140,573,574,575,576,577,578,579,580,581,582
1141,573,574,575,576,577,578,579,580,581,582
1142,576,577,578,579,580,581,582,583,584,585
1143,581,582,583,584,585,586,587,588,589,590
1144,589,590,610,611,612,613,614,615,616,617
1145,614,615,616,617,618,619,620,621,622,623
1146,619,620,621,622,623,624,625,626,627,628
1147,628,629,630,631,632,633,634,635,636,637
1148,635,636,637,638,639,640,641,642,643,644
1149,640,641,642,643,644,645,646,647,648,649
1150,645,646,647,648,649,650,651,652,653,654
1151,650,651,652,653,654,655,656,657,658,659
1152,655,656,657,658,659,660,661,662,663,664
1153,660,661,662,663,664,665,666,667,668,669
1154,663,664,665,666,667,668,669,670,671,672
1155,669,670,671,672,1,2,3,4,5,6
1156,4,5,6,7,8,9,10,11,12,13
1157,11,12,13,14,15,16,17,18,19,20
1158,18,19,20,21,22,23,24,25,26,27
1159,26,27,28,29,30,31,32,33,34,35
1160,36,37,38,39,40,41,42,43,44,45
1161,38,39,40,41,42,43,44,45,46,47
1162,47,90,91,92,93,94,95,96,97,98
1163,95,96,97,98,99,100,101,102,103,104
1164,95,96,97,98,99,100,101,102,103,104
1165,95,96,97,98,99,100,101,102,103,104
1166,95,96,97,98,99,100,101,102,103,104
1167,95,96,97,98,99,100,101,102,103,104
1168,95,96,97,98,99,100,101,102,103,104
1169,95,96,97,98,99,100,101,102,103,104
1170,95,96,97,98,99,100,101,102,103,104
1171,95,96,97,98,99,100,101,102,103,104
1172,95,96,97,98,99,100,101,102,103,104
1173,95,96,97,98,99,100,101,102,103,104
1174,96,97,98,99,100,101,102,103,104,105
1175,102,103,104,105,106,107,108,109,110,111
1176,108,109,110,111,129,130,131,132,133,134
1177,131,132,133,134,135,136,137,138,139,140
1178,131,132,133,134,135,136,137,138,139,140
1179,131,132,133,134,135,136,137,138,139,140
1180,131,132,133,134,135,136,137,138,139,140
1181,131,132,133,134,135,136,137,138,139,140
1182,131,132,133,134,135,136,137,138,139,140
1183,131,132,133,134,135,136,137,138,139,140
1184,131,132,133,134,135,136,137,138,139,140
1185,131,132,133,134,135,136,137,138,139,140
1186,131,132,133,134,135,136,137,138,139,140
1187,131,132,133,134,135,136,137,138,139,140
1188,131,132,133,134,135,136,137,138,139,140
1189,131,132,133,134,135,136,137,138,139,140
1190,131,132,133,134,135,136,137,138,139,140
1191,131,132,133,134,135,136,137,138,139,140
1192,131,132,133,134,135,136,137,138,139,140
1193,132,133,134,135,136,137,138,139,140,141
1194,132,133,134,135,136,137,138,139,140,141
1195,132,133,134,135,136,137,138,139,140,141
1196,132,133,134,135,136,137,138,139,140,141
1197,132,133,134,135,136,137,138,139,140,141
1198,132,133,134,135,136,137,138,139,140,141
1199,132,133,134,135,136,137,138,139,140,141
1200,132,133,134,135,136,137,138,139,140,141
1201,132,133,134,135,136,137,138,139,140,141
1202,132,133,134,135,136,137,138,139,140,141
1203,132,133,134,135,136,137,138,139,140,141
1204,138,139,140,141,142,143,144,145,146,147
1205,140,141,142,143,144,145,146,147,148,149
1206,145,146,147,148,149,150,151,152,153,154
1207,152,153,154,155,156,157,158,159,160,161
1208,157,158,159,160,161,162,163,164,165,166
1209,162,163,164,165,166,167,168,169,170,171
1210,169,170,171,172,173,174,175,176,177,178
1211,178,179,180,181,182,183,184,185,186,187
1212,188,189,190,191,192,193,194,195,196,197
1213,198,199,200,201,202,203,204,205,206,207
1214,205,206,207,208,209,210,211,212,213,214
1215,209,210,211,212,213,214,215,216,217,218
1216,213,214,215,216,217,218,219,220,221,222
1217,217,218,219,220,221,222,223,224,225,226
1218,221,222,223,224,225,226,227,228,229,230
1219,226,227,228,229,230,231,232,233,234,235
1220,229,230,231,232,233,234,235,236,237,238
1221,233,234,235,236,237,238,258,259,260,261
1222,238,258,259,260,261,262,263,264,265,266
1223,261,262,263,264,265,266,267,268,269,270
1224,265,266,267,268,269,270,271,272,273,274
1225,265,266,267,268,269,270,271,272,273,274
1226,267,268,269,270,271,272,273,274,275,276
1227,274,275,276,277,278,279,280,281,282,283
1228,277,278,279,280,281,282,283,284,285,286
1229,283,284,285,286,287,288,289,290,291,292
1230,289,290,291,292,293,294,295,296,297,298
1231,296,297,298,299,300,301,302,303,673,674
1232,674,675,676,677,678,679,680,681,682,683
1233,681,682,683,684,685,686,687,688,689,690
1234,689,690,691,692,693,694,695,696,697,698
1235,695,696,697,698,699,700,701,702,703,704
1236,695,696,697,698,699,700,701,702,703,704
1237,695,696,697,698,699,700,701,702,703,704
1238,695,696,697,698,699,700,701,702,703,704
1239,695,696,697,698,699,700,701,702,703,704
1240,695,696,697,698,699,700,701,702,703,704
1241,695,696,697,698,699,700,701,702,703,704
1242,695,696,697,698,699,700,701,702,703,704
1243,695,696,697,698,699,700,701,702,703,704
1244,695,696,697,698,699,700,701,702,703,704
1245,695,696,697,698,699,700,701,702,703,704
1246,696,697,698,699,700,701,702,703,704,705
1247,699,700,701,702,703,704,705,362,363,364
1248,362,363,364,365,366,367,368,369,370,371
1249,363,364,365,366,367,368,369,370,371,372
1250,363,364,365,366,367,368,369,370,371,372
1251,363,364,365,366,367,368,369,370,371,372
1252,363,364,365,366,367,368,369,370,371,372
1253,363,364,365,366,367,368,369,370,371,372
1254,363,364,365,366,367,368,369,370,371,372
1255,363,364,365,366,367,368,369,370,371,372
1256,363,364,365,366,367,368,369,370,371,372
1257,363,364,365,366,367,368,369,370,371,372
1258,363,364,365,366,367,368,369,370,371,372
1259,363,364,365,366,367,368,369,370,371,372
1260,368,369,370,371,372,373,374,375,376,377
1261,371,372,373,374,375,376,377,378,379,380
1262,373,374,375,376,377,378,379,380,425,426
1263,373,374,375,376,377,378,379,380,425,426
1264,373,374,375,376,377,378,379,380,425,426
1265,374,375,376,377,378,379,380,425,426,427
1266,425,426,427,428,429,430,431,432,433,434
1267,429,430,431,432,433,434,435,436,437,438
1268,432,433,434,435,436,437,438,439,440,441
1269,434,435,436,437,438,439,440,441,442,443
1270,436,437,438,439,440,441,442,443,518,519
1271,442,443,518,519,520,521,522,523,524,525
1272,523,524,525,526,527,528,529,530,531,532
1273,531,532,533,534,535,536,537,538,539,540
1274,536,537,538,539,540,541,542,543,544,545
1275,537,538,539,540,541,542,543,544,545,546
1276,543,544,545,546,547,548,549,550,551,552
1277,552,553,554,555,556,557,558,559,560,561
1278,560,561,562,563,564,565,566,567,568,569
1279,564,565,566,567,568,569,570,571,572,573
1280,569,570,571,572,573,574,575,576,577,578
1281,573,574,575,576,577,578,579,580,581,582
1282,578,579,580,581,582,583,584,585,586,587
1283,581,582,583,584,585,586,587,588,589,590
1284,581,582,583,584,585,586,587,588,589,590
1285,587,588,589,590,610,611,612,613,614,615
1286,612,613,614,615,616,617,618,619,620,621
1287,619,620,621,622,623,624,625,626,627,628
1288,625,626,627,628,629,630,631,632,633,634
1289,634,635,636,637,638,639,640,641,642,643
1290,640,641,642,643,644,645,646,647,648,649
1291,645,646,647,648,649,650,651,652,653,654
1292,650,651,652,653,654,655,656,657,658,659
1293,655,656,657,658,659,660,661,662,663,664
1294,660,661,662,663,664,665,666,667,668,669
1295,663,664,665,666,667,668,669,670,671,672
1296,667,668,669,670,671,672,1,2,3,4
1297,2,3,4,5,6,7,8,9,10,11
1298,9,10,11,12,13,14,15,16,17,18
1299,15,16,17,18,19,20,21,22,23,24
1300,23,24,25,26,27,28,29,30,31,32
1301,32,33,34,35,36,37,38,39,40,41
1302,38,39,40,41,42,43,44,45,46,47
1303,43,44,45,46,47,90,91,92,93,94
1304,92,93,94,95,96,97,98,99,100,101
1305,101,102,103,104,105,106,107,108,109,110
1306,105,106,107,108,109,110,111,112,113,114
1307,112,113,114,115,116,117,118,119,120,121
1308,117,118,119,120,121,122,123,124,125,126
1309,119,120,121,122,123,124,125,126,127,128
1310,121,122,123,124,125,126,127,128,148,149
1311,148,149,150,151,152,153,154,155,156,157
1312,155,156,157,158,159,160,161,162,163,164
1313,161,162,163,164,165,166,167,168,169,170
1314,168,169,170,171,172,173,174,175,176,177
1315,177,178,179,180,181,182,183,184,185,186
1316,187,188,189,190,191,192,193,194,195,196
1317,197,198,199,200,201,202,203,204,205,206
1318,205,206,207,208,209,210,211,212,213,214
1319,210,211,212,213,214,215,216,217,218,219
1320,214,215,216,217,218,219,220,221,222,223
1321,219,220,221,222,223,224,225,226,227,228
1322,224,225,226,227,228,229,230,231,232,233
1323,229,230,231,232,233,234,235,236,237,238
1324,231,232,233,234,235,236,237,238,258,259
1325,237,238,258,259,260,261,262,263,264,265
1326,261,262,263,264,265,266,267,268,269,270
1327,265,266,267,268,269,270,271,272,273,274
1328,265,266,267,268,269,270,271,272,273,274
1329,269,270,271,272,273,274,275,276,277,278
1330,277,278,279,280,281,282,283,284,285,286
1331,284,285,286,304,305,306,307,308,309,310
1332,311,312,313,314,315,316,317,318,319,320
1333,320,321,322,323,324,325,326,327,328,329
1334,329,330,331,332,333,334,335,336,337,338
1335,335,336,337,338,339,340,341,342,343,344
1336,335,336,337,338,339,340,341,342,343,344
1337,341,342,343,344,402,403,404,405,406,407
1338,404,405,406,407,408,409,410,411,412,413
1339,404,405,406,407,408,409,410,411,412,413
1340,404,405,406,407,408,409,410,411,412,413
1341,404,405,406,407,408,409,410,411,412,413
1342,404,405,406,407,408,409,410,411,412,413
1343,404,405,406,407,408,409,410,411,412,413
1344,404,405,406,407,408,409,410,411,412,413
1345,404,405,406,407,408,409,410,411,412,413
1346,404,405,406,407,408,409,410,411,412,413
1347,404,405,406,407,408,409,410,411,412,413
1348,404,405,406,407,408,409,410,411,412,413
1349,404,405,406,407,408,409,410,411,412,413
1350,404,405,406,407,408,409,410,411,412,413
1351,404,405,406,407,408,409,410,411,412,413
1352,405,406,407,408,409,410,411,412,413,414
1353,408,409,410,411,412,413,414,415,416,417
1354,410,411,412,413,414,415,416,417,418,419
1355,411,412,413,414,415,416,417,418,419,420
1356,411,412,413,414,415,416,417,418,419,420
1357,411,412,413,414,415,416,417,418,419,420
1358,411,412,413,414,415,416,417,418,419,420
1359,411,412,413,414,415,416,417,418,419,420
1360,411,412,413,414,415,416,417,418,419,420
1361,411,412,413,414,415,416,417,418,419,420
1362,411,412,413,414,415,416,417,418,419,420
1363,411,412,413,414,415,416,417,418,419,420
1364,411,412,413,414,415,416,417,418,419,420
1365,411,412,413,414,415,416,417,418,419,420
1366,415,416,417,418,419,420,421,422,423,424
1367,420,421,422,423,424,444,445,446,447,448
1368,447,448,449,450,451,452,453,454,455,456
1369,455,456,457,458,459,460,461,462,463,464
1370,464,465,466,467,468,469,470,471,472,473
1371,472,473,474,475,476,477,478,479,480,481
1372,481,482,483,484,485,486,487,488,489,490
1373,490,491,492,493,494,495,496,497,498,499
1374,499,500,501,502,503,504,505,506,507,508
1375,508,509,510,511,512,513,514,515,516,517
1376,511,512,513,514,515,516,517,546,547,548
1377,549,550,551,552,553,554,555,556,557,558
1378,558,559,560,561,562,563,564,565,566,567
1379,564,565,566,567,568,569,570,571,572,573
1380,567,568,569,570,571,572,573,574,575,576
1381,572,573,574,575,576,577,578,579,580,581
1382,577,578,579,580,581,582,583,584,585,586
1383,581,582,583,584,585,586,587,588,589,590
1384,581,582,583,584,585,586,587,588,589,590
1385,586,587,588,589,590,610,611,612,613,614
1386,612,613,614,615,616,617,618,619,620,621
1387,618,619,620,621,622,623,624,625,626,627
1388,624,625,626,627,628,629,630,631,632,633
1389,633,634,635,636,637,638,639,640,641,642
1390,639,640,641,642,643,644,645,646,647,648
1391,644,645,646,647,648,649,650,651,652,653
1392,649,650,651,652,653,654,655,656,657,658
1393,655,656,657,658,659,660,661,662,663,664
1394,661,662,663,664,665,666,667,668,669,670
1395,663,664,665,666,667,668,669,670,671,672
1396,668,669,670,671,672,1,2,3,4,5
1397,4,5,6,7,8,9,10,11,12,13
1398,10,11,12,13,14,15,16,17,18,19
1399,17,18,19,20,21,22,23,24,25,26
1400,25,26,27,28,29,30,31,32,33,34
1401,35,36,37,38,39,40,41,42,43,44
1402,38,39,40,41,42,43,44,45,46,47
1403,47,90,91,92,93,94,95,96,97,98
1404,98,99,100,101,102,103,104,105,106,107
1405,103,104,105,106,107,108,109,110,111,112
1406,110,111,112,113,114,115,116,117,118,119
1407,116,117,118,119,120,121,122,123,124,125
1408,119,120,121,122,123,124,125,126,127,128
1409,120,121,122,123,124,125,126,127,128,148
1410,127,128,148,149,150,151,152,153,154,155
1411,154,155,156,157,158,159,160,161,162,163
1412,159,160,161,162,163,164,165,166,167,168
1413,166,167,168,169,170,171,172,173,174,175
1414,174,175,176,177,178,179,180,181,182,183
1415,184,185,186,187,188,189,190,191,192,193
1416,194,195,196,197,198,199,200,201,202,203
1417,203,204,205,206,207,208,209,210,211,212
1418,208,209,210,211,212,213,214,215,216,217
1419,213,214,215,216,217,218,219,220,221,222
1420,217,218,219,220,221,222,223,224,225,226
1421,221,222,223,224,225,226,227,228,229,230
1422,227,228,229,230,231,232,233,234,235,236
1423,229,230,231,232,233,234,235,236,237,238
1424,234,235,236,237,238,258,259,260,261,262
1425,258,259,260,261,262,263,264,265,266,267
1426,262,263,264,265,266,267,268,269,270,271
1427,265,266,267,268,269,270,271,272,273,274
1428,265,266,267,268,269,270,271,272,273,274
1429,269,270,271,272,273,274,275,276,277,278
1430,277,278,279,280,281,282,283,284,285,286
1431,281,282,283,284,285,286,287,288,289,290
1432,284,285,286,287,288,289,290,291,292,293
1433,288,289,290,291,292,293,294,295,296,297
1434,290,291,292,293,294,295,296,297,298,299
1435,293,294,295,296,297,298,299,300,301,302
1436,298,299,300,301,302,303,673,674,675,676
1437,675,676,677,678,679,680,681,682,683,684
1438,682,683,684,685,686,687,688,689,690,691
1439,691,692,693,694,695,696,697,698,699,700
1440,696,697,698,699,700,701,702,703,704,705
1441,703,704,705,362,363,364,365,366,367,368
1442,363,364,365,366,367,368,369,370,371,372
1443,363,364,365,366,367,368,369,370,371,372
1444,363,364,365,366,367,368,369,370,371,372
1445,363,364,365,366,367,368,369,370,371,372
1446,363,364,365,366,367,368,369,370,371,372
1447,363,364,365,366,367,368,369,370,371,372
1448,363,364,365,366,367,368,369,370,371,372
1449,363,364,365,366,367,368,369,370,371,372
1450,363,364,365,366,367,368,369,370,371,372
1451,363,364,365,366,367,368,369,370,371,372
1452,363,364,365,366,367,368,369,370,371,372
1453,363,364,365,366,367,368,369,370,371,372
1454,364,365,366,367,368,369,370,371,372,373
1455,371,372,373,374,375,376,377,378,379,380
1456,371,372,373,374,375,376,377,378,379,380
1457,373,374,375,376,377,378,379,380,425,426
1458,374,375,376,377,378,379,380,425,426,427
1459,378,379,380,425,426,427,428,429,430,431
1460,426,427,428,429,430,431,432,433,434,435
1461,430,431,432,433,434,435,436,437,438,439
1462,433,434,435,436,437,438,439,440,441,442
1463,434,435,436,437,438,439,440,441,442,443
1464,435,436,437,438,439,440,441,442,443,518
1465,441,442,443,518,519,520,521,522,523,524
1466,522,523,524,525,526,527,528,529,530,531
1467,530,531,532,533,534,535,536,537,538,539
1468,536,537,538,539,540,541,542,543,544,545
1469,538,539,540,541,542,543,544,545,546,547
1470,544,545,546,547,548,549,550,551,552,553
1471,554,555,556,557,558,559,560,561,562,563
1472,562,563,564,565,566,567,568,569,570,571
1473,564,565,566,567,568,569,570,571,572,573
1474,570,571,572,573,574,575,576,577,578,579
1475,575,576,577,578,579,580,581,582,583,584
1476,579,580,581,582,583,584,585,586,587,588
1477,581,582,583,584,585,586,587,588,589,590
1478,584,585,586,587,588,589,590,610,611,612
1479,610,611,612,613,614,615,616,617,618,619
1480,616,617,618,619,620,621,622,623,624,625
1481,622,623,624,625,626,627,628,629,630,631
1482,631,632,633,634,635,636,637,638,639,640
1483,637,638,639,640,641,642,643,644,645,646
1484,643,644,645,646,647,648,649,650,651,652
1485,648,649,650,651,652,653,654,655,656,657
1486,653,654,655,656,657,658,659,660,661,662
1487,659,660,661,662,663,664,665,666,667,668
1488,663,664,665,666,667,668,669,670,671,672
1489,665,666,667,668,669,670,671,672,1,2
1490,672,1,2,3,4,5,6,7,8,9
1491,7,8,9,10,11,12,13,14,15,16
1492,14,15,16,17,18,19,20,21,22,23
1493,21,22,23,24,25,26,27,28,29,30
1494,30,31,32,33,34,35,36,37,38,39
1495,38,39,40,41,42,43,44,45,46,47
1496,42,43,44,45,46,47,90,91,92,93
1497,93,94,95,96,97,98,99,100,101,102
1498,102,103,104,105,106,107,108,109,110,111
1499,107,108,109,110,111,112,113,114,115,116
1500,112,113,114,115,116,117,118,119,120,121
1501,117,118,119,120,121,122,123,124,125,126
1502,119,120,121,122,123,124,125,126,127,128
1503,122,123,124,125,126,127,128,148,149,150
1504,148,149,150,151,152,153,154,155,156,157
1505,155,156,157,158,159,160,161,162,163,164
1506,160,161,162,163,164,165,166,167,168,169
1507,167,168,169,170,171,172,173,174,175,176
1508,175,176,177,178,179,180,181,182,183,184
1509,185,186,187,188,189,190,191,192,193,194
1510,195,196,197,198,199,200,201,202,203,204
1511,203,204,205,206,207,208,209,210,211,212
1512,208,209,210,211,212,213,214,215,216,217
1513,212,213,214,215,216,217,218,219,220,221
1514,216,217,218,219,220,221,222,223,224,225
1515,220,221,222,223,224,225,226,227,228,229
1516,225,226,227,228,229,230,231,232,233,234
1517,229,230,231,232,233,234,235,236,237,238
1518,233,234,235,236,237,238,239,240,241,242
1519,240,241,242,243,244,245,246,247,248,249
1520,241,242,243,244,245,246,247,248,249,250
1521,241,242,243,244,245,246,247,248,249,250
1522,241,242,243,244,245,246,247,248,249,250
1523,241,242,243,244,245,246,247,248,249,250
1524,241,242,243,244,245,246,247,248,249,250
1525,241,242,243,244,245,246,247,248,249,250
1526,241,242,243,244,245,246,247,248,249,250
1527,241,242,243,244,245,246,247,248,249,250
1528,241,242,243,244,245,246,247,248,249,250
1529,241,242,243,244,245,246,247,248,249,250
1530,241,242,243,244,245,246,247,248,249,250
1531,247,248,249,250,251,252,253,254,255,256
1532,248,249,250,251,252,253,254,255,256,257
1533,250,251,252,253,254,255,256,257,275,276
1534,254,255,256,257,275,276,277,278,279,280
1535,277,278,279,280,281,282,283,284,285,286
1536,286,304,305,306,307,308,309,310,311,312
1537,312,313,314,315,316,317,318,319,320,321
1538,321,322,323,324,325,326,327,328,329,330
1539,329,330,331,332,333,334,335,336,337,338
1540,335,336,337,338,339,340,341,342,343,344
1541,335,336,337,338,339,340,341,342,343,344
1542,340,341,342,343,344,381,382,383,384,385
1543,343,344,381,382,383,384,385,386,387,388
1544,383,384,385,386,387,388,389,390,391,392
1545,388,389,390,391,392,393,394,395,396,397
1546,392,393,394,395,396,397,398,399,400,401
1547,393,394,395,396,397,398,399,400,401,444
1548,401,444,445,446,447,448,449,450,451,452
1549,452,453,454,455,456,457,458,459,460,461
1550,460,461,462,463,464,465,466,467,468,469
1551,468,469,470,471,472,473,474,475,476,477
1552,476,477,478,479,480,481,482,483,484,485
1553,485,486,487,488,489,490,491,492,493,494
1554,494,495,496,497,498,499,500,501,502,503
1555,503,504,505,506,507,508,509,510,511,512
1556,508,509,510,511,512,513,514,515,516,517
1557,514,515,516,517,546,547,548,549,550,551
1558,552,553,554,555,556,557,558,559,560,561
1559,560,561,562,563,564,565,566,567,568,569
1560,564,565,566,567,568,569,570,571,572,573
1561,568,569,570,571,572,573,574,575,576,577
1562,573,574,575,576,577,578,579,580,581,582
1563,577,578,579,580,581,582,583,584,585,586
1564,581,582,583,584,585,586,587,588,589,590
1565,581,582,583,584,585,586,587,588,589,590
1566,585,586,587,588,589,590,610,611,612,613
1567,610,611,612,613,614,615,616,617,618,619
1568,616,617,618,619,620,621,622,623,624,625
1569,621,622,623,624,625,626,627,628,629,630
1570,630,631,632,633,634,635,636,637,638,639
1571,636,637,638,639,640,641,642,643,644,645
1572,641,642,643,644,645,646,647,648,649,650
1573,646,647,648,649,650,651,652,653,654,655
1574,650,651,652,653,654,655,656,657,658,659
1575,655,656,657,658,659,660,661,662,663,664
1576,661,662,663,664,665,666,667,668,669,670
1577,663,664,665,666,667,668,669,670,671,672
1578,667,668,669,670,671,672,1,2,3,4
1579,3,4,5,6,7,8,9,10,11,12
1580,9,10,11,12,13,14,15,16,17,18
1581,15,16,17,18,19,20,21,22,23,24
1582,23,24,25,26,27,28,29,30,31,32
1583,32,33,34,35,36,37,38,39,40,41
1584,38,39,40,41,42,43,44,45,46,47
1585,43,44,45,46,47,90,91,92,93,94
1586,92,93,94,95,96,97,98,99,100,101
1587,101,102,103,104,105,106,107,108,109,110
1588,106,107,108,109,110,111,129,130,131,132
1589,131,132,133,134,135,136,137,138,139,140
1590,131,132,133,134,135,136,137,138,139,140
1591,131,132,133,134,135,136,137,138,139,140
1592,131,132,133,134,135,136,137,138,139,140
1593,131,132,133,134,135,136,137,138,139,140
1594,131,132,133,134,135,136,137,138,139,140
1595,131,132,133,134,135,136,137,138,139,140
1596,131,132,133,134,135,136,137,138,139,140
1597,131,132,133,134,135,136,137,138,139,140
1598,131,132,133,134,135,136,137,138,139,140
1599,131,132,133,134,135,136,137,138,139,140
1600,133,134,135,136,137,138,139,140,141,142
1601,138,139,140,141,142,143,144,145,146,147
1602,141,142,143,144,145,146,147,148,149,150
1603,147,148,149,150,151,152,153,154,155,156
1604,154,155,156,157,158,159,160,161,162,163
1605,159,160,161,162,163,164,165,166,167,168
1606,165,166,167,168,169,170,171,172,173,174
1607,174,175,176,177,178,179,180,181,182,183
1608,183,184,185,186,187,188,189,190,191,192
1609,193,194,195,196,197,198,199,200,201,202
1610,202,203,204,205,206,207,208,209,210,211
1611,207,208,209,210,211,212,213,214,215,216
1612,211,212,213,214,215,216,217,218,219,220
1613,215,216,217,218,219,220,221,222,223,224
1614,219,220,221,222,223,224,225,226,227,228
1615,224,225,226,227,228,229,230,231,232,233
1616,229,230,231,232,233,234,235,236,237,238
1617,229,230,231,232,233,234,235,236,237,238
1618,236,237,238,258,259,260,261,262,263,264
1619,260,261,262,263,264,265,266,267,268,269
1620,263,264,265,266,267,268,269,270,271,272
1621,265,266,267,268,269,270,271,272,273,274
1622,266,267,268,269,270,271,272,273,274,275
1623,270,271,272,273,274,275,276,277,278,279
1624,277,278,279,280,281,282,283,284,285,286
1625,284,285,286,304,305,306,307,308,309,310
1626,311,312,313,314,315,316,317,318,319,320
1627,320,321,322,323,324,325,326,327,328,329
1628,329,330,331,332,333,334,335,336,337,338
1629,335,336,337,338,339,340,341,342,343,344
1630,335,336,337,338,339,340,341,342,343,344
1631,339,340,341,342,343,344,402,403,404,405
1632,402,403,404,405,406,407,408,409,410,411
1633,404,405,406,407,408,409,410,411,412,413
1634,404,405,406,407,408,409,410,411,412,413
1635,404,405,406,407,408,409,410,411,412,413
1636,404,405,406,407,408,409,410,411,412,413
1637,404,405,406,407,408,409,410,411,412,413
1638,404,405,406,407,408,409,410,411,412,413
1639,404,405,406,407,408,409,410,411,412,413
1640,404,405,406,407,408,409,410,411,412,413
1641,404,405,406,407,408,409,410,411,412,413
1642,404,405,406,407,408,409,410,411,412,413
1643,404,405,406,407,408,409,410,411,412,413
1644,412,413,414,415,416,417,418,419,420,421
1645,415,416,417,418,419,420,421,422,423,424
1646,421,422,423,424,444,445,446,447,448,449
1647,448,449,450,451,452,453,454,455,456,457
1648,456,457,458,459,460,461,462,463,464,465
1649,464,465,466,467,468,469,470,471,472,473
1650,472,473,474,475,476,477,478,479,480,481
1651,480,481,482,483,484,485,486,487,488,489
1652,489,490,491,492,493,494,495,496,497,498
1653,498,499,500,501,502,503,504,505,506,507
1654,507,508,509,510,511,512,513,514,515,516
1655,509,510,511,512,513,514,515,516,517,546
1656,546,547,548,549,550,551,552,553,554,555
1657,555,556,557,558,559,560,561,562,563,564
1658,563,564,565,566,567,568,569,570,571,572
1659,565,566,567,568,569,570,571,572,573,591
1660,572,573,591,592,593,594,595,596,597,598
1661,593,594,595,596,597,598,599,600,601,602
1662,593,594,595,596,597,598,599,600,601,602
1663,593,594,595,596,597,598,599,600,601,602
1664,593,594,595,596,597,598,599,600,601,602
1665,593,594,595,596,597,598,599,600,601,602
1666,593,594,595,596,597,598,599,600,601,602
1667,593,594,595,596,597,598,599,600,601,602
1668,593,594,595,596,597,598,599,600,601,602
1669,593,594,595,596,597,598,599,600,601,602
1670,593,594,595,596,597,598,599,600,601,602
1671,593,594,595,596,597,598,599,600,601,602
1672,596,597,598,599,600,601,602,603,604,605
1673,600,601,602,603,604,605,606,607,608,609
1674,604,605,606,607,608,609,610,611,612,613
1675,610,611,612,613,614,615,616,617,618,619
1676,616,617,618,619,620,621,622,623,624,625
1677,621,622,623,624,625,626,627,628,629,630
1678,630,631,632,633,634,635,636,637,638,639
1679,637,638,639,640,641,642,643,644,645,646
1680,642,643,644,645,646,647,648,649,650,651
1681,647,648,649,650,651,652,653,654,655,656
1682,652,653,654,655,656,657,658,659,660,661
1683,657,658,659,660,661,662,663,664,665,666
1684,663,664,665,666,667,668,669,670,671,672
1685,664,665,666,667,668,669,670,671,672,1
1686,670,671,672,1,2,3,4,5,6,7
1687,5,6,7,8,9,10,11,12,13,14
1688,11,12,13,14,15,16,17,18,19,20
1689,18,19,20,21,22,23,24,25,26,27
1690,26,27,28,29,30,31,32,33,34,35
1691,36,37,38,39,40,41,42,43,44,45
1692,39,40,41,42,43,44,45,46,47,90
1693,90,91,92,93,94,95,96,97,98,99
1694,99,100,101,102,103,104,105,106,107,108
1695,103,104,105,106,107,108,109,110,111,112
1696,110,111,112,113,114,115,116,117,118,119
1697,115,116,117,118,119,120,121,122,123,124
1698,119,120,121,122,123,124,125,126,127,128
1699,119,120,121,122,123,124,125,126,127,128
1700,125,126,127,128,148,149,150,151,152,153
1701,152,153,154,155,156,157,158,159,160,161
1702,158,159,160,161,162,163,164,165,166,167
1703,163,164,165,166,167,168,169,170,171,172
1704,170,171,172,173,174,175,176,177,178,179
1705,180,181,182,183,184,185,186,187,188,189
1706,190,191,192,193,194,195,196,197,198,199
1707,200,201,202,203,204,205,206,207,208,209
1708,206,207,208,209,210,211,212,213,214,215
1709,210,211,212,213,214,215,216,217,218,219
1710,214,215,216,217,218,219,220,221,222,223
1711,218,219,220,221,222,223,224,225,226,227
1712,223,224,225,226,227,228,229,230,231,232
1713,228,229,230,231,232,233,234,235,236,237
1714,229,230,231,232,233,234,235,236,237,238
1715,237,238,239,240,241,242,243,244,245,246
1716,241,242,243,244,245,246,247,248,249,250
1717,241,242,243,244,245,246,247,248,249,250
1718,241,242,243,244,245,246,247,248,249,250
1719,241,242,243,244,245,246,247,248,249,250
1720,241,242,243,244,245,246,247,248,249,250
1721,241,242,243,244,245,246,247,248,249,250
1722,241,242,243,244,245,246,247,248,249,250
1723,241,242,243,244,245,246,247,248,249,250
1724,241,242,243,244,245,246,247,248,249,250
1725,241,242,243,244,245,246,247,248,249,250
1726,241,242,243,244,245,246,247,248,249,250
1727,243,244,245,246,247,248,249,250,251,252
1728,248,249,250,251,252,253,254,255,256,257
1729,250,251,252,253,254,255,256,257,275,276
1730,256,257,275,276,277,278,279,280,281,282
1731,277,278,279,280,281,282,283,284,285,286
1732,304,305,306,307,308,309,310,311,312,313
1733,314,315,316,317,318,319,320,321,322,323
1734,324,325,326,327,328,329,330,331,332,333
1735,331,332,333,334,335,336,337,338,339,340
1736,335,336,337,338,339,340,341,342,343,344
1737,337,338,339,340,341,342,343,344,381,382
1738,342,343,344,381,382,383,384,385,386,387
1739,381,382,383,384,385,386,387,388,389,390
1740,386,387,388,389,390,391,392,393,394,395
1741,391,392,393,394,395,396,397,398,399,400
1742,392,393,394,395,396,397,398,399,400,401
1743,397,398,399,400,401,444,445,446,447,448
1744,448,449,450,451,452,453,454,455,456,457
1745,456,457,458,459,460,461,462,463,464,465
1746,464,465,466,467,468,469,470,471,472,473
1747,472,473,474,475,476,477,478,479,480,481
1748,481,482,483,484,485,486,487,488,489,490
1749,490,491,492,493,494,495,496,497,498,499
1750,499,500,501,502,503,504,505,506,507,508
1751,508,509,510,511,512,513,514,515,516,517
1752,511,512,513,514,515,516,517,546,547,548
1753,548,549,550,551,552,553,554,555,556,557
1754,557,558,559,560,561,562,563,564,565,566
1755,564,565,566,567,568,569,570,571,572,573
1756,566,567,568,569,570,571,572,573,591,592
1757,573,591,592,593,594,595,596,597,598,599
1758,593,594,595,596,597,598,599,600,601,602
1759,593,594,595,596,597,598,599,600,601,602
1760,593,594,595,596,597,598,599,600,601,602
1761,593,594,595,596,597,598,599,600,601,602
1762,593,594,595,596,597,598,599,600,601,602
1763,593,594,595,596,597,598,599,600,601,602
1764,593,594,595,596,597,598,599,600,601,602
1765,593,594,595,596,597,598,599,600,601,602
1766,593,594,595,596,597,598,599,600,601,602
1767,593,594,595,596,597,598,599,600,601,602
1768,593,594,595,596,597,598,599,600,601,602
1769,596,597,598,599,600,601,602,603,604,605
1770,600,601,602,603,604,605,606,607,608,609
1771,605,606,607,608,609,610,611,612,613,614
1772,611,612,613,614,615,616,617,618,619,620
1773,617,618,619,620,621,622,623,624,625,626
1774,624,625,626,627,628,629,630,631,632,633
1775,632,633,634,635,636,637,638,639,640,641
1776,639,640,641,642,643,644,645,646,647,648
1777,644,645,646,647,648,649,650,651,652,653
1778,648,649,650,651,652,653,654,655,656,657
1779,653,654,655,656,657,658,659,660,661,662
1780,659,660,661,662,663,664,665,666,667,668
1781,663,664,665,666,667,668,669,670,671,672
1782,666,667,668,669,670,671,672,1,2,3
1783,1,2,3,4,5,6,7,8,9,10
1784,8,9,10,11,12,13,14,15,16,17
1785,14,15,16,17,18,19,20,21,22,23
1786,21,22,23,24,25,26,27,28,29,30
1787,30,31,32,33,34,35,36,37,38,39
1788,38,39,40,41,42,43,44,45,46,47
1789,43,44,45,46,47,90,91,92,93,94
1790,94,95,96,97,98,99,100,101,102,103
1791,102,103,104,105,106,107,108,109,110,111
1792,107,108,109,110,111,112,113,114,115,116
1793,113,114,115,116,117,118,119,120,121,122
1794,117,118,119,120,121,122,123,124,125,126
1795,119,120,121,122,123,124,125,126,127,128
1796,121,122,123,124,125,126,127,128,148,149
1797,148,149,150,151,152,153,154,155,156,157
1798,155,156,157,158,159,160,161,162,163,164
1799,160,161,162,163,164,165,166,167,168,169
1800,166,167,168,169,170,171,172,173,174,175
1801,175,176,177,178,179,180,181,182,183,184
1802,185,186,187,188,189,190,191,192,193,194
1803,195,196,197,198,199,200,201,202,203,204
1804,203,204,205,206,207,208,209,210,211,212
1805,208,209,210,211,212,213,214,215,216,217
1806,212,213,214,215,216,217,218,219,220,221
1807,216,217,218,219,220,221,222,223,224,225
1808,220,221,222,223,224,225,226,227,228,229
1809,225,226,227,228,229,230,231,232,233,234
1810,229,230,231,232,233,234,235,236,237,238
1811,231,232,233,234,235,236,237,238,258,259
1812,237,238,258,259,260,261,262,263,264,265
1813,260,261,262,263,264,265,266,267,268,269
1814,264,265,266,267,268,269,270,271,272,273
1815,265,266,267,268,269,270,271,272,273,274
1816,267,268,269,270,271,272,273,274,275,276
1817,272,273,274,275,276,277,278,279,280,281
1818,277,278,279,280,281,282,283,284,285,286
1819,284,285,286,287,288,289,290,291,292,293
1820,289,290,291,292,293,294,295,296,297,298
1821,291,292,293,294,295,296,297,298,299,300
1822,291,292,293,294,295,296,297,298,299,300
1823,293,294,295,296,297,298,299,300,301,302
1824,301,302,303,673,674,675,676,677,678,679
1825,678,679,680,681,682,683,684,685,686,687
1826,686,687,688,689,690,691,692,693,694,695
1827,696,697,698,699,700,701,702,703,704,705
1828,698,699,700,701,702,703,704,705,362,363
1829,704,705,362,363,364,365,366,367,368,369
1830,363,364,365,366,367,368,369,370,371,372
1831,363,364,365,366,367,368,369,370,371,372
1832,363,364,365,366,367,368,369,370,371,372
1833,363,364,365,366,367,368,369,370,371,372
1834,363,364,365,366,367,368,369,370,371,372
1835,363,364,365,366,367,368,369,370,371,372
1836,363,364,365,366,367,368,369,370,371,372
1837,363,364,365,366,367,368,369,370,371,372
1838,363,364,365,366,367,368,369,370,371,372
1839,363,364,365,366,367,368,369,370,371,372
1840,363,364,365,366,367,368,369,370,371,372
1841,366,367,368,369,370,371,372,373,374,375
1842,371,372,373,374,375,376,377,378,379,380
1843,374,375,376,377,378,379,380,425,426,427
1844,379,380,425,426,427,428,429,430,431,432
1845,427,428,429,430,431,432,433,434,435,436
1846,431,432,433,434,435,436,437,438,439,440
1847,434,435,436,437,438,439,440,441,442,443
1848,434,435,436,437,438,439,440,441,442,443
1849,436,437,438,439,440,441,442,443,518,519
1850,442,443,518,519,520,521,522,523,524,525
1851,522,523,524,525,526,527,528,529,530,531
1852,530,531,532,533,534,535,536,537,538,539
1853,536,537,538,539,540,541,542,543,544,545
1854,537,538,539,540,541,542,543,544,545,546
1855,541,542,543,544,545,546,547,548,549,550
1856,549,550,551,552,553,554,555,556,557,558
1857,558,559,560,561,562,563,564,565,566,567
1858,564,565,566,567,568,569,570,571,572,573
1859,567,568,569,570,571,572,573,591,592,593
1860,573,591,592,593,594,595,596,597,598,599
1861,593,594,595,596,597,598,599,600,601,602
1862,593,594,595,596,597,598,599,600,601,602
1863,593,594,595,596,597,598,599,600,601,602
1864,593,594,595,596,597,598,599,600,601,602
1865,593,594,595,596,597,598,599,600,601,602
1866,593,594,595,596,597,598,599,600,601,602
1867,593,594,595,596,597,598,599,600,601,602
1868,593,594,595,596,597,598,599,600,601,602
1869,593,594,595,596,597,598,599,600,601,602
1870,593,594,595,596,597,598,599,600,601,602
1871,593,594,595,596,597,598,599,600,601,602
1872,593,594,595,596,597,598,599,600,601,602
1873,593,594,595,596,597,598,599,600,601,602
1874,593,594,595,596,597,598,599,600,601,602
1875,594,595,596,597,598,599,600,601,602,603
1876,594,595,596,597,598,599,600,601,602,603
1877,594,595,596,597,598,599,600,601,602,603
1878,595,596,597,598,599,600,601,602,603,604
1879,595,596,597,598,599,600,601,602,603,604
1880,595,596,597,598,599,600,601,602,603,604
1881,595,596,597,598,599,600,601,602,603,604
1882,595,596,597,598,599,600,601,602,603,604
1883,595,596,597,598,599,600,601,602,603,604
1884,595,596,597,598,599,600,601,602,603,604
1885,595,596,597,598,599,600,601,602,603,604
1886,595,596,597,598,599,600,601,602,603,604
1887,595,596,597,598,599,600,601,602,603,604
1888,595,596,597,598,599,600,601,602,603,604
1889,595,596,597,598,599,600,601,602,603,604
1890,600,601,602,603,604,605,606,607,608,609
1891,601,602,603,604,605,606,607,608,609,610
1892,607,608,609,610,611,612,613,614,615,616
1893,613,614,615,616,617,618,619,620,621,622
1894,620,621,622,623,624,625,626,627,628,629
1895,627,628,629,630,631,632,633,634,635,636
1896,635,636,637,638,639,640,641,642,643,644
1897,640,641,642,643,644,645,646,647,648,649
1898,645,646,647,648,649,650,651,652,653,654
1899,650,651,652,653,654,655,656,657,658,659
1900,655,656,657,658,659,660,661,662,663,664
1901,660,661,662,663,664,665,666,667,668,669
1902,663,664,665,666,667,668,669,670,671,672
1903,667,668,669,670,671,672,1,2,3,4
1904,3,4,5,6,7,8,9,10,11,12
1905,9,10,11,12,13,14,15,16,17,18
1906,16,17,18,19,20,21,22,23,24,25
1907,23,24,25,26,27,28,29,30,31,32
1908,32,33,34,35,36,37,38,39,40,41
1909,38,39,40,41,42,43,44,45,46,47
1910,45,46,47,90,91,92,93,94,95,96
1911,95,96,97,98,99,100,101,102,103,104
1912,102,103,104,105,106,107,108,109,110,111
1913,109,110,111,112,113,114,115,116,117,118
1914,117,118,119,120,121,122,123,124,125,126
1915,119,120,121,122,123,124,125,126,127,128
1916,122,123,124,125,126,127,128,148,149,150
1917,148,149,150,151,152,153,154,155,156,157
1918,155,156,157,158,159,160,161,162,163,164
1919,161,162,163,164,165,166,167,168,169,170
1920,167,168,169,170,171,172,173,174,175,176
1921,175,176,177,178,179,180,181,182,183,184
1922,186,187,188,189,190,191,192,193,194,195
1923,194,195,196,197,198,199,200,201,202,203
1924,202,203,204,205,206,207,208,209,210,211
1925,207,208,209,210,211,212,213,214,215,216
1926,211,212,213,214,215,216,217,218,219,220
1927,216,217,218,219,220,221,222,223,224,225
1928,220,221,222,223,224,225,226,227,228,229
1929,225,226,227,228,229,230,231,232,233,234
1930,229,230,231,232,233,234,235,236,237,238
1931,233,234,235,236,237,238,258,259,260,261
1932,238,258,259,260,261,262,263,264,265,266
1933,262,263,264,265,266,267,268,269,270,271
1934,265,266,267,268,269,270,271,272,273,274
1935,265,266,267,268,269,270,271,272,273,274
1936,270,271,272,273,274,275,276,277,278,279
1937,277,278,279,280,281,282,283,284,285,286
1938,281,282,283,284,285,286,287,288,289,290
1939,284,285,286,287,288,289,290,291,292,293
1940,287,288,289,290,291,292,293,294,295,296
1941,290,291,292,293,294,295,296,297,298,299
1942,290,291,292,293,294,295,296,297,298,299
1943,290,291,292,293,294,295,296,297,298,299
1944,290,291,292,293,294,295,296,297,298,299
1945,290,291,292,293,294,295,296,297,298,299
1946,293,294,295,296,297,298,299,300,301,302
1947,301,302,303,673,674,675,676,677,678,679
1948,679,680,681,682,683,684,685,686,687,688
1949,686,687,688,689,690,691,692,693,694,695
1950,696,697,698,699,700,701,702,703,704,705
1951,699,700,701,702,703,704,705,362,363,364
1952,705,362,363,364,365,366,367,368,369,370
1953,364,365,366,367,368,369,370,371,372,373
1954,364,365,366,367,368,369,370,371,372,373
1955,364,365,366,367,368,369,370,371,372,373
1956,364,365,366,367,368,369,370,371,372,373
1957,364,365,366,367,368,369,370,371,372,373
1958,364,365,366,367,368,369,370,371,372,373
1959,364,365,366,367,368,369,370,371,372,373
1960,364,365,366,367,368,369,370,371,372,373
1961,364,365,366,367,368,369,370,371,372,373
1962,364,365,366,367,368,369,370,371,372,373
1963,364,365,366,367,368,369,370,371,372,373
1964,368,369,370,371,372,373,374,375,376,377
1965,371,372,373,374,375,376,377,378,379,380
1966,372,373,374,375,376,377,378,379,380,425
1967,373,374,375,376,377,378,379,380,425,426
1968,373,374,375,376,377,378,379,380,425,426
1969,373,374,375,376,377,378,379,380,425,426
1970,373,374,375,376,377,378,379,380,425,426
1971,373,374,375,376,377,378,379,380,425,426
1972,373,374,375,376,377,378,379,380,425,426
1973,373,374,375,376,377,378,379,380,425,426
