1,208,209,210,211,212,213,214,215,216,217
2,208,209,210,211,212,213,214,215,216,217
3,210,211,212,213,214,215,216,217,218,219
4,214,215,216,217,218,219,220,221,222,223
5,218,219,220,221,222,223,224,225,226,227
6,223,224,225,226,227,228,229,230,231,232
7,229,230,231,232,233,234,235,236,237,238
8,231,232,233,234,235,236,237,238,258,259
9,238,258,259,260,261,262,263,264,265,266
10,262,263,264,265,266,267,268,269,270,271
11,265,266,267,268,269,270,271,272,273,274
12,265,266,267,268,269,270,271,272,273,274
13,267,268,269,270,271,272,273,274,275,276
14,269,270,271,272,273,274,275,276,277,278
15,275,276,277,278,279,280,281,282,283,284
16,280,281,282,283,284,285,286,304,305,306
17,308,309,310,311,312,313,314,315,316,317
18,318,319,320,321,322,323,324,325,326,327
19,328,329,330,331,332,333,334,335,336,337
20,334,335,336,337,338,339,340,341,342,343
21,335,336,337,338,339,340,341,342,343,344
22,339,340,341,342,343,344,402,403,404,405
23,402,403,404,405,406,407,408,409,410,411
24,404,405,406,407,408,409,410,411,412,413
25,404,405,406,407,408,409,410,411,412,413
26,404,405,406,407,408,409,410,411,412,413
27,404,405,406,407,408,409,410,411,412,413
28,404,405,406,407,408,409,410,411,412,413
29,404,405,406,407,408,409,410,411,412,413
30,404,405,406,407,408,409,410,411,412,413
31,404,405,406,407,408,409,410,411,412,413
32,404,405,406,407,408,409,410,411,412,413
33,404,405,406,407,408,409,410,411,412,413
34,404,405,406,407,408,409,410,411,412,413
35,411,412,413,414,415,416,417,418,419,420
36,415,416,417,418,419,420,421,422,423,424
37,422,423,424,444,445,446,447,448,449,450
38,450,451,452,453,454,455,456,457,458,459
39,458,459,460,461,462,463,464,465,466,467
40,467,468,469,470,471,472,473,474,475,476
41,475,476,477,478,479,480,481,482,483,484
42,485,486,487,488,489,490,491,492,493,494
43,495,496,497,498,499,500,501,502,503,504
44,505,506,507,508,509,510,511,512,513,514
45,508,509,510,511,512,513,514,515,516,517
46,517,546,547,548,549,550,551,552,553,554
47,556,557,558,559,560,561,562,563,564,565
48,563,564,565,566,567,568,569,570,571,572
49,566,567,568,569,570,571,572,573,591,592
50,573,591,592,593,594,595,596,597,598,599
51,593,594,595,596,597,598,599,600,601,602
52,593,594,595,596,597,598,599,600,601,602
53,593,594,595,596,597,598,599,600,601,602
54,593,594,595,596,597,598,599,600,601,602
55,593,594,595,596,597,598,599,600,601,602
56,593,594,595,596,597,598,599,600,601,602
57,593,594,595,596,597,598,599,600,601,602
58,593,594,595,596,597,598,599,600,601,602
59,593,594,595,596,597,598,599,600,601,602
60,593,594,595,596,597,598,599,600,601,602
61,593,594,595,596,597,598,599,600,601,602
62,599,600,601,602,603,604,605,606,607,608
63,601,602,603,604,605,606,607,608,609,610
64,607,608,609,610,611,612,613,614,615,616
65,612,613,614,615,616,617,618,619,620,621
66,619,620,621,622,623,624,625,626,627,628
67,626,627,628,629,630,631,632,633,634,635
68,635,636,637,638,639,640,641,642,643,644
69,640,641,642,643,644,645,646,647,648,649
70,645,646,647,648,649,650,651,652,653,654
71,649,650,651,652,653,654,655,656,657,658
72,654,655,656,657,658,659,660,661,662,663
73,660,661,662,663,664,665,666,667,668,669
74,663,664,665,666,667,668,669,670,671,672
75,666,667,668,669,670,671,672,1,2,3
76,2,3,4,5,6,7,8,9,10,11
77,9,10,11,12,13,14,15,16,17,18
78,15,16,17,18,19,20,21,22,23,24
79,23,24,25,26,27,28,29,30,31,32
80,33,34,35,36,37,38,39,40,41,42
81,38,39,40,41,42,43,44,45,46,47
82,46,47,90,91,92,93,94,95,96,97
83,98,99,100,101,102,103,104,105,106,107
84,102,103,104,105,106,107,108,109,110,111
85,111,112,113,114,115,116,117,118,119,120
86,116,117,118,119,120,121,122,123,124,125
87,119,120,121,122,123,124,125,126,127,128
88,120,121,122,123,124,125,126,127,128,148
89,126,127,128,148,149,150,151,152,153,154
90,154,155,156,157,158,159,160,161,162,163
91,160,161,162,163,164,165,166,167,168,169
92,167,168,169,170,171,172,173,174,175,176
93,177,178,179,180,181,182,183,184,185,186
94,187,188,189,190,191,192,193,194,195,196
95,197,198,199,200,201,202,203,204,205,206
96,204,205,206,207,208,209,210,211,212,213
97,209,210,211,212,213,214,215,216,217,218
98,213,214,215,216,217,218,219,220,221,222
99,218,219,220,221,222,223,224,225,226,227
100,223,224,225,226,227,228,229,230,231,232
101,229,230,231,232,233,234,235,236,237,238
102,230,231,232,233,234,235,236,237,238,258
103,237,238,258,259,260,261,262,263,264,265
104,261,262,263,264,265,266,267,268,269,270
105,265,266,267,268,269,270,271,272,273,274
106,265,266,267,268,269,270,271,272,273,274
107,266,267,268,269,270,271,272,273,274,275
108,271,272,273,274,275,276,277,278,279,280
109,277,278,279,280,281,282,283,284,285,286
110,282,283,284,285,286,287,288,289,290,291
111,285,286,287,288,289,290,291,292,293,294
112,289,290,291,292,293,294,295,296,297,298
113,290,291,292,293,294,295,296,297,298,299
114,292,293,294,295,296,297,298,299,300,301
115,298,299,300,301,302,303,673,674,675,676
116,673,674,675,676,677,678,679,680,681,682
117,680,681,682,683,684,685,686,687,688,689
118,689,690,691,692,693,694,695,696,697,698
119,696,697,698,699,700,701,702,703,704,705
120,702,703,704,705,362,363,364,365,366,367
121,363,364,365,366,367,368,369,370,371,372
122,363,364,365,366,367,368,369,370,371,372
123,363,364,365,366,367,368,369,370,371,372
124,363,364,365,366,367,368,369,370,371,372
125,363,364,365,366,367,368,369,370,371,372
126,363,364,365,366,367,368,369,370,371,372
127,363,364,365,366,367,368,369,370,371,372
128,363,364,365,366,367,368,369,370,371,372
129,363,364,365,366,367,368,369,370,371,372
130,363,364,365,366,367,368,369,370,371,372
131,363,364,365,366,367,368,369,370,371,372
132,365,366,367,368,369,370,371,372,373,374
133,371,372,373,374,375,376,377,378,379,380
134,371,372,373,374,375,376,377,378,379,380
135,376,377,378,379,380,425,426,427,428,429
136,434,435,436,437,438,439,440,441,442,443
137,434,435,436,437,438,439,440,441,442,443
138,434,435,436,437,438,439,440,441,442,443
139,434,435,436,437,438,439,440,441,442,443
140,434,435,436,437,438,439,440,441,442,443
141,434,435,436,437,438,439,440,441,442,443
142,434,435,436,437,438,439,440,441,442,443
143,436,437,438,439,440,441,442,443,518,519
144,443,518,519,520,521,522,523,524,525,526
145,524,525,526,527,528,529,530,531,532,533
146,532,533,534,535,536,537,538,539,540,541
147,536,537,538,539,540,541,542,543,544,545
148,538,539,540,541,542,543,544,545,546,547
149,545,546,547,548,549,550,551,552,553,554
150,555,556,557,558,559,560,561,562,563,564
151,563,564,565,566,567,568,569,570,571,572
152,564,565,566,567,568,569,570,571,572,573
153,570,571,572,573,574,575,576,577,578,579
154,574,575,576,577,578,579,580,581,582,583
155,578,579,580,581,582,583,584,585,586,587
156,581,582,583,584,585,586,587,588,589,590
157,581,582,583,584,585,586,587,588,589,590
158,583,584,585,586,587,588,589,590,610,611
159,589,590,610,611,612,613,614,615,616,617
160,614,615,616,617,618,619,620,621,622,623
161,620,621,622,623,624,625,626,627,628,629
162,628,629,630,631,632,633,634,635,636,637
163,636,637,638,639,640,641,642,643,644,645
164,641,642,643,644,645,646,647,648,649,650
165,645,646,647,648,649,650,651,652,653,654
166,650,651,652,653,654,655,656,657,658,659
167,655,656,657,658,659,660,661,662,663,664
168,660,661,662,663,664,665,666,667,668,669
169,663,664,665,666,667,668,669,670,671,672
170,667,668,669,670,671,672,1,2,3,4
171,2,3,4,5,6,7,8,9,10,11
172,9,10,11,12,13,14,15,16,17,18
173,16,17,18,19,20,21,22,23,24,25
174,23,24,25,26,27,28,29,30,31,32
175,34,35,36,37,38,39,40,41,42,43
176,38,39,40,41,42,43,44,45,46,47
177,46,47,90,91,92,93,94,95,96,97
178,98,99,100,101,102,103,104,105,106,107
179,102,103,104,105,106,107,108,109,110,111
180,111,112,113,114,115,116,117,118,119,120
181,116,117,118,119,120,121,122,123,124,125
182,119,120,121,122,123,124,125,126,127,128
183,119,120,121,122,123,124,125,126,127,128
184,124,125,126,127,128,148,149,150,151,152
185,152,153,154,155,156,157,158,159,160,161
186,158,159,160,161,162,163,164,165,166,167
187,164,165,166,167,168,169,170,171,172,173
188,172,173,174,175,176,177,178,179,180,181
189,183,184,185,186,187,188,189,190,191,192
190,193,194,195,196,197,198,199,200,201,202
191,202,203,204,205,206,207,208,209,210,211
192,207,208,209,210,211,212,213,214,215,216
193,211,212,213,214,215,216,217,218,219,220
194,214,215,216,217,218,219,220,221,222,223
195,218,219,220,221,222,223,224,225,226,227
196,223,224,225,226,227,228,229,230,231,232
197,228,229,230,231,232,233,234,235,236,237
198,229,230,231,232,233,234,235,236,237,238
199,236,237,238,258,259,260,261,262,263,264
200,259,260,261,262,263,264,265,266,267,268
201,262,263,264,265,266,267,268,269,270,271
202,265,266,267,268,269,270,271,272,273,274
203,265,266,267,268,269,270,271,272,273,274
204,268,269,270,271,272,273,274,275,276,277
205,277,278,279,280,281,282,283,284,285,286
206,283,284,285,286,304,305,306,307,308,309
207,311,312,313,314,315,316,317,318,319,320
208,321,322,323,324,325,326,327,328,329,330
209,330,331,332,333,334,335,336,337,338,339
210,335,336,337,338,339,340,341,342,343,344
211,335,336,337,338,339,340,341,342,343,344
212,339,340,341,342,343,344,402,403,404,405
213,402,403,404,405,406,407,408,409,410,411
214,404,405,406,407,408,409,410,411,412,413
215,404,405,406,407,408,409,410,411,412,413
216,404,405,406,407,408,409,410,411,412,413
217,404,405,406,407,408,409,410,411,412,413
218,404,405,406,407,408,409,410,411,412,413
219,404,405,406,407,408,409,410,411,412,413
220,404,405,406,407,408,409,410,411,412,413
221,404,405,406,407,408,409,410,411,412,413
222,404,405,406,407,408,409,410,411,412,413
223,404,405,406,407,408,409,410,411,412,413
224,404,405,406,407,408,409,410,411,412,413
225,411,412,413,414,415,416,417,418,419,420
226,415,416,417,418,419,420,421,422,423,424
227,422,423,424,444,445,446,447,448,449,450
228,449,450,451,452,453,454,455,456,457,458
229,458,459,460,461,462,463,464,465,466,467
230,466,467,468,469,470,471,472,473,474,475
231,474,475,476,477,478,479,480,481,482,483
232,484,485,486,487,488,489,490,491,492,493
233,493,494,495,496,497,498,499,500,501,502
234,503,504,505,506,507,508,509,510,511,512
235,508,509,510,511,512,513,514,515,516,517
236,515,516,517,546,547,548,549,550,551,552
237,554,555,556,557,558,559,560,561,562,563
238,562,563,564,565,566,567,568,569,570,571
239,564,565,566,567,568,569,570,571,572,573
240,571,572,573,574,575,576,577,578,579,580
241,581,582,583,584,585,586,587,588,589,590
242,582,583,584,585,586,587,588,589,590,610
243,588,589,590,610,611,612,613,614,615,616
244,612,613,614,615,616,617,618,619,620,621
245,619,620,621,622,623,624,625,626,627,628
246,625,626,627,628,629,630,631,632,633,634
247,634,635,636,637,638,639,640,641,642,643
248,639,640,641,642,643,644,645,646,647,648
249,644,645,646,647,648,649,650,651,652,653
250,649,650,651,652,653,654,655,656,657,658
251,654,655,656,657,658,659,660,661,662,663
252,659,660,661,662,663,664,665,666,667,668
253,663,664,665,666,667,668,669,670,671,672
254,665,666,667,668,669,670,671,672,1,2
255,672,1,2,3,4,5,6,7,8,9
256,7,8,9,10,11,12,13,14,15,16
257,13,14,15,16,17,18,19,20,21,22
258,21,22,23,24,25,26,27,28,29,30
259,30,31,32,33,34,35,36,37,38,39
260,38,39,40,41,42,43,44,45,46,47
261,44,45,46,47,90,91,92,93,94,95
262,95,96,97,98,99,100,101,102,103,104
263,102,103,104,105,106,107,108,109,110,111
264,109,110,111,112,113,114,115,116,117,118
265,114,115,116,117,118,119,120,121,122,123
266,119,120,121,122,123,124,125,126,127,128
267,119,120,121,122,123,124,125,126,127,128
268,123,124,125,126,127,128,148,149,150,151
269,150,151,152,153,154,155,156,157,158,159
270,157,158,159,160,161,162,163,164,165,166
271,163,164,165,166,167,168,169,170,171,172
272,171,172,173,174,175,176,177,178,179,180
273,180,181,182,183,184,185,186,187,188,189
274,189,190,191,192,193,194,195,196,197,198
275,199,200,201,202,203,204,205,206,207,208
276,205,206,207,208,209,210,211,212,213,214
277,209,210,211,212,213,214,215,216,217,218
278,213,214,215,216,217,218,219,220,221,222
279,217,218,219,220,221,222,223,224,225,226
280,221,222,223,224,225,226,227,228,229,230
281,226,227,228,229,230,231,232,233,234,235
282,229,230,231,232,233,234,235,236,237,238
283,233,234,235,236,237,238,239,240,241,242
284,240,241,242,243,244,245,246,247,248,249
285,241,242,243,244,245,246,247,248,249,250
286,241,242,243,244,245,246,247,248,249,250
287,241,242,243,244,245,246,247,248,249,250
288,241,242,243,244,245,246,247,248,249,250
289,241,242,243,244,245,246,247,248,249,250
290,241,242,243,244,245,246,247,248,249,250
291,241,242,243,244,245,246,247,248,249,250
292,241,242,243,244,245,246,247,248,249,250
293,241,242,243,244,245,246,247,248,249,250
294,241,242,243,244,245,246,247,248,249,250
295,241,242,243,244,245,246,247,248,249,250
296,248,249,250,251,252,253,254,255,256,257
297,249,250,251,252,253,254,255,256,257,275
298,250,251,252,253,254,255,256,257,275,276
299,250,251,252,253,254,255,256,257,275,276
300,254,255,256,257,275,276,277,278,279,280
301,277,278,279,280,281,282,283,284,285,286
302,304,305,306,307,308,309,310,311,312,313
303,315,316,317,318,319,320,321,322,323,324
304,325,326,327,328,329,330,331,332,333,334
305,332,333,334,335,336,337,338,339,340,341
306,335,336,337,338,339,340,341,342,343,344
307,336,337,338,339,340,341,342,343,344,381
308,341,342,343,344,381,382,383,384,385,386
309,344,381,382,383,384,385,386,387,388,389
310,383,384,385,386,387,388,389,390,391,392
311,388,389,390,391,392,393,394,395,396,397
312,392,393,394,395,396,397,398,399,400,401
313,393,394,395,396,397,398,399,400,401,444
314,400,401,444,445,446,447,448,449,450,451
315,452,453,454,455,456,457,458,459,460,461
316,460,461,462,463,464,465,466,467,468,469
317,468,469,470,471,472,473,474,475,476,477
318,476,477,478,479,480,481,482,483,484,485
319,486,487,488,489,490,491,492,493,494,495
320,495,496,497,498,499,500,501,502,503,504
321,505,506,507,508,509,510,511,512,513,514
322,508,509,510,511,512,513,514,515,516,517
323,516,517,546,547,548,549,550,551,552,553
324,555,556,557,558,559,560,561,562,563,564
325,562,563,564,565,566,567,568,569,570,571
326,564,565,566,567,568,569,570,571,572,573
327,570,571,572,573,591,592,593,594,595,596
328,593,594,595,596,597,598,599,600,601,602
329,593,594,595,596,597,598,599,600,601,602
330,593,594,595,596,597,598,599,600,601,602
331,593,594,595,596,597,598,599,600,601,602
332,593,594,595,596,597,598,599,600,601,602
333,593,594,595,596,597,598,599,600,601,602
334,593,594,595,596,597,598,599,600,601,602
335,593,594,595,596,597,598,599,600,601,602
336,593,594,595,596,597,598,599,600,601,602
337,593,594,595,596,597,598,599,600,601,602
338,593,594,595,596,597,598,599,600,601,602
339,594,595,596,597,598,599,600,601,602,603
340,600,601,602,603,604,605,606,607,608,609
341,602,603,604,605,606,607,608,609,610,611
342,607,608,609,610,611,612,613,614,615,616
343,613,614,615,616,617,618,619,620,621,622
344,619,620,621,622,623,624,625,626,627,628
345,626,627,628,629,630,631,632,633,634,635
346,634,635,636,637,638,639,640,641,642,643
347,639,640,641,642,643,644,645,646,647,648
348,644,645,646,647,648,649,650,651,652,653
349,648,649,650,651,652,653,654,655,656,657
350,653,654,655,656,657,658,659,660,661,662
351,658,659,660,661,662,663,664,665,666,667
352,663,664,665,666,667,668,669,670,671,672
353,663,664,665,666,667,668,669,670,671,672
354,669,670,671,672,1,2,3,4,5,6
355,4,5,6,7,8,9,10,11,12,13
356,10,11,12,13,14,15,16,17,18,19
357,17,18,19,20,21,22,23,24,25,26
358,25,26,27,28,29,30,31,32,33,34
359,35,36,37,38,39,40,41,42,43,44
360,38,39,40,41,42,43,44,45,46,47
361,45,46,47,90,91,92,93,94,95,96
362,94,95,96,97,98,99,100,101,102,103
363,102,103,104,105,106,107,108,109,110,111
364,107,108,109,110,111,112,113,114,115,116
365,113,114,115,116,117,118,119,120,121,122
366,117,118,119,120,121,122,123,124,125,126
367,119,120,121,122,123,124,125,126,127,128
368,120,121,122,123,124,125,126,127,128,148
369,126,127,128,148,149,150,151,152,153,154
370,153,154,155,156,157,158,159,160,161,162
371,158,159,160,161,162,163,164,165,166,167
372,164,165,166,167,168,169,170,171,172,173
373,172,173,174,175,176,177,178,179,180,181
374,182,183,184,185,186,187,188,189,190,191
375,192,193,194,195,196,197,198,199,200,201
376,201,202,203,204,205,206,207,208,209,210
377,206,207,208,209,210,211,212,213,214,215
378,210,211,212,213,214,215,216,217,218,219
379,213,214,215,216,217,218,219,220,221,222
380,217,218,219,220,221,222,223,224,225,226
381,221,222,223,224,225,226,227,228,229,230
382,226,227,228,229,230,231,232,233,234,235
383,229,230,231,232,233,234,235,236,237,238
384,232,233,234,235,236,237,238,258,259,260
385,237,238,258,259,260,261,262,263,264,265
386,260,261,262,263,264,265,266,267,268,269
387,263,264,265,266,267,268,269,270,271,272
388,265,266,267,268,269,270,271,272,273,274
389,265,266,267,268,269,270,271,272,273,274
390,266,267,268,269,270,271,272,273,274,275
391,272,273,274,275,276,277,278,279,280,281
392,277,278,279,280,281,282,283,284,285,286
393,305,306,307,308,309,310,311,312,313,314
394,316,317,318,319,320,321,322,323,324,325
395,326,327,328,329,330,331,332,333,334,335
396,332,333,334,335,336,337,338,339,340,341
397,335,336,337,338,339,340,341,342,343,344
398,336,337,338,339,340,341,342,343,344,402
399,341,342,343,344,402,403,404,405,406,407
400,403,404,405,406,407,408,409,410,411,412
401,403,404,405,406,407,408,409,410,411,412
402,403,404,405,406,407,408,409,410,411,412
403,403,404,405,406,407,408,409,410,411,412
404,403,404,405,406,407,408,409,410,411,412
405,403,404,405,406,407,408,409,410,411,412
406,403,404,405,406,407,408,409,410,411,412
407,403,404,405,406,407,408,409,410,411,412
408,403,404,405,406,407,408,409,410,411,412
409,403,404,405,406,407,408,409,410,411,412
410,403,404,405,406,407,408,409,410,411,412
411,406,407,408,409,410,411,412,413,414,415
412,415,416,417,418,419,420,421,422,423,424
413,418,419,420,421,422,423,424,444,445,446
414,444,445,446,447,448,449,450,451,452,453
415,452,453,454,455,456,457,458,459,460,461
416,460,461,462,463,464,465,466,467,468,469
417,468,469,470,471,472,473,474,475,476,477
418,476,477,478,479,480,481,482,483,484,485
419,486,487,488,489,490,491,492,493,494,495
420,493,494,495,496,497,498,499,500,501,502
421,503,504,505,506,507,508,509,510,511,512
422,508,509,510,511,512,513,514,515,516,517
423,515,516,517,546,547,548,549,550,551,552
424,553,554,555,556,557,558,559,560,561,562
425,561,562,563,564,565,566,567,568,569,570
426,564,565,566,567,568,569,570,571,572,573
427,568,569,570,571,572,573,574,575,576,577
428,572,573,574,575,576,577,578,579,580,581
429,575,576,577,578,579,580,581,582,583,584
430,579,580,581,582,583,584,585,586,587,588
431,581,582,583,584,585,586,587,588,589,590
432,581,582,583,584,585,586,587,588,589,590
433,584,585,586,587,588,589,590,610,611,612
434,590,610,611,612,613,614,615,616,617,618
435,614,615,616,617,618,619,620,621,622,623
436,620,621,622,623,624,625,626,627,628,629
437,627,628,629,630,631,632,633,634,635,636
438,635,636,637,638,639,640,641,642,643,644
439,639,640,641,642,643,644,645,646,647,648
440,643,644,645,646,647,648,649,650,651,652
441,647,648,649,650,651,652,653,654,655,656
442,651,652,653,654,655,656,657,658,659,660
443,656,657,658,659,660,661,662,663,664,665
444,661,662,663,664,665,666,667,668,669,670
445,663,664,665,666,667,668,669,670,671,672
446,666,667,668,669,670,671,672,1,2,3
447,1,2,3,4,5,6,7,8,9,10
448,7,8,9,10,11,12,13,14,15,16
449,14,15,16,17,18,19,20,21,22,23
450,21,22,23,24,25,26,27,28,29,30
451,30,31,32,33,34,35,36,37,38,39
452,38,39,40,41,42,43,44,45,46,47
453,43,44,45,46,47,90,91,92,93,94
454,94,95,96,97,98,99,100,101,102,103
455,102,103,104,105,106,107,108,109,110,111
456,107,108,109,110,111,112,113,114,115,116
457,113,114,115,116,117,118,119,120,121,122
458,117,118,119,120,121,122,123,124,125,126
459,119,120,121,122,123,124,125,126,127,128
460,119,120,121,122,123,124,125,126,127,128
461,124,125,126,127,128,148,149,150,151,152
462,151,152,153,154,155,156,157,158,159,160
463,157,158,159,160,161,162,163,164,165,166
464,162,163,164,165,166,167,168,169,170,171
465,168,169,170,171,172,173,174,175,176,177
466,178,179,180,181,182,183,184,185,186,187
467,188,189,190,191,192,193,194,195,196,197
468,196,197,198,199,200,201,202,203,204,205
469,203,204,205,206,207,208,209,210,211,212
470,206,207,208,209,210,211,212,213,214,215
471,210,211,212,213,214,215,216,217,218,219
472,213,214,215,216,217,218,219,220,221,222
473,216,217,218,219,220,221,222,223,224,225
474,220,221,222,223,224,225,226,227,228,229
475,225,226,227,228,229,230,231,232,233,234
476,229,230,231,232,233,234,235,236,237,238
477,232,233,234,235,236,237,238,258,259,260
478,237,238,258,259,260,261,262,263,264,265
479,260,261,262,263,264,265,266,267,268,269
480,263,264,265,266,267,268,269,270,271,272
481,265,266,267,268,269,270,271,272,273,274
482,265,266,267,268,269,270,271,272,273,274
483,269,270,271,272,273,274,275,276,277,278
484,277,278,279,280,281,282,283,284,285,286
485,281,282,283,284,285,286,287,288,289,290
486,284,285,286,287,288,289,290,291,292,293
487,287,288,289,290,291,292,293,294,295,296
488,289,290,291,292,293,294,295,296,297,298
489,293,294,295,296,297,298,299,300,301,302
490,299,300,301,302,303,673,674,675,676,677
491,676,677,678,679,680,681,682,683,684,685
492,680,681,682,683,684,685,686,687,688,689
493,686,687,688,689,690,691,692,693,694,695
494,696,697,698,699,700,701,702,703,704,705
495,700,701,702,703,704,705,362,363,364,365
496,362,363,364,365,366,367,368,369,370,371
497,362,363,364,365,366,367,368,369,370,371
498,362,363,364,365,366,367,368,369,370,371
499,362,363,364,365,366,367,368,369,370,371
500,362,363,364,365,366,367,368,369,370,371
501,362,363,364,365,366,367,368,369,370,371
502,362,363,364,365,366,367,368,369,370,371
503,362,363,364,365,366,367,368,369,370,371
504,362,363,364,365,366,367,368,369,370,371
505,362,363,364,365,366,367,368,369,370,371
506,362,363,364,365,366,367,368,369,370,371
507,363,364,365,366,367,368,369,370,371,372
508,367,368,369,370,371,372,373,374,375,376
509,371,372,373,374,375,376,377,378,379,380
510,371,372,373,374,375,376,377,378,379,380
511,373,374,375,376,377,378,379,380,425,426
512,373,374,375,376,377,378,379,380,425,426
513,373,374,375,376,377,378,379,380,425,426
514,373,374,375,376,377,378,379,380,425,426
515,373,374,375,376,377,378,379,380,425,426
516,373,374,375,376,377,378,379,380,425,426
517,375,376,377,378,379,380,425,426,427,428
518,379,380,425,426,427,428,429,430,431,432
519,426,427,428,429,430,431,432,433,434,435
520,428,429,430,431,432,433,434,435,436,437
521,431,432,433,434,435,436,437,438,439,440
522,433,434,435,436,437,438,439,440,441,442
523,434,435,436,437,438,439,440,441,442,443
524,434,435,436,437,438,439,440,441,442,443
525,434,435,436,437,438,439,440,441,442,443
526,440,441,442,443,518,519,520,521,522,523
527,519,520,521,522,523,524,525,526,527,528
528,526,527,528,529,530,531,532,533,534,535
529,534,535,536,537,538,539,540,541,542,543
530,536,537,538,539,540,541,542,543,544,545
531,538,539,540,541,542,543,544,545,546,547
532,543,544,545,546,547,548,549,550,551,552
533,553,554,555,556,557,558,559,560,561,562
534,561,562,563,564,565,566,567,568,569,570
535,564,565,566,567,568,569,570,571,572,573
536,568,569,570,571,572,573,574,575,576,577
537,572,573,574,575,576,577,578,579,580,581
538,575,576,577,578,579,580,581,582,583,584
539,579,580,581,582,583,584,585,586,587,588
540,581,582,583,584,585,586,587,588,589,590
541,581,582,583,584,585,586,587,588,589,590
542,584,585,586,587,588,589,590,610,611,612
543,589,590,610,611,612,613,614,615,616,617
544,614,615,616,617,618,619,620,621,622,623
545,620,621,622,623,624,625,626,627,628,629
546,626,627,628,629,630,631,632,633,634,635
547,634,635,636,637,638,639,640,641,642,643
548,634,635,636,637,638,639,640,641,642,643
549,634,635,636,637,638,639,640,641,642,643
550,634,635,636,637,638,639,640,641,642,643
551,634,635,636,637,638,639,640,641,642,643
552,634,635,636,637,638,639,640,641,642,643
553,634,635,636,637,638,639,640,641,642,643
554,634,635,636,637,638,639,640,641,642,643
555,634,635,636,637,638,639,640,641,642,643
556,634,635,636,637,638,639,640,641,642,643
557,634,635,636,637,638,639,640,641,642,643
558,635,636,637,638,639,640,641,642,643,644
559,640,641,642,643,644,645,646,647,648,649
560,644,645,646,647,648,649,650,651,652,653
561,648,649,650,651,652,653,654,655,656,657
562,652,653,654,655,656,657,658,659,660,661
563,656,657,658,659,660,661,662,663,664,665
564,661,662,663,664,665,666,667,668,669,670
565,663,664,665,666,667,668,669,670,671,672
566,666,667,668,669,670,671,672,1,2,3
567,1,2,3,4,5,6,7,8,9,10
568,7,8,9,10,11,12,13,14,15,16
569,13,14,15,16,17,18,19,20,21,22
570,20,21,22,23,24,25,26,27,28,29
571,29,30,31,32,33,34,35,36,37,38
572,38,39,40,41,42,43,44,45,46,47
573,42,43,44,45,46,47,90,91,92,93
574,92,93,94,95,96,97,98,99,100,101
575,95,96,97,98,99,100,101,102,103,104
576,95,96,97,98,99,100,101,102,103,104
577,95,96,97,98,99,100,101,102,103,104
578,95,96,97,98,99,100,101,102,103,104
579,95,96,97,98,99,100,101,102,103,104
580,95,96,97,98,99,100,101,102,103,104
581,95,96,97,98,99,100,101,102,103,104
582,95,96,97,98,99,100,101,102,103,104
583,95,96,97,98,99,100,101,102,103,104
584,95,96,97,98,99,100,101,102,103,104
585,95,96,97,98,99,100,101,102,103,104
586,100,101,102,103,104,105,106,107,108,109
587,105,106,107,108,109,110,111,129,130,131
588,130,131,132,133,134,135,136,137,138,139
589,132,133,134,135,136,137,138,139,140,141
590,132,133,134,135,136,137,138,139,140,141
591,132,133,134,135,136,137,138,139,140,141
592,132,133,134,135,136,137,138,139,140,141
593,132,133,134,135,136,137,138,139,140,141
594,132,133,134,135,136,137,138,139,140,141
595,132,133,134,135,136,137,138,139,140,141
596,132,133,134,135,136,137,138,139,140,141
597,132,133,134,135,136,137,138,139,140,141
598,132,133,134,135,136,137,138,139,140,141
599,132,133,134,135,136,137,138,139,140,141
600,132,133,134,135,136,137,138,139,140,141
601,132,133,134,135,136,137,138,139,140,141
602,132,133,134,135,136,137,138,139,140,141
603,132,133,134,135,136,137,138,139,140,141
604,132,133,134,135,136,137,138,139,140,141
605,132,133,134,135,136,137,138,139,140,141
606,132,133,134,135,136,137,138,139,140,141
607,132,133,134,135,136,137,138,139,140,141
608,134,135,136,137,138,139,140,141,142,143
609,138,139,140,141,142,143,144,145,146,147
610,141,142,143,144,145,146,147,148,149,150
611,147,148,149,150,151,152,153,154,155,156
612,154,155,156,157,158,159,160,161,162,163
613,159,160,161,162,163,164,165,166,167,168
614,164,165,166,167,168,169,170,171,172,173
615,172,173,174,175,176,177,178,179,180,181
616,182,183,184,185,186,187,188,189,190,191
617,192,193,194,195,196,197,198,199,200,201
618,201,202,203,204,205,206,207,208,209,210
619,206,207,208,209,210,211,212,213,214,215
620,210,211,212,213,214,215,216,217,218,219
621,213,214,215,216,217,218,219,220,221,222
622,217,218,219,220,221,222,223,224,225,226
623,219,220,221,222,223,224,225,226,227,228
624,219,220,221,222,223,224,225,226,227,228
625,219,220,221,222,223,224,225,226,227,228
626,219,220,221,222,223,224,225,226,227,228
627,219,220,221,222,223,224,225,226,227,228
628,219,220,221,222,223,224,225,226,227,228
629,219,220,221,222,223,224,225,226,227,228
630,219,220,221,222,223,224,225,226,227,228
631,219,220,221,222,223,224,225,226,227,228
632,219,220,221,222,223,224,225,226,227,228
633,219,220,221,222,223,224,225,226,227,228
634,219,220,221,222,223,224,225,226,227,228
635,219,220,221,222,223,224,225,226,227,228
636,219,220,221,222,223,224,225,226,227,228
637,219,220,221,222,223,224,225,226,227,228
638,219,220,221,222,223,224,225,226,227,228
639,219,220,221,222,223,224,225,226,227,228
640,222,223,224,225,226,227,228,229,230,231
641,227,228,229,230,231,232,233,234,235,236
642,229,230,231,232,233,234,235,236,237,238
643,234,235,236,237,238,258,259,260,261,262
644,258,259,260,261,262,263,264,265,266,267
645,261,262,263,264,265,266,267,268,269,270
646,264,265,266,267,268,269,270,271,272,273
647,265,266,267,268,269,270,271,272,273,274
648,265,266,267,268,269,270,271,272,273,274
649,268,269,270,271,272,273,274,275,276,277
650,276,277,278,279,280,281,282,283,284,285
651,282,283,284,285,286,304,305,306,307,308
652,309,310,311,312,313,314,315,316,317,318
653,320,321,322,323,324,325,326,327,328,329
654,329,330,331,332,333,334,335,336,337,338
655,334,335,336,337,338,339,340,341,342,343
656,335,336,337,338,339,340,341,342,343,344
657,339,340,341,342,343,344,402,403,404,405
658,402,403,404,405,406,407,408,409,410,411
659,404,405,406,407,408,409,410,411,412,413
660,404,405,406,407,408,409,410,411,412,413
661,404,405,406,407,408,409,410,411,412,413
662,404,405,406,407,408,409,410,411,412,413
663,404,405,406,407,408,409,410,411,412,413
664,404,405,406,407,408,409,410,411,412,413
665,404,405,406,407,408,409,410,411,412,413
666,404,405,406,407,408,409,410,411,412,413
667,404,405,406,407,408,409,410,411,412,413
668,404,405,406,407,408,409,410,411,412,413
669,404,405,406,407,408,409,410,411,412,413
670,409,410,411,412,413,414,415,416,417,418
671,415,416,417,418,419,420,421,422,423,424
672,420,421,422,423,424,444,445,446,447,448
673,447,448,449,450,451,452,453,454,455,456
674,456,457,458,459,460,461,462,463,464,465
675,464,465,466,467,468,469,470,471,472,473
676,472,473,474,475,476,477,478,479,480,481
677,481,482,483,484,485,486,487,488,489,490
678,490,491,492,493,494,495,496,497,498,499
679,499,500,501,502,503,504,505,506,507,508
680,508,509,510,511,512,513,514,515,516,517
681,511,512,513,514,515,516,517,546,547,548
682,549,550,551,552,553,554,555,556,557,558
683,558,559,560,561,562,563,564,565,566,567
684,564,565,566,567,568,569,570,571,572,573
685,566,567,568,569,570,571,572,573,591,592
686,572,573,591,592,593,594,595,596,597,598
687,593,594,595,596,597,598,599,600,601,602
688,593,594,595,596,597,598,599,600,601,602
689,593,594,595,596,597,598,599,600,601,602
690,593,594,595,596,597,598,599,600,601,602
691,593,594,595,596,597,598,599,600,601,602
692,593,594,595,596,597,598,599,600,601,602
693,593,594,595,596,597,598,599,600,601,602
694,593,594,595,596,597,598,599,600,601,602
695,593,594,595,596,597,598,599,600,601,602
696,593,594,595,596,597,598,599,600,601,602
697,593,594,595,596,597,598,599,600,601,602
698,595,596,597,598,599,600,601,602,603,604
699,600,601,602,603,604,605,606,607,608,609
700,603,604,605,606,607,608,609,610,611,612
701,608,609,610,611,612,613,614,615,616,617
702,613,614,615,616,617,618,619,620,621,622
703,619,620,621,622,623,624,625,626,627,628
704,625,626,627,628,629,630,631,632,633,634
705,633,634,635,636,637,638,639,640,641,642
706,638,639,640,641,642,643,644,645,646,647
707,642,643,644,645,646,647,648,649,650,651
708,646,647,648,649,650,651,652,653,654,655
709,650,651,652,653,654,655,656,657,658,659
710,654,655,656,657,658,659,660,661,662,663
711,659,660,661,662,663,664,665,666,667,668
712,663,664,665,666,667,668,669,670,671,672
713,664,665,666,667,668,669,670,671,672,1
714,670,671,672,1,2,3,4,5,6,7
715,4,5,6,7,8,9,10,11,12,13
716,10,11,12,13,14,15,16,17,18,19
717,16,17,18,19,20,21,22,23,24,25
718,24,25,26,27,28,29,30,31,32,33
719,33,34,35,36,37,38,39,40,41,42
720,38,39,40,41,42,43,44,45,46,47
721,45,46,47,90,91,92,93,94,95,96
722,96,97,98,99,100,101,102,103,104,105
723,102,103,104,105,106,107,108,109,110,111
724,109,110,111,112,113,114,115,116,117,118
725,114,115,116,117,118,119,120,121,122,123
726,118,119,120,121,122,123,124,125,126,127
727,119,120,121,122,123,124,125,126,127,128
728,120,121,122,123,124,125,126,127,128,148
729,125,126,127,128,148,149,150,151,152,153
730,152,153,154,155,156,157,158,159,160,161
731,155,156,157,158,159,160,161,162,163,164
732,159,160,161,162,163,164,165,166,167,168
733,164,165,166,167,168,169,170,171,172,173
734,170,171,172,173,174,175,176,177,178,179
735,180,181,182,183,184,185,186,187,188,189
736,190,191,192,193,194,195,196,197,198,199
737,199,200,201,202,203,204,205,206,207,208
738,205,206,207,208,209,210,211,212,213,214
739,209,210,211,212,213,214,215,216,217,218
740,212,213,214,215,216,217,218,219,220,221
741,215,216,217,218,219,220,221,222,223,224
742,219,220,221,222,223,224,225,226,227,228
743,223,224,225,226,227,228,229,230,231,232
744,227,228,229,230,231,232,233,234,235,236
745,229,230,231,232,233,234,235,236,237,238
746,233,234,235,236,237,238,239,240,241,242
747,239,240,241,242,243,244,245,246,247,248
748,241,242,243,244,245,246,247,248,249,250
749,241,242,243,244,245,246,247,248,249,250
750,241,242,243,244,245,246,247,248,249,250
751,241,242,243,244,245,246,247,248,249,250
752,241,242,243,244,245,246,247,248,249,250
753,241,242,243,244,245,246,247,248,249,250
754,241,242,243,244,245,246,247,248,249,250
755,241,242,243,244,245,246,247,248,249,250
756,241,242,243,244,245,246,247,248,249,250
757,241,242,243,244,245,246,247,248,249,250
758,241,242,243,244,245,246,247,248,249,250
759,246,247,248,249,250,251,252,253,254,255
760,248,249,250,251,252,253,254,255,256,257
761,251,252,253,254,255,256,257,275,276,277
762,255,256,257,275,276,277,278,279,280,281
763,277,278,279,280,281,282,283,284,285,286
764,286,304,305,306,307,308,309,310,311,312
765,313,314,315,316,317,318,319,320,321,322
766,322,323,324,325,326,327,328,329,330,331
767,330,331,332,333,334,335,336,337,338,339
768,335,336,337,338,339,340,341,342,343,344
769,335,336,337,338,339,340,341,342,343,344
770,338,339,340,341,342,343,344,381,382,383
771,341,342,343,344,381,382,383,384,385,386
772,343,344,381,382,383,384,385,386,387,388
773,381,382,383,384,385,386,387,388,389,390
774,384,385,386,387,388,389,390,391,392,393
775,389,390,391,392,393,394,395,396,397,398
776,392,393,394,395,396,397,398,399,400,401
777,393,394,395,396,397,398,399,400,401,444
778,400,401,444,445,446,447,448,449,450,451
779,450,451,452,453,454,455,456,457,458,459
780,459,460,461,462,463,464,465,466,467,468
781,466,467,468,469,470,471,472,473,474,475
782,474,475,476,477,478,479,480,481,482,483
783,483,484,485,486,487,488,489,490,491,492
784,492,493,494,495,496,497,498,499,500,501
785,502,503,504,505,506,507,508,509,510,511
786,508,509,510,511,512,513,514,515,516,517
787,513,514,515,516,517,546,547,548,549,550
788,551,552,553,554,555,556,557,558,559,560
789,560,561,562,563,564,565,566,567,568,569
790,564,565,566,567,568,569,570,571,572,573
791,567,568,569,570,571,572,573,591,592,593
792,573,591,592,593,594,595,596,597,598,599
793,593,594,595,596,597,598,599,600,601,602
794,593,594,595,596,597,598,599,600,601,602
795,593,594,595,596,597,598,599,600,601,602
796,593,594,595,596,597,598,599,600,601,602
797,593,594,595,596,597,598,599,600,601,602
798,593,594,595,596,597,598,599,600,601,602
799,593,594,595,596,597,598,599,600,601,602
800,593,594,595,596,597,598,599,600,601,602
801,593,594,595,596,597,598,599,600,601,602
802,593,594,595,596,597,598,599,600,601,602
803,593,594,595,596,597,598,599,600,601,602
804,598,599,600,601,602,603,604,605,606,607
805,600,601,602,603,604,605,606,607,608,609
806,605,606,607,608,609,610,611,612,613,614
807,610,611,612,613,614,615,616,617,618,619
808,616,617,618,619,620,621,622,623,624,625
809,621,622,623,624,625,626,627,628,629,630
810,629,630,631,632,633,634,635,636,637,638
811,636,637,638,639,640,641,642,643,644,645
812,640,641,642,643,644,645,646,647,648,649
813,644,645,646,647,648,649,650,651,652,653
814,648,649,650,651,652,653,654,655,656,657
815,652,653,654,655,656,657,658,659,660,661
816,656,657,658,659,660,661,662,663,664,665
817,661,662,663,664,665,666,667,668,669,670
818,663,664,665,666,667,668,669,670,671,672
819,666,667,668,669,670,671,672,1,2,3
820,672,1,2,3,4,5,6,7,8,9
821,6,7,8,9,10,11,12,13,14,15
822,12,13,14,15,16,17,18,19,20,21
823,19,20,21,22,23,24,25,26,27,28
824,27,28,29,30,31,32,33,34,35,36
825,37,38,39,40,41,42,43,44,45,46
826,40,41,42,43,44,45,46,47,90,91
827,90,91,92,93,94,95,96,97,98,99
828,99,100,101,102,103,104,105,106,107,108
829,103,104,105,106,107,108,109,110,111,112
830,111,112,113,114,115,116,117,118,119,120
831,116,117,118,119,120,121,122,123,124,125
832,119,120,121,122,123,124,125,126,127,128
833,119,120,121,122,123,124,125,126,127,128
834,122,123,124,125,126,127,128,148,149,150
835,149,150,151,152,153,154,155,156,157,158
836,155,156,157,158,159,160,161,162,163,164
837,160,161,162,163,164,165,166,167,168,169
838,166,167,168,169,170,171,172,173,174,175
839,174,175,176,177,178,179,180,181,182,183
840,184,185,186,187,188,189,190,191,192,193
841,194,195,196,197,198,199,200,201,202,203
842,202,203,204,205,206,207,208,209,210,211
843,202,203,204,205,206,207,208,209,210,211
844,202,203,204,205,206,207,208,209,210,211
845,202,203,204,205,206,207,208,209,210,211
846,202,203,204,205,206,207,208,209,210,211
847,203,204,205,206,207,208,209,210,211,212
848,206,207,208,209,210,211,212,213,214,215
849,210,211,212,213,214,215,216,217,218,219
850,213,214,215,216,217,218,219,220,221,222
851,216,217,218,219,220,221,222,223,224,225
852,220,221,222,223,224,225,226,227,228,229
853,225,226,227,228,229,230,231,232,233,234
854,229,230,231,232,233,234,235,236,237,238
855,230,231,232,233,234,235,236,237,238,258
856,236,237,238,258,259,260,261,262,263,264
857,259,260,261,262,263,264,265,266,267,268
858,262,263,264,265,266,267,268,269,270,271
859,265,266,267,268,269,270,271,272,273,274
860,265,266,267,268,269,270,271,272,273,274
861,266,267,268,269,270,271,272,273,274,275
862,274,275,276,277,278,279,280,281,282,283
863,279,280,281,282,283,284,285,286,304,305
864,307,308,309,310,311,312,313,314,315,316
865,316,317,318,319,320,321,322,323,324,325
866,325,326,327,328,329,330,331,332,333,334
867,331,332,333,334,335,336,337,338,339,340
868,335,336,337,338,339,340,341,342,343,344
869,335,336,337,338,339,340,341,342,343,344
870,341,342,343,344,402,403,404,405,406,407
871,403,404,405,406,407,408,409,410,411,412
872,403,404,405,406,407,408,409,410,411,412
873,403,404,405,406,407,408,409,410,411,412
874,403,404,405,406,407,408,409,410,411,412
875,403,404,405,406,407,408,409,410,411,412
876,403,404,405,406,407,408,409,410,411,412
877,403,404,405,406,407,408,409,410,411,412
878,403,404,405,406,407,408,409,410,411,412
879,403,404,405,406,407,408,409,410,411,412
880,403,404,405,406,407,408,409,410,411,412
881,403,404,405,406,407,408,409,410,411,412
882,404,405,406,407,408,409,410,411,412,413
883,412,413,414,415,416,417,418,419,420,421
884,416,417,418,419,420,421,422,423,424,444
885,421,422,423,424,444,445,446,447,448,449
886,448,449,450,451,452,453,454,455,456,457
887,457,458,459,460,461,462,463,464,465,466
888,464,465,466,467,468,469,470,471,472,473
889,473,474,475,476,477,478,479,480,481,482
890,481,482,483,484,485,486,487,488,489,490
891,490,491,492,493,494,495,496,497,498,499
892,500,501,502,503,504,505,506,507,508,509
893,508,509,510,511,512,513,514,515,516,517
894,511,512,513,514,515,516,517,546,547,548
895,548,549,550,551,552,553,554,555,556,557
896,558,559,560,561,562,563,564,565,566,567
897,564,565,566,567,568,569,570,571,572,573
898,565,566,567,568,569,570,571,572,573,574
899,570,571,572,573,574,575,576,577,578,579
900,574,575,576,577,578,579,580,581,582,583
901,577,578,579,580,581,582,583,584,585,586
902,580,581,582,583,584,585,586,587,588,589
903,581,582,583,584,585,586,587,588,589,590
904,582,583,584,585,586,587,588,589,590,610
905,587,588,589,590,610,611,612,613,614,615
906,612,613,614,615,616,617,618,619,620,621
907,617,618,619,620,621,622,623,624,625,626
908,623,624,625,626,627,628,629,630,631,632
909,631,632,633,634,635,636,637,638,639,640
910,637,638,639,640,641,642,643,644,645,646
911,641,642,643,644,645,646,647,648,649,650
912,645,646,647,648,649,650,651,652,653,654
913,649,650,651,652,653,654,655,656,657,658
914,653,654,655,656,657,658,659,660,661,662
915,658,659,660,661,662,663,664,665,666,667
916,663,664,665,666,667,668,669,670,671,672
917,663,664,665,666,667,668,669,670,671,672
918,668,669,670,671,672,1,2,3,4,5
919,3,4,5,6,7,8,9,10,11,12
920,9,10,11,12,13,14,15,16,17,18
921,16,17,18,19,20,21,22,23,24,25
922,23,24,25,26,27,28,29,30,31,32
923,32,33,34,35,36,37,38,39,40,41
924,38,39,40,41,42,43,44,45,46,47
925,44,45,46,47,90,91,92,93,94,95
926,93,94,95,96,97,98,99,100,101,102
927,102,103,104,105,106,107,108,109,110,111
928,106,107,108,109,110,111,112,113,114,115
929,116,117,118,119,120,121,122,123,124,125
930,119,120,121,122,123,124,125,126,127,128
931,120,121,122,123,124,125,126,127,128,148
932,127,128,148,149,150,151,152,153,154,155
933,153,154,155,156,157,158,159,160,161,162
934,158,159,160,161,162,163,164,165,166,167
935,164,165,166,167,168,169,170,171,172,173
936,172,173,174,175,176,177,178,179,180,181
937,181,182,183,184,185,186,187,188,189,190
938,192,193,194,195,196,197,198,199,200,201
939,201,202,203,204,205,206,207,208,209,210
940,206,207,208,209,210,211,212,213,214,215
941,210,211,212,213,214,215,216,217,218,219
942,213,214,215,216,217,218,219,220,221,222
943,217,218,219,220,221,222,223,224,225,226
944,221,222,223,224,225,226,227,228,229,230
945,226,227,228,229,230,231,232,233,234,235
946,229,230,231,232,233,234,235,236,237,238
947,232,233,234,235,236,237,238,258,259,260
948,237,238,258,259,260,261,262,263,264,265
949,260,261,262,263,264,265,266,267,268,269
950,263,264,265,266,267,268,269,270,271,272
951,265,266,267,268,269,270,271,272,273,274
952,265,266,267,268,269,270,271,272,273,274
953,266,267,268,269,270,271,272,273,274,275
954,272,273,274,275,276,277,278,279,280,281
955,277,278,279,280,281,282,283,284,285,286
956,282,283,284,285,286,287,288,289,290,291
957,286,287,288,289,290,291,292,293,294,295
958,292,293,294,295,296,297,298,299,300,301
959,300,301,302,303,673,674,675,676,677,678
960,677,678,679,680,681,682,683,684,685,686
961,683,684,685,686,687,688,689,690,691,692
962,692,693,694,695,696,697,698,699,700,701
963,696,697,698,699,700,701,702,703,704,705
964,703,704,705,362,363,364,365,366,367,368
965,363,364,365,366,367,368,369,370,371,372
966,363,364,365,366,367,368,369,370,371,372
967,363,364,365,366,367,368,369,370,371,372
968,363,364,365,366,367,368,369,370,371,372
969,363,364,365,366,367,368,369,370,371,372
970,363,364,365,366,367,368,369,370,371,372
971,363,364,365,366,367,368,369,370,371,372
972,363,364,365,366,367,368,369,370,371,372
973,363,364,365,366,367,368,369,370,371,372
974,363,364,365,366,367,368,369,370,371,372
975,363,364,365,366,367,368,369,370,371,372
976,364,365,366,367,368,369,370,371,372,373
977,369,370,371,372,373,374,375,376,377,378
978,371,372,373,374,375,376,377,378,379,380
979,373,374,375,376,377,378,379,380,425,426
980,373,374,375,376,377,378,379,380,425,426
981,373,374,375,376,377,378,379,380,425,426
982,373,374,375,376,377,378,379,380,425,426
983,373,374,375,376,377,378,379,380,425,426
984,373,374,375,376,377,378,379,380,425,426
985,373,374,375,376,377,378,379,380,425,426
986,373,374,375,376,377,378,379,380,425,426
987,373,374,375,376,377,378,379,380,425,426
988,373,374,375,376,377,378,379,380,425,426
989,373,374,375,376,377,378,379,380,425,426
990,373,374,375,376,377,378,379,380,425,426
991,373,374,375,376,377,378,379,380,425,426
992,373,374,375,376,377,378,379,380,425,426
993,373,374,375,376,377,378,379,380,425,426
994,373,374,375,376,377,378,379,380,425,426
995,373,374,375,376,377,378,379,380,425,426
996,373,374,375,376,377,378,379,380,425,426
997,373,374,375,376,377,378,379,380,425,426
998,373,374,375,376,377,378,379,380,425,426
999,377,378,379,380,425,426,427,428,429,430
1000,425,426,427,428,429,430,431,432,433,434
1001,427,428,429,430,431,432,433,434,435,436
1002,430,431,432,433,434,435,436,437,438,439
1003,433,434,435,436,437,438,439,440,441,442
1004,434,435,436,437,438,439,440,441,442,443
1005,434,435,436,437,438,439,440,441,442,443
1006,434,435,436,437,438,439,440,441,442,443
1007,438,439,440,441,442,443,518,519,520,521
1008,443,518,519,520,521,522,523,524,525,526
1009,523,524,525,526,527,528,529,530,531,532
1010,531,532,533,534,535,536,537,538,539,540
1011,536,537,538,539,540,541,542,543,544,545
1012,537,538,539,540,541,542,543,544,545,546
1013,541,542,543,544,545,546,547,548,549,550
1014,549,550,551,552,553,554,555,556,557,558
1015,558,559,560,561,562,563,564,565,566,567
1016,564,565,566,567,568,569,570,571,572,573
1017,566,567,568,569,570,571,572,573,574,575
1018,571,572,573,574,575,576,577,578,579,580
1019,574,575,576,577,578,579,580,581,582,583
1020,578,579,580,581,582,583,584,585,586,587
1021,581,582,583,584,585,586,587,588,589,590
1022,581,582,583,584,585,586,587,588,589,590
1023,581,582,583,584,585,586,587,588,589,590
1024,581,582,583,584,585,586,587,588,589,590
1025,581,582,583,584,585,586,587,588,589,590
1026,581,582,583,584,585,586,587,588,589,590
1027,581,582,583,584,585,586,587,588,589,590
1028,581,582,583,584,585,586,587,588,589,590
1029,581,582,583,584,585,586,587,588,589,590
1030,581,582,583,584,585,586,587,588,589,590
1031,581,582,583,584,585,586,587,588,589,590
1032,582,583,584,585,586,587,588,589,590,610
1033,588,589,590,610,611,612,613,614,615,616
1034,612,613,614,615,616,617,618,619,620,621
1035,618,619,620,621,622,623,624,625,626,627
1036,624,625,626,627,628,629,630,631,632,633
1037,631,632,633,634,635,636,637,638,639,640
1038,637,638,639,640,641,642,643,644,645,646
1039,642,643,644,645,646,647,648,649,650,651
1040,646,647,648,649,650,651,652,653,654,655
1041,650,651,652,653,654,655,656,657,658,659
1042,655,656,657,658,659,660,661,662,663,664
1043,660,661,662,663,664,665,666,667,668,669
1044,663,664,665,666,667,668,669,670,671,672
1045,665,666,667,668,669,670,671,672,1,2
1046,672,1,2,3,4,5,6,7,8,9
1047,6,7,8,9,10,11,12,13,14,15
1048,12,13,14,15,16,17,18,19,20,21
1049,19,20,21,22,23,24,25,26,27,28
1050,27,28,29,30,31,32,33,34,35,36
1051,38,39,40,41,42,43,44,45,46,47
1052,41,42,43,44,45,46,47,90,91,92
1053,46,47,90,91,92,93,94,95,96,97
1054,96,97,98,99,100,101,102,103,104,105
1055,102,103,104,105,106,107,108,109,110,111
1056,110,111,129,130,131,132,133,134,135,136
1057,132,133,134,135,136,137,138,139,140,141
1058,132,133,134,135,136,137,138,139,140,141
1059,132,133,134,135,136,137,138,139,140,141
1060,132,133,134,135,136,137,138,139,140,141
1061,132,133,134,135,136,137,138,139,140,141
1062,132,133,134,135,136,137,138,139,140,141
1063,132,133,134,135,136,137,138,139,140,141
1064,132,133,134,135,136,137,138,139,140,141
1065,132,133,134,135,136,137,138,139,140,141
1066,132,133,134,135,136,137,138,139,140,141
1067,132,133,134,135,136,137,138,139,140,141
1068,135,136,137,138,139,140,141,142,143,144
1069,138,139,140,141,142,143,144,145,146,147
1070,142,143,144,145,146,147,148,149,150,151
1071,147,148,149,150,151,152,153,154,155,156
1072,153,154,155,156,157,158,159,160,161,162
1073,158,159,160,161,162,163,164,165,166,167
1074,163,164,165,166,167,168,169,170,171,172
1075,171,172,173,174,175,176,177,178,179,180
1076,180,181,182,183,184,185,186,187,188,189
1077,191,192,193,194,195,196,197,198,199,200
1078,200,201,202,203,204,205,206,207,208,209
1079,206,207,208,209,210,211,212,213,214,215
1080,209,210,211,212,213,214,215,216,217,218
1081,213,214,215,216,217,218,219,220,221,222
1082,216,217,218,219,220,221,222,223,224,225
1083,220,221,222,223,224,225,226,227,228,229
1084,225,226,227,228,229,230,231,232,233,234
1085,229,230,231,232,233,234,235,236,237,238
1086,231,232,233,234,235,236,237,238,239,240
1087,238,239,240,241,242,243,244,245,246,247
1088,241,242,243,244,245,246,247,248,249,250
1089,241,242,243,244,245,246,247,248,249,250
1090,241,242,243,244,245,246,247,248,249,250
1091,241,242,243,244,245,246,247,248,249,250
1092,241,242,243,244,245,246,247,248,249,250
1093,241,242,243,244,245,246,247,248,249,250
1094,241,242,243,244,245,246,247,248,249,250
1095,241,242,243,244,245,246,247,248,249,250
1096,241,242,243,244,245,246,247,248,249,250
1097,241,242,243,244,245,246,247,248,249,250
1098,241,242,243,244,245,246,247,248,249,250
1099,246,247,248,249,250,251,252,253,254,255
1100,248,249,250,251,252,253,254,255,256,257
1101,250,251,252,253,254,255,256,257,275,276
1102,251,252,253,254,255,256,257,275,276,277
1103,275,276,277,278,279,280,281,282,283,284
1104,280,281,282,283,284,285,286,304,305,306
1105,308,309,310,311,312,313,314,315,316,317
1106,318,319,320,321,322,323,324,325,326,327
1107,327,328,329,330,331,332,333,334,335,336
1108,333,334,335,336,337,338,339,340,341,342
1109,335,336,337,338,339,340,341,342,343,344
1110,337,338,339,340,341,342,343,344,402,403
1111,343,344,402,403,404,405,406,407,408,409
1112,404,405,406,407,408,409,410,411,412,413
1113,404,405,406,407,408,409,410,411,412,413
1114,404,405,406,407,408,409,410,411,412,413
1115,404,405,406,407,408,409,410,411,412,413
1116,404,405,406,407,408,409,410,411,412,413
1117,404,405,406,407,408,409,410,411,412,413
1118,404,405,406,407,408,409,410,411,412,413
1119,404,405,406,407,408,409,410,411,412,413
1120,404,405,406,407,408,409,410,411,412,413
1121,404,405,406,407,408,409,410,411,412,413
1122,404,405,406,407,408,409,410,411,412,413
1123,405,406,407,408,409,410,411,412,413,414
1124,406,407,408,409,410,411,412,413,414,415
1125,406,407,408,409,410,411,412,413,414,415
1126,408,409,410,411,412,413,414,415,416,417
1127,414,415,416,417,418,419,420,421,422,423
1128,414,415,416,417,418,419,420,421,422,423
1129,414,415,416,417,418,419,420,421,422,423
1130,414,415,416,417,418,419,420,421,422,423
1131,414,415,416,417,418,419,420,421,422,423
1132,414,415,416,417,418,419,420,421,422,423
1133,414,415,416,417,418,419,420,421,422,423
1134,414,415,416,417,418,419,420,421,422,423
1135,414,415,416,417,418,419,420,421,422,423
1136,414,415,416,417,418,419,420,421,422,423
1137,414,415,416,417,418,419,420,421,422,423
1138,415,416,417,418,419,420,421,422,423,424
1139,417,418,419,420,421,422,423,424,444,445
1140,423,424,444,445,446,447,448,449,450,451
1141,451,452,453,454,455,456,457,458,459,460
1142,459,460,461,462,463,464,465,466,467,468
1143,466,467,468,469,470,471,472,473,474,475
1144,475,476,477,478,479,480,481,482,483,484
1145,484,485,486,487,488,489,490,491,492,493
1146,493,494,495,496,497,498,499,500,501,502
1147,503,504,505,506,507,508,509,510,511,512
1148,508,509,510,511,512,513,514,515,516,517
1149,514,515,516,517,546,547,548,549,550,551
1150,552,553,554,555,556,557,558,559,560,561
1151,560,561,562,563,564,565,566,567,568,569
1152,564,565,566,567,568,569,570,571,572,573
1153,568,569,570,571,572,573,574,575,576,577
1154,573,574,575,576,577,578,579,580,581,582
1155,576,577,578,579,580,581,582,583,584,585
1156,580,581,582,583,584,585,586,587,588,589
1157,581,582,583,584,585,586,587,588,589,590
1158,581,582,583,584,585,586,587,588,589,590
1159,587,588,589,590,610,611,612,613,614,615
1160,612,613,614,615,616,617,618,619,620,621
1161,617,618,619,620,621,622,623,624,625,626
1162,623,624,625,626,627,628,629,630,631,632
1163,632,633,634,635,636,637,638,639,640,641
1164,637,638,639,640,641,642,643,644,645,646
1165,642,643,644,645,646,647,648,649,650,651
1166,646,647,648,649,650,651,652,653,654,655
1167,650,651,652,653,654,655,656,657,658,659
1168,654,655,656,657,658,659,660,661,662,663
1169,659,660,661,662,663,664,665,666,667,668
1170,663,664,665,666,667,668,669,670,671,672
1171,665,666,667,668,669,670,671,672,1,2
1172,671,672,1,2,3,4,5,6,7,8
1173,5,6,7,8,9,10,11,12,13,14
1174,11,12,13,14,15,16,17,18,19,20
1175,18,19,20,21,22,23,24,25,26,27
1176,26,27,28,29,30,31,32,33,34,35
1177,36,37,38,39,40,41,42,43,44,45
1178,39,40,41,42,43,44,45,46,47,90
1179,45,46,47,90,91,92,93,94,95,96
1180,94,95,96,97,98,99,100,101,102,103
1181,102,103,104,105,106,107,108,109,110,111
1182,107,108,109,110,111,112,113,114,115,116
1183,112,113,114,115,116,117,118,119,120,121
1184,117,118,119,120,121,122,123,124,125,126
1185,119,120,121,122,123,124,125,126,127,128
1186,119,120,121,122,123,124,125,126,127,128
1187,124,125,126,127,128,148,149,150,151,152
1188,150,151,152,153,154,155,156,157,158,159
1189,156,157,158,159,160,161,162,163,164,165
1190,161,162,163,164,165,166,167,168,169,170
1191,168,169,170,171,172,173,174,175,176,177
1192,177,178,179,180,181,182,183,184,185,186
1193,187,188,189,190,191,192,193,194,195,196
1194,197,198,199,200,201,202,203,204,205,206
1195,204,205,206,207,208,209,210,211,212,213
1196,208,209,210,211,212,213,214,215,216,217
1197,211,212,213,214,215,216,217,218,219,220
1198,214,215,216,217,218,219,220,221,222,223
1199,217,218,219,220,221,222,223,224,225,226
1200,221,222,223,224,225,226,227,228,229,230
1201,226,227,228,229,230,231,232,233,234,235
1202,229,230,231,232,233,234,235,236,237,238
1203,232,233,234,235,236,237,238,258,259,260
1204,237,238,258,259,260,261,262,263,264,265
1205,260,261,262,263,264,265,266,267,268,269
1206,263,264,265,266,267,268,269,270,271,272
1207,265,266,267,268,269,270,271,272,273,274
1208,265,266,267,268,269,270,271,272,273,274
1209,266,267,268,269,270,271,272,273,274,275
1210,272,273,274,275,276,277,278,279,280,281
1211,277,278,279,280,281,282,283,284,285,286
1212,282,283,284,285,286,287,288,289,290,291
1213,284,285,286,287,288,289,290,291,292,293
1214,289,290,291,292,293,294,295,296,297,298
1215,297,298,299,300,301,302,303,673,674,675
1216,675,676,677,678,679,680,681,682,683,684
1217,681,682,683,684,685,686,687,688,689,690
1218,690,691,692,693,694,695,696,697,698,699
1219,696,697,698,699,700,701,702,703,704,705
1220,703,704,705,362,363,364,365,366,367,368
1221,363,364,365,366,367,368,369,370,371,372
1222,363,364,365,366,367,368,369,370,371,372
1223,363,364,365,366,367,368,369,370,371,372
1224,363,364,365,366,367,368,369,370,371,372
1225,363,364,365,366,367,368,369,370,371,372
1226,363,364,365,366,367,368,369,370,371,372
1227,363,364,365,366,367,368,369,370,371,372
1228,363,364,365,366,367,368,369,370,371,372
1229,363,364,365,366,367,368,369,370,371,372
1230,363,364,365,366,367,368,369,370,371,372
1231,363,364,365,366,367,368,369,370,371,372
1232,364,365,366,367,368,369,370,371,372,373
1233,369,370,371,372,373,374,375,376,377,378
1234,371,372,373,374,375,376,377,378,379,380
1235,373,374,375,376,377,378,379,380,425,426
1236,378,379,380,425,426,427,428,429,430,431
1237,425,426,427,428,429,430,431,432,433,434
1238,427,428,429,430,431,432,433,434,435,436
1239,430,431,432,433,434,435,436,437,438,439
1240,432,433,434,435,436,437,438,439,440,441
1241,434,435,436,437,438,439,440,441,442,443
1242,434,435,436,437,438,439,440,441,442,443
1243,434,435,436,437,438,439,440,441,442,443
1244,434,435,436,437,438,439,440,441,442,443
1245,438,439,440,441,442,443,518,519,520,521
1246,443,518,519,520,521,522,523,524,525,526
1247,524,525,526,527,528,529,530,531,532,533
1248,532,533,534,535,536,537,538,539,540,541
1249,536,537,538,539,540,541,542,543,544,545
1250,537,538,539,540,541,542,543,544,545,546
1251,540,541,542,543,544,545,546,547,548,549
1252,547,548,549,550,551,552,553,554,555,556
1253,557,558,559,560,561,562,563,564,565,566
1254,563,564,565,566,567,568,569,570,571,572
1255,564,565,566,567,568,569,570,571,572,573
1256,569,570,571,572,573,574,575,576,577,578
1257,573,574,575,576,577,578,579,580,581,582
1258,576,577,578,579,580,581,582,583,584,585
1259,579,580,581,582,583,584,585,586,587,588
1260,581,582,583,584,585,586,587,588,589,590
1261,581,582,583,584,585,586,587,588,589,590
1262,583,584,585,586,587,588,589,590,610,611
1263,589,590,610,611,612,613,614,615,616,617
1264,613,614,615,616,617,618,619,620,621,622
1265,618,619,620,621,622,623,624,625,626,627
1266,624,625,626,627,628,629,630,631,632,633
1267,632,633,634,635,636,637,638,639,640,641
1268,638,639,640,641,642,643,644,645,646,647
1269,642,643,644,645,646,647,648,649,650,651
1270,645,646,647,648,649,650,651,652,653,654
1271,649,650,651,652,653,654,655,656,657,658
1272,654,655,656,657,658,659,660,661,662,663
1273,658,659,660,661,662,663,664,665,666,667
1274,663,664,665,666,667,668,669,670,671,672
1275,663,664,665,666,667,668,669,670,671,672
1276,668,669,670,671,672,1,2,3,4,5
1277,3,4,5,6,7,8,9,10,11,12
1278,9,10,11,12,13,14,15,16,17,18
1279,14,15,16,17,18,19,20,21,22,23
1280,21,22,23,24,25,26,27,28,29,30
1281,30,31,32,33,34,35,36,37,38,39
1282,38,39,40,41,42,43,44,45,46,47
1283,42,43,44,45,46,47,90,91,92,93
1284,47,90,91,92,93,94,95,96,97,98
1285,97,98,99,100,101,102,103,104,105,106
1286,102,103,104,105,106,107,108,109,110,111
1287,110,111,129,130,131,132,133,134,135,136
1288,131,132,133,134,135,136,137,138,139,140
1289,131,132,133,134,135,136,137,138,139,140
1290,131,132,133,134,135,136,137,138,139,140
1291,131,132,133,134,135,136,137,138,139,140
1292,131,132,133,134,135,136,137,138,139,140
1293,131,132,133,134,135,136,137,138,139,140
1294,131,132,133,134,135,136,137,138,139,140
1295,131,132,133,134,135,136,137,138,139,140
1296,131,132,133,134,135,136,137,138,139,140
1297,131,132,133,134,135,136,137,138,139,140
1298,131,132,133,134,135,136,137,138,139,140
1299,135,136,137,138,139,140,141,142,143,144
1300,138,139,140,141,142,143,144,145,146,147
1301,141,142,143,144,145,146,147,148,149,150
1302,146,147,148,149,150,151,152,153,154,155
1303,153,154,155,156,157,158,159,160,161,162
1304,158,159,160,161,162,163,164,165,166,167
1305,163,164,165,166,167,168,169,170,171,172
1306,170,171,172,173,174,175,176,177,178,179
1307,180,181,182,183,184,185,186,187,188,189
1308,190,191,192,193,194,195,196,197,198,199
1309,199,200,201,202,203,204,205,206,207,208
1310,205,206,207,208,209,210,211,212,213,214
1311,208,209,210,211,212,213,214,215,216,217
1312,211,212,213,214,215,216,217,218,219,220
1313,215,216,217,218,219,220,221,222,223,224
1314,218,219,220,221,222,223,224,225,226,227
1315,222,223,224,225,226,227,228,229,230,231
1316,227,228,229,230,231,232,233,234,235,236
1317,229,230,231,232,233,234,235,236,237,238
1318,233,234,235,236,237,238,239,240,241,242
1319,240,241,242,243,244,245,246,247,248,249
1320,241,242,243,244,245,246,247,248,249,250
1321,241,242,243,244,245,246,247,248,249,250
1322,241,242,243,244,245,246,247,248,249,250
1323,241,242,243,244,245,246,247,248,249,250
1324,241,242,243,244,245,246,247,248,249,250
1325,241,242,243,244,245,246,247,248,249,250
1326,241,242,243,244,245,246,247,248,249,250
1327,241,242,243,244,245,246,247,248,249,250
1328,241,242,243,244,245,246,247,248,249,250
1329,241,242,243,244,245,246,247,248,249,250
1330,241,242,243,244,245,246,247,248,249,250
1331,241,242,243,244,245,246,247,248,249,250
1332,241,242,243,244,245,246,247,248,249,250
1333,241,242,243,244,245,246,247,248,249,250
1334,241,242,243,244,245,246,247,248,249,250
1335,242,243,244,245,246,247,248,249,250,251
1336,247,248,249,250,251,252,253,254,255,256
1337,248,249,250,251,252,253,254,255,256,257
1338,251,252,253,254,255,256,257,275,276,277
1339,257,275,276,277,278,279,280,281,282,283
1340,278,279,280,281,282,283,284,285,286,304
1341,305,306,307,308,309,310,311,312,313,314
1342,315,316,317,318,319,320,321,322,323,324
1343,324,325,326,327,328,329,330,331,332,333
1344,331,332,333,334,335,336,337,338,339,340
1345,335,336,337,338,339,340,341,342,343,344
1346,335,336,337,338,339,340,341,342,343,344
1347,339,340,341,342,343,344,381,382,383,384
1348,342,343,344,381,382,383,384,385,386,387
1349,381,382,383,384,385,386,387,388,389,390
1350,384,385,386,387,388,389,390,391,392,393
1351,388,389,390,391,392,393,394,395,396,397
1352,392,393,394,395,396,397,398,399,400,401
1353,392,393,394,395,396,397,398,399,400,401
1354,396,397,398,399,400,401,444,445,446,447
1355,445,446,447,448,449,450,451,452,453,454
1356,453,454,455,456,457,458,459,460,461,462
1357,461,462,463,464,465,466,467,468,469,470
1358,468,469,470,471,472,473,474,475,476,477
1359,476,477,478,479,480,481,482,483,484,485
1360,485,486,487,488,489,490,491,492,493,494
1361,494,495,496,497,498,499,500,501,502,503
1362,503,504,505,506,507,508,509,510,511,512
1363,508,509,510,511,512,513,514,515,516,517
1364,514,515,516,517,546,547,548,549,550,551
1365,552,553,554,555,556,557,558,559,560,561
1366,560,561,562,563,564,565,566,567,568,569
1367,564,565,566,567,568,569,570,571,572,573
1368,567,568,569,570,571,572,573,591,592,593
1369,573,591,592,593,594,595,596,597,598,599
1370,593,594,595,596,597,598,599,600,601,602
1371,593,594,595,596,597,598,599,600,601,602
1372,593,594,595,596,597,598,599,600,601,602
1373,593,594,595,596,597,598,599,600,601,602
1374,593,594,595,596,597,598,599,600,601,602
1375,593,594,595,596,597,598,599,600,601,602
1376,593,594,595,596,597,598,599,600,601,602
1377,593,594,595,596,597,598,599,600,601,602
1378,593,594,595,596,597,598,599,600,601,602
1379,593,594,595,596,597,598,599,600,601,602
1380,593,594,595,596,597,598,599,600,601,602
1381,593,594,595,596,597,598,599,600,601,602
1382,593,594,595,596,597,598,599,600,601,602
1383,593,594,595,596,597,598,599,600,601,602
1384,593,594,595,596,597,598,599,600,601,602
1385,593,594,595,596,597,598,599,600,601,602
1386,594,595,596,597,598,599,600,601,602,603
1387,596,597,598,599,600,601,602,603,604,605
1388,596,597,598,599,600,601,602,603,604,605
1389,596,597,598,599,600,601,602,603,604,605
1390,596,597,598,599,600,601,602,603,604,605
1391,596,597,598,599,600,601,602,603,604,605
1392,596,597,598,599,600,601,602,603,604,605
1393,596,597,598,599,600,601,602,603,604,605
1394,596,597,598,599,600,601,602,603,604,605
1395,596,597,598,599,600,601,602,603,604,605
1396,596,597,598,599,600,601,602,603,604,605
1397,596,597,598,599,600,601,602,603,604,605
1398,600,601,602,603,604,605,606,607,608,609
1399,603,604,605,606,607,608,609,610,611,612
1400,607,608,609,610,611,612,613,614,615,616
1401,612,613,614,615,616,617,618,619,620,621
1402,618,619,620,621,622,623,624,625,626,627
1403,624,625,626,627,628,629,630,631,632,633
1404,632,633,634,635,636,637,638,639,640,641
1405,638,639,640,641,642,643,644,645,646,647
1406,641,642,643,644,645,646,647,648,649,650
1407,645,646,647,648,649,650,651,652,653,654
1408,649,650,651,652,653,654,655,656,657,658
1409,653,654,655,656,657,658,659,660,661,662
1410,657,658,659,660,661,662,663,664,665,666
1411,662,663,664,665,666,667,668,669,670,671
1412,663,664,665,666,667,668,669,670,671,672
1413,667,668,669,670,671,672,1,2,3,4
1414,2,3,4,5,6,7,8,9,10,11
1415,8,9,10,11,12,13,14,15,16,17
1416,13,14,15,16,17,18,19,20,21,22
1417,20,21,22,23,24,25,26,27,28,29
1418,29,30,31,32,33,34,35,36,37,38
1419,38,39,40,41,42,43,44,45,46,47
1420,41,42,43,44,45,46,47,90,91,92
1421,91,92,93,94,95,96,97,98,99,100
1422,100,101,102,103,104,105,106,107,108,109
1423,105,106,107,108,109,110,111,112,113,114
1424,111,112,113,114,115,116,117,118,119,120
1425,115,116,117,118,119,120,121,122,123,124
1426,119,120,121,122,123,124,125,126,127,128
1427,119,120,121,122,123,124,125,126,127,128
1428,120,121,122,123,124,125,126,127,128,148
1429,125,126,127,128,148,149,150,151,152,153
1430,152,153,154,155,156,157,158,159,160,161
1431,157,158,159,160,161,162,163,164,165,166
1432,161,162,163,164,165,166,167,168,169,170
1433,167,168,169,170,171,172,173,174,175,176
1434,176,177,178,179,180,181,182,183,184,185
1435,186,187,188,189,190,191,192,193,194,195
1436,195,196,197,198,199,200,201,202,203,204
1437,203,204,205,206,207,208,209,210,211,212
1438,206,207,208,209,210,211,212,213,214,215
1439,209,210,211,212,213,214,215,216,217,218
1440,212,213,214,215,216,217,218,219,220,221
1441,215,216,217,218,219,220,221,222,223,224
1442,218,219,220,221,222,223,224,225,226,227
1443,222,223,224,225,226,227,228,229,230,231
1444,226,227,228,229,230,231,232,233,234,235
1445,229,230,231,232,233,234,235,236,237,238
1446,232,233,234,235,236,237,238,258,259,260
1447,237,238,258,259,260,261,262,263,264,265
1448,259,260,261,262,263,264,265,266,267,268
1449,259,260,261,262,263,264,265,266,267,268
1450,259,260,261,262,263,264,265,266,267,268
1451,259,260,261,262,263,264,265,266,267,268
1452,259,260,261,262,263,264,265,266,267,268
1453,259,260,261,262,263,264,265,266,267,268
1454,259,260,261,262,263,264,265,266,267,268
1455,259,260,261,262,263,264,265,266,267,268
1456,259,260,261,262,263,264,265,266,267,268
1457,259,260,261,262,263,264,265,266,267,268
1458,259,260,261,262,263,264,265,266,267,268
1459,263,264,265,266,267,268,269,270,271,272
1460,265,266,267,268,269,270,271,272,273,274
1461,270,271,272,273,274,275,276,277,278,279
1462,277,278,279,280,281,282,283,284,285,286
1463,285,286,304,305,306,307,308,309,310,311
1464,312,313,314,315,316,317,318,319,320,321
1465,321,322,323,324,325,326,327,328,329,330
1466,329,330,331,332,333,334,335,336,337,338
1467,334,335,336,337,338,339,340,341,342,343
1468,335,336,337,338,339,340,341,342,343,344
1469,337,338,339,340,341,342,343,344,402,403
1470,342,343,344,402,403,404,405,406,407,408
1471,403,404,405,406,407,408,409,410,411,412
1472,403,404,405,406,407,408,409,410,411,412
1473,403,404,405,406,407,408,409,410,411,412
1474,403,404,405,406,407,408,409,410,411,412
1475,403,404,405,406,407,408,409,410,411,412
1476,403,404,405,406,407,408,409,410,411,412
1477,403,404,405,406,407,408,409,410,411,412
1478,403,404,405,406,407,408,409,410,411,412
1479,403,404,405,406,407,408,409,410,411,412
1480,403,404,405,406,407,408,409,410,411,412
1481,403,404,405,406,407,408,409,410,411,412
1482,406,407,408,409,410,411,412,413,414,415
1483,415,416,417,418,419,420,421,422,423,424
1484,418,419,420,421,422,423,424,444,445,446
1485,423,424,444,445,446,447,448,449,450,451
1486,450,451,452,453,454,455,456,457,458,459
1487,458,459,460,461,462,463,464,465,466,467
1488,465,466,467,468,469,470,471,472,473,474
1489,474,475,476,477,478,479,480,481,482,483
1490,482,483,484,485,486,487,488,489,490,491
1491,491,492,493,494,495,496,497,498,499,500
1492,500,501,502,503,504,505,506,507,508,509
1493,508,509,510,511,512,513,514,515,516,517
1494,511,512,513,514,515,516,517,546,547,548
1495,548,549,550,551,552,553,554,555,556,557
1496,557,558,559,560,561,562,563,564,565,566
1497,564,565,566,567,568,569,570,571,572,573
1498,564,565,566,567,568,569,570,571,572,573
1499,570,571,572,573,591,592,593,594,595,596
1500,593,594,595,596,597,598,599,600,601,602
1501,593,594,595,596,597,598,599,600,601,602
1502,593,594,595,596,597,598,599,600,601,602
1503,593,594,595,596,597,598,599,600,601,602
1504,593,594,595,596,597,598,599,600,601,602
1505,593,594,595,596,597,598,599,600,601,602
1506,593,594,595,596,597,598,599,600,601,602
1507,593,594,595,596,597,598,599,600,601,602
1508,593,594,595,596,597,598,599,600,601,602
1509,593,594,595,596,597,598,599,600,601,602
1510,593,594,595,596,597,598,599,600,601,602
1511,593,594,595,596,597,598,599,600,601,602
1512,593,594,595,596,597,598,599,600,601,602
1513,593,594,595,596,597,598,599,600,601,602
1514,593,594,595,596,597,598,599,600,601,602
1515,593,594,595,596,597,598,599,600,601,602
1516,593,594,595,596,597,598,599,600,601,602
1517,593,594,595,596,597,598,599,600,601,602
1518,593,594,595,596,597,598,599,600,601,602
1519,593,594,595,596,597,598,599,600,601,602
1520,593,594,595,596,597,598,599,600,601,602
1521,593,594,595,596,597,598,599,600,601,602
1522,593,594,595,596,597,598,599,600,601,602
1523,593,594,595,596,597,598,599,600,601,602
1524,593,594,595,596,597,598,599,600,601,602
1525,593,594,595,596,597,598,599,600,601,602
1526,594,595,596,597,598,599,600,601,602,603
1527,600,601,602,603,604,605,606,607,608,609
1528,602,603,604,605,606,607,608,609,610,611
1529,604,605,606,607,608,609,610,611,612,613
1530,604,605,606,607,608,609,610,611,612,613
1531,604,605,606,607,608,609,610,611,612,613
1532,604,605,606,607,608,609,610,611,612,613
1533,604,605,606,607,608,609,610,611,612,613
1534,604,605,606,607,608,609,610,611,612,613
1535,604,605,606,607,608,609,610,611,612,613
1536,604,605,606,607,608,609,610,611,612,613
1537,604,605,606,607,608,609,610,611,612,613
1538,604,605,606,607,608,609,610,611,612,613
1539,604,605,606,607,608,609,610,611,612,613
1540,607,608,609,610,611,612,613,614,615,616
1541,612,613,614,615,616,617,618,619,620,621
1542,617,618,619,620,621,622,623,624,625,626
1543,622,623,624,625,626,627,628,629,630,631
1544,630,631,632,633,634,635,636,637,638,639
1545,636,637,638,639,640,641,642,643,644,645
1546,640,641,642,643,644,645,646,647,648,649
1547,644,645,646,647,648,649,650,651,652,653
1548,648,649,650,651,652,653,654,655,656,657
1549,652,653,654,655,656,657,658,659,660,661
1550,657,658,659,660,661,662,663,664,665,666
1551,662,663,664,665,666,667,668,669,670,671
1552,663,664,665,666,667,668,669,670,671,672
1553,667,668,669,670,671,672,1,2,3,4
1554,2,3,4,5,6,7,8,9,10,11
1555,8,9,10,11,12,13,14,15,16,17
1556,14,15,16,17,18,19,20,21,22,23
1557,20,21,22,23,24,25,26,27,28,29
1558,29,30,31,32,33,34,35,36,37,38
1559,38,39,40,41,42,43,44,45,46,47
1560,42,43,44,45,46,47,90,91,92,93
1561,92,93,94,95,96,97,98,99,100,101
1562,101,102,103,104,105,106,107,108,109,110
1563,105,106,107,108,109,110,111,112,113,114
1564,111,112,113,114,115,116,117,118,119,120
1565,116,117,118,119,120,121,122,123,124,125
1566,119,120,121,122,123,124,125,126,127,128
1567,119,120,121,122,123,124,125,126,127,128
1568,122,123,124,125,126,127,128,148,149,150
1569,148,149,150,151,152,153,154,155,156,157
1570,155,156,157,158,159,160,161,162,163,164
1571,159,160,161,162,163,164,165,166,167,168
1572,165,166,167,168,169,170,171,172,173,174
1573,173,174,175,176,177,178,179,180,181,182
1574,183,184,185,186,187,188,189,190,191,192
1575,193,194,195,196,197,198,199,200,201,202
1576,202,203,204,205,206,207,208,209,210,211
1577,206,207,208,209,210,211,212,213,214,215
1578,209,210,211,212,213,214,215,216,217,218
1579,212,213,214,215,216,217,218,219,220,221
1580,215,216,217,218,219,220,221,222,223,224
1581,219,220,221,222,223,224,225,226,227,228
1582,223,224,225,226,227,228,229,230,231,232
1583,228,229,230,231,232,233,234,235,236,237
1584,229,230,231,232,233,234,235,236,237,238
1585,234,235,236,237,238,258,259,260,261,262
1586,238,258,259,260,261,262,263,264,265,266
1587,261,262,263,264,265,266,267,268,269,270
1588,263,264,265,266,267,268,269,270,271,272
1589,265,266,267,268,269,270,271,272,273,274
1590,265,266,267,268,269,270,271,272,273,274
1591,265,266,267,268,269,270,271,272,273,274
1592,269,270,271,272,273,274,275,276,277,278
1593,277,278,279,280,281,282,283,284,285,286
1594,280,281,282,283,284,285,286,287,288,289
1595,283,284,285,286,287,288,289,290,291,292
1596,288,289,290,291,292,293,294,295,296,297
1597,293,294,295,296,297,298,299,300,301,302
1598,303,673,674,675,676,677,678,679,680,681
1599,679,680,681,682,683,684,685,686,687,688
1600,686,687,688,689,690,691,692,693,694,695
1601,696,697,698,699,700,701,702,703,704,705
1602,698,699,700,701,702,703,704,705,362,363
1603,705,362,363,364,365,366,367,368,369,370
1604,363,364,365,366,367,368,369,370,371,372
1605,363,364,365,366,367,368,369,370,371,372
1606,363,364,365,366,367,368,369,370,371,372
1607,363,364,365,366,367,368,369,370,371,372
1608,363,364,365,366,367,368,369,370,371,372
1609,363,364,365,366,367,368,369,370,371,372
1610,363,364,365,366,367,368,369,370,371,372
1611,363,364,365,366,367,368,369,370,371,372
1612,363,364,365,366,367,368,369,370,371,372
1613,363,364,365,366,367,368,369,370,371,372
1614,363,364,365,366,367,368,369,370,371,372
1615,364,365,366,367,368,369,370,371,372,373
1616,370,371,372,373,374,375,376,377,378,379
1617,371,372,373,374,375,376,377,378,379,380
1618,374,375,376,377,378,379,380,425,426,427
1619,376,377,378,379,380,425,426,427,428,429
1620,425,426,427,428,429,430,431,432,433,434
1621,430,431,432,433,434,435,436,437,438,439
1622,432,433,434,435,436,437,438,439,440,441
1623,434,435,436,437,438,439,440,441,442,443
1624,434,435,436,437,438,439,440,441,442,443
1625,434,435,436,437,438,439,440,441,442,443
1626,435,436,437,438,439,440,441,442,443,518
1627,441,442,443,518,519,520,521,522,523,524
1628,520,521,522,523,524,525,526,527,528,529
1629,526,527,528,529,530,531,532,533,534,535
1630,534,535,536,537,538,539,540,541,542,543
1631,536,537,538,539,540,541,542,543,544,545
1632,537,538,539,540,541,542,543,544,545,546
1633,540,541,542,543,544,545,546,547,548,549
1634,549,550,551,552,553,554,555,556,557,558
1635,557,558,559,560,561,562,563,564,565,566
1636,564,565,566,567,568,569,570,571,572,573
1637,564,565,566,567,568,569,570,571,572,573
1638,569,570,571,572,573,574,575,576,577,578
1639,573,574,575,576,577,578,579,580,581,582
1640,576,577,578,579,580,581,582,583,584,585
1641,579,580,581,582,583,584,585,586,587,588
1642,581,582,583,584,585,586,587,588,589,590
1643,581,582,583,584,585,586,587,588,589,590
1644,582,583,584,585,586,587,588,589,590,610
1645,583,584,585,586,587,588,589,590,610,611
1646,587,588,589,590,610,611,612,613,614,615
1647,610,611,612,613,614,615,616,617,618,619
1648,615,616,617,618,619,620,621,622,623,624
1649,620,621,622,623,624,625,626,627,628,629
1650,627,628,629,630,631,632,633,634,635,636
1651,634,635,636,637,638,639,640,641,642,643
1652,639,640,641,642,643,644,645,646,647,648
1653,642,643,644,645,646,647,648,649,650,651
1654,646,647,648,649,650,651,652,653,654,655
1655,650,651,652,653,654,655,656,657,658,659
1656,654,655,656,657,658,659,660,661,662,663
1657,658,659,660,661,662,663,664,665,666,667
1658,663,664,665,666,667,668,669,670,671,672
1659,663,664,665,666,667,668,669,670,671,672
1660,668,669,670,671,672,1,2,3,4,5
1661,3,4,5,6,7,8,9,10,11,12
1662,9,10,11,12,13,14,15,16,17,18
1663,15,16,17,18,19,20,21,22,23,24
1664,22,23,24,25,26,27,28,29,30,31
1665,31,32,33,34,35,36,37,38,39,40
1666,38,39,40,41,42,43,44,45,46,47
1667,43,44,45,46,47,90,91,92,93,94
1668,91,92,93,94,95,96,97,98,99,100
1669,99,100,101,102,103,104,105,106,107,108
1670,104,105,106,107,108,109,110,111,112,113
1671,110,111,112,113,114,115,116,117,118,119
1672,115,116,117,118,119,120,121,122,123,124
1673,118,119,120,121,122,123,124,125,126,127
1674,119,120,121,122,123,124,125,126,127,128
1675,120,121,122,123,124,125,126,127,128,148
1676,126,127,128,148,149,150,151,152,153,154
1677,152,153,154,155,156,157,158,159,160,161
1678,157,158,159,160,161,162,163,164,165,166
1679,162,163,164,165,166,167,168,169,170,171
1680,168,169,170,171,172,173,174,175,176,177
1681,177,178,179,180,181,182,183,184,185,186
1682,187,188,189,190,191,192,193,194,195,196
1683,196,197,198,199,200,201,202,203,204,205
1684,203,204,205,206,207,208,209,210,211,212
1685,207,208,209,210,211,212,213,214,215,216
1686,210,211,212,213,214,215,216,217,218,219
1687,213,214,215,216,217,218,219,220,221,222
1688,216,217,218,219,220,221,222,223,224,225
1689,220,221,222,223,224,225,226,227,228,229
1690,223,224,225,226,227,228,229,230,231,232
1691,228,229,230,231,232,233,234,235,236,237
1692,229,230,231,232,233,234,235,236,237,238
1693,234,235,236,237,238,258,259,260,261,262
1694,238,258,259,260,261,262,263,264,265,266
1695,260,261,262,263,264,265,266,267,268,269
1696,263,264,265,266,267,268,269,270,271,272
1697,265,266,267,268,269,270,271,272,273,274
1698,265,266,267,268,269,270,271,272,273,274
1699,266,267,268,269,270,271,272,273,274,275
1700,273,274,275,276,277,278,279,280,281,282
1701,278,279,280,281,282,283,284,285,286,304
1702,305,306,307,308,309,310,311,312,313,314
1703,314,315,316,317,318,319,320,321,322,323
1704,324,325,326,327,328,329,330,331,332,333
1705,331,332,333,334,335,336,337,338,339,340
1706,335,336,337,338,339,340,341,342,343,344
1707,335,336,337,338,339,340,341,342,343,344
1708,338,339,340,341,342,343,344,402,403,404
1709,343,344,402,403,404,405,406,407,408,409
1710,403,404,405,406,407,408,409,410,411,412
1711,403,404,405,406,407,408,409,410,411,412
1712,403,404,405,406,407,408,409,410,411,412
1713,403,404,405,406,407,408,409,410,411,412
1714,403,404,405,406,407,408,409,410,411,412
1715,403,404,405,406,407,408,409,410,411,412
1716,403,404,405,406,407,408,409,410,411,412
1717,403,404,405,406,407,408,409,410,411,412
1718,403,404,405,406,407,408,409,410,411,412
1719,403,404,405,406,407,408,409,410,411,412
1720,403,404,405,406,407,408,409,410,411,412
1721,406,407,408,409,410,411,412,413,414,415
1722,415,416,417,418,419,420,421,422,423,424
1723,417,418,419,420,421,422,423,424,444,445
1724,423,424,444,445,446,447,448,449,450,451
1725,449,450,451,452,453,454,455,456,457,458
1726,457,458,459,460,461,462,463,464,465,466
1727,464,465,466,467,468,469,470,471,472,473
1728,472,473,474,475,476,477,478,479,480,481
1729,481,482,483,484,485,486,487,488,489,490
1730,489,490,491,492,493,494,495,496,497,498
1731,498,499,500,501,502,503,504,505,506,507
1732,507,508,509,510,511,512,513,514,515,516
1733,509,510,511,512,513,514,515,516,517,546
1734,546,547,548,549,550,551,552,553,554,555
1735,556,557,558,559,560,561,562,563,564,565
1736,563,564,565,566,567,568,569,570,571,572
1737,564,565,566,567,568,569,570,571,572,573
1738,569,570,571,572,573,591,592,593,594,595
1739,592,593,594,595,596,597,598,599,600,601
1740,592,593,594,595,596,597,598,599,600,601
1741,592,593,594,595,596,597,598,599,600,601
1742,592,593,594,595,596,597,598,599,600,601
1743,592,593,594,595,596,597,598,599,600,601
1744,592,593,594,595,596,597,598,599,600,601
1745,592,593,594,595,596,597,598,599,600,601
1746,592,593,594,595,596,597,598,599,600,601
1747,592,593,594,595,596,597,598,599,600,601
1748,592,593,594,595,596,597,598,599,600,601
1749,592,593,594,595,596,597,598,599,600,601
1750,594,595,596,597,598,599,600,601,602,603
1751,600,601,602,603,604,605,606,607,608,609
1752,602,603,604,605,606,607,608,609,610,611
1753,606,607,608,609,610,611,612,613,614,615
1754,611,612,613,614,615,616,617,618,619,620
1755,617,618,619,620,621,622,623,624,625,626
1756,622,623,624,625,626,627,628,629,630,631
1757,630,631,632,633,634,635,636,637,638,639
1758,637,638,639,640,641,642,643,644,645,646
1759,641,642,643,644,645,646,647,648,649,650
1760,645,646,647,648,649,650,651,652,653,654
1761,649,650,651,652,653,654,655,656,657,658
1762,653,654,655,656,657,658,659,660,661,662
1763,657,658,659,660,661,662,663,664,665,666
1764,662,663,664,665,666,667,668,669,670,671
1765,663,664,665,666,667,668,669,670,671,672
1766,667,668,669,670,671,672,1,2,3,4
1767,2,3,4,5,6,7,8,9,10,11
1768,8,9,10,11,12,13,14,15,16,17
1769,13,14,15,16,17,18,19,20,21,22
1770,20,21,22,23,24,25,26,27,28,29
1771,28,29,30,31,32,33,34,35,36,37
1772,38,39,40,41,42,43,44,45,46,47
1773,40,41,42,43,44,45,46,47,90,91
1774,90,91,92,93,94,95,96,97,98,99
1775,99,100,101,102,103,104,105,106,107,108
1776,103,104,105,106,107,108,109,110,111,112
1777,110,111,112,113,114,115,116,117,118,119
1778,114,115,116,117,118,119,120,121,122,123
1779,118,119,120,121,122,123,124,125,126,127
1780,119,120,121,122,123,124,125,126,127,128
1781,119,120,121,122,123,124,125,126,127,128
1782,122,123,124,125,126,127,128,148,149,150
1783,148,149,150,151,152,153,154,155,156,157
1784,155,156,157,158,159,160,161,162,163,164
1785,159,160,161,162,163,164,165,166,167,168
1786,164,165,166,167,168,169,170,171,172,173
1787,171,172,173,174,175,176,177,178,179,180
1788,181,182,183,184,185,186,187,188,189,190
1789,191,192,193,194,195,196,197,198,199,200
1790,200,201,202,203,204,205,206,207,208,209
1791,205,206,207,208,209,210,211,212,213,214
1792,208,209,210,211,212,213,214,215,216,217
1793,211,212,213,214,215,216,217,218,219,220
1794,214,215,216,217,218,219,220,221,222,223
1795,217,218,219,220,221,222,223,224,225,226
1796,220,221,222,223,224,225,226,227,228,229
1797,224,225,226,227,228,229,230,231,232,233
1798,228,229,230,231,232,233,234,235,236,237
1799,229,230,231,232,233,234,235,236,237,238
1800,233,234,235,236,237,238,239,240,241,242
1801,239,240,241,242,243,244,245,246,247,248
1802,241,242,243,244,245,246,247,248,249,250
1803,241,242,243,244,245,246,247,248,249,250
1804,241,242,243,244,245,246,247,248,249,250
1805,241,242,243,244,245,246,247,248,249,250
1806,241,242,243,244,245,246,247,248,249,250
1807,241,242,243,244,245,246,247,248,249,250
1808,241,242,243,244,245,246,247,248,249,250
1809,241,242,243,244,245,246,247,248,249,250
1810,241,242,243,244,245,246,247,248,249,250
1811,241,242,243,244,245,246,247,248,249,250
1812,241,242,243,244,245,246,247,248,249,250
1813,241,242,243,244,245,246,247,248,249,250
1814,241,242,243,244,245,246,247,248,249,250
1815,241,242,243,244,245,246,247,248,249,250
1816,241,242,243,244,245,246,247,248,249,250
1817,241,242,243,244,245,246,247,248,249,250
1818,244,245,246,247,248,249,250,251,252,253
1819,244,245,246,247,248,249,250,251,252,253
1820,244,245,246,247,248,249,250,251,252,253
1821,244,245,246,247,248,249,250,251,252,253
1822,244,245,246,247,248,249,250,251,252,253
1823,244,245,246,247,248,249,250,251,252,253
1824,244,245,246,247,248,249,250,251,252,253
1825,244,245,246,247,248,249,250,251,252,253
1826,244,245,246,247,248,249,250,251,252,253
1827,244,245,246,247,248,249,250,251,252,253
1828,244,245,246,247,248,249,250,251,252,253
1829,245,246,247,248,249,250,251,252,253,254
1830,248,249,250,251,252,253,254,255,256,257
1831,249,250,251,252,253,254,255,256,257,275
1832,250,251,252,253,254,255,256,257,275,276
1833,256,257,275,276,277,278,279,280,281,282
1834,278,279,280,281,282,283,284,285,286,304
1835,305,306,307,308,309,310,311,312,313,314
1836,315,316,317,318,319,320,321,322,323,324
1837,323,324,325,326,327,328,329,330,331,332
1838,330,331,332,333,334,335,336,337,338,339
1839,334,335,336,337,338,339,340,341,342,343
1840,335,336,337,338,339,340,341,342,343,344
1841,338,339,340,341,342,343,344,402,403,404
1842,343,344,402,403,404,405,406,407,408,409
1843,403,404,405,406,407,408,409,410,411,412
1844,403,404,405,406,407,408,409,410,411,412
1845,403,404,405,406,407,408,409,410,411,412
1846,403,404,405,406,407,408,409,410,411,412
1847,403,404,405,406,407,408,409,410,411,412
1848,403,404,405,406,407,408,409,410,411,412
1849,403,404,405,406,407,408,409,410,411,412
1850,403,404,405,406,407,408,409,410,411,412
1851,403,404,405,406,407,408,409,410,411,412
1852,403,404,405,406,407,408,409,410,411,412
1853,403,404,405,406,407,408,409,410,411,412
1854,408,409,410,411,412,413,414,415,416,417
1855,415,416,417,418,419,420,421,422,423,424
1856,418,419,420,421,422,423,424,444,445,446
1857,424,444,445,446,447,448,449,450,451,452
1858,451,452,453,454,455,456,457,458,459,460
1859,459,460,461,462,463,464,465,466,467,468
1860,466,467,468,469,470,471,472,473,474,475
1861,474,475,476,477,478,479,480,481,482,483
1862,482,483,484,485,486,487,488,489,490,491
1863,491,492,493,494,495,496,497,498,499,500
1864,500,501,502,503,504,505,506,507,508,509
1865,508,509,510,511,512,513,514,515,516,517
1866,511,512,513,514,515,516,517,546,547,548
1867,547,548,549,550,551,552,553,554,555,556
1868,557,558,559,560,561,562,563,564,565,566
1869,563,564,565,566,567,568,569,570,571,572
1870,564,565,566,567,568,569,570,571,572,573
1871,569,570,571,572,573,574,575,576,577,578
1872,572,573,574,575,576,577,578,579,580,581
1873,575,576,577,578,579,580,581,582,583,584
1874,578,579,580,581,582,583,584,585,586,587
1875,581,582,583,584,585,586,587,588,589,590
1876,581,582,583,584,585,586,587,588,589,590
1877,582,583,584,585,586,587,588,589,590,610
1878,588,589,590,610,611,612,613,614,615,616
1879,612,613,614,615,616,617,618,619,620,621
1880,617,618,619,620,621,622,623,624,625,626
1881,622,623,624,625,626,627,628,629,630,631
1882,631,632,633,634,635,636,637,638,639,640
1883,637,638,639,640,641,642,643,644,645,646
1884,640,641,642,643,644,645,646,647,648,649
1885,644,645,646,647,648,649,650,651,652,653
1886,647,648,649,650,651,652,653,654,655,656
1887,651,652,653,654,655,656,657,658,659,660
1888,655,656,657,658,659,660,661,662,663,664
1889,659,660,661,662,663,664,665,666,667,668
1890,663,664,665,666,667,668,669,670,671,672
1891,664,665,666,667,668,669,670,671,672,1
1892,669,670,671,672,1,2,3,4,5,6
1893,3,4,5,6,7,8,9,10,11,12
1894,9,10,11,12,13,14,15,16,17,18
1895,14,15,16,17,18,19,20,21,22,23
1896,21,22,23,24,25,26,27,28,29,30
1897,29,30,31,32,33,34,35,36,37,38
1898,38,39,40,41,42,43,44,45,46,47
1899,42,43,44,45,46,47,90,91,92,93
1900,92,93,94,95,96,97,98,99,100,101
1901,101,102,103,104,105,106,107,108,109,110
1902,105,106,107,108,109,110,111,112,113,114
1903,111,112,113,114,115,116,117,118,119,120
1904,115,116,117,118,119,120,121,122,123,124
1905,118,119,120,121,122,123,124,125,126,127
1906,119,120,121,122,123,124,125,126,127,128
1907,119,120,121,122,123,124,125,126,127,128
1908,125,126,127,128,148,149,150,151,152,153
1909,151,152,153,154,155,156,157,158,159,160
1910,157,158,159,160,161,162,163,164,165,166
1911,161,162,163,164,165,166,167,168,169,170
1912,168,169,170,171,172,173,174,175,176,177
1913,176,177,178,179,180,181,182,183,184,185
1914,186,187,188,189,190,191,192,193,194,195
1915,196,197,198,199,200,201,202,203,204,205
1916,203,204,205,206,207,208,209,210,211,212
1917,206,207,208,209,210,211,212,213,214,215
1918,209,210,211,212,213,214,215,216,217,218
1919,212,213,214,215,216,217,218,219,220,221
1920,214,215,216,217,218,219,220,221,222,223
1921,217,218,219,220,221,222,223,224,225,226
1922,221,222,223,224,225,226,227,228,229,230
1923,225,226,227,228,229,230,231,232,233,234
1924,229,230,231,232,233,234,235,236,237,238
1925,229,230,231,232,233,234,235,236,237,238
1926,236,237,238,239,240,241,242,243,244,245
1927,241,242,243,244,245,246,247,248,249,250
1928,241,242,243,244,245,246,247,248,249,250
1929,241,242,243,244,245,246,247,248,249,250
1930,241,242,243,244,245,246,247,248,249,250
1931,241,242,243,244,245,246,247,248,249,250
1932,241,242,243,244,245,246,247,248,249,250
1933,241,242,243,244,245,246,247,248,249,250
1934,241,242,243,244,245,246,247,248,249,250
1935,241,242,243,244,245,246,247,248,249,250
1936,241,242,243,244,245,246,247,248,249,250
1937,241,242,243,244,245,246,247,248,249,250
1938,242,243,244,245,246,247,248,249,250,251
1939,248,249,250,251,252,253,254,255,256,257
1940,248,249,250,251,252,253,254,255,256,257
1941,249,250,251,252,253,254,255,256,257,275
1942,251,252,253,254,255,256,257,275,276,277
1943,257,275,276,277,278,279,280,281,282,283
1944,279,280,281,282,283,284,285,286,304,305
1945,306,307,308,309,310,311,312,313,314,315
1946,316,317,318,319,320,321,322,323,324,325
1947,325,326,327,328,329,330,331,332,333,334
1948,331,332,333,334,335,336,337,338,339,340
1949,335,336,337,338,339,340,341,342,343,344
1950,335,336,337,338,339,340,341,342,343,344
1951,338,339,340,341,342,343,344,402,403,404
1952,343,344,402,403,404,405,406,407,408,409
1953,403,404,405,406,407,408,409,410,411,412
1954,403,404,405,406,407,408,409,410,411,412
1955,403,404,405,406,407,408,409,410,411,412
1956,403,404,405,406,407,408,409,410,411,412
1957,403,404,405,406,407,408,409,410,411,412
1958,403,404,405,406,407,408,409,410,411,412
1959,403,404,405,406,407,408,409,410,411,412
1960,403,404,405,406,407,408,409,410,411,412
1961,403,404,405,406,407,408,409,410,411,412
1962,403,404,405,406,407,408,409,410,411,412
1963,403,404,405,406,407,408,409,410,411,412
1964,406,407,408,409,410,411,412,413,414,415
1965,415,416,417,418,419,420,421,422,423,424
1966,417,418,419,420,421,422,423,424,444,445
1967,422,423,424,444,445,446,447,448,449,450
1968,449,450,451,452,453,454,455,456,457,458
1969,457,458,459,460,461,462,463,464,465,466
1970,464,465,466,467,468,469,470,471,472,473
1971,471,472,473,474,475,476,477,478,479,480
1972,479,480,481,482,483,484,485,486,487,488
1973,488,489,490,491,492,493,494,495,496,497
